\version "2.19.49"
% clairnote-type = sn
\include "clairnote.ly"
\header {
	transcription = "Dr. Dow"
	crossRefNumber = "1"
	footnotes = ""
	meter = "Slip Jig"
	source = "https://thesession.org/tunes/750#setting13848"
	arranger = "Setting 4"
	tagline = \markup { \vspace #1.8 \sans \abs-fontsize #7.5 \wordwrap {Sheet music in \with-url \clairnoteTypeUrl { \clairnoteTypeName music notation} published by Paul Morris using \with-url #"http://www.lilypond.org" {LilyPond.} Automatically converted to LilyPond format from an ABC source file from \with-url #"https://thesession.org" {the Session} website: \with-url #"https://thesession.org/tunes/750#setting13848" {"https://thesession.org/tunes/750#setting13848"}}}
	title = "A Fig For A Kiss"
}
voicedefault =  {
\set Score.defaultBarType = ""

\time 9/8 \key e \dorian   g'4    b'8    e'4    b'8    b'4    g'8  \bar "|"   
fis'4    a'8    d'4    a'8    a'4    fis'8  \bar "|"   g'4    b'8    e'4    b'8 
   b'4    cis''8  \bar "|"   d''4    b'8    a'8    g'8    fis'8    e'4    fis'8 
 \bar ":|."   d''4    b'8    a'8    g'8    fis'8    e'4.  \bar "||"   g''4    
e''8    g''4    e''8    e''4    g''8  \bar "|"   fis''4    d''8    fis''4    
d''8    d''8    e''8    fis''8  \bar "|"   g''4    e''8    g''4    e''8    e''4 
   cis''8  \bar "|"   d''4    b'8    a'4    b'8    d''8    e''8    fis''8  
\bar "|"   g''4    e''8    g''4    e''8    e''4    g''8  \bar "|"   fis''4    
d''8    fis''4    d''8    d''8    e''8    fis''8  \bar "|"   g''4    e''8    
fis''4    d''8    e''4    cis''8  \bar "|"   d''4    b'8    a'8    g'8    fis'8 
   e'4    fis'8  \bar "||"   
}

\score{
    <<

	\context Staff="default"
	{
	    \voicedefault 
	}

    >>
	\layout {
	}
	\midi {}
}
