\version "2.19.49"
% clairnote-type = sn
\include "clairnote.ly"
\header {
	transcription = "Rosin"
	crossRefNumber = "1"
	footnotes = ""
	meter = "Reel"
	source = "https://thesession.org/tunes/866#setting20843"
	arranger = "Setting 3"
	tagline = \markup { \vspace #1.8 \sans \abs-fontsize #7.5 \wordwrap {Sheet music in \with-url \clairnoteTypeUrl { \clairnoteTypeName music notation} published by Paul Morris using \with-url #"http://www.lilypond.org" {LilyPond.} Automatically converted to LilyPond format from an ABC source file from \with-url #"https://thesession.org" {the Session} website: \with-url #"https://thesession.org/tunes/866#setting20843" {"https://thesession.org/tunes/866#setting20843"}}}
	title = "Ale Is Dear, The"
}
voicedefault =  {
\set Score.defaultBarType = ""

\repeat volta 2 {
\time 4/4 \key b \dorian   fis''4    e''8    fis''8    b'4    fis''8    e''8    
\bar "|"   fis''8    a''8    e''8    fis''8    cis''8    e''8    a'8    e''8    
\bar "|"   fis''4    e''8    fis''8    b'4    fis''8    e''8    \bar "|"   
fis''8    a''8    e''8    cis''8    b'2    }     b'8    a'8    b'8    cis''8    
d''4    cis''8    b'8    \bar "|"   a'4    a'8    b'8    a'8    b'8    cis''8   
 a'8    \bar "|"   b'8    a'8    b'8    cis''8    d''4    cis''8    b'8    
\bar "|"   e''8    fis''8    e''8    cis''8    b'2    \bar "|"     b'8    a'8   
 b'8    cis''8    d''4    cis''8    b'8    \bar "|"   a'4    a'8    b'8    a'8  
  b'8    cis''8    a'8    \bar "|"   d''4    fis''8    d''8    cis''4    e''8   
 cis''8    \bar "|"   e''8    fis''8    e''8    cis''8    b'2    \bar "|"   
}

\score{
    <<

	\context Staff="default"
	{
	    \voicedefault 
	}

    >>
	\layout {
	}
	\midi {}
}
