\version "2.19.49"
% clairnote-type = sn
\include "clairnote.ly"
\header {
	transcription = "fynnjamin"
	crossRefNumber = "1"
	footnotes = ""
	meter = "Reel"
	source = "https://thesession.org/tunes/1162#setting14429"
	arranger = "Setting 2"
	tagline = \markup { \vspace #1.8 \sans \abs-fontsize #7.5 \wordwrap {Sheet music in \with-url \clairnoteTypeUrl { \clairnoteTypeName music notation} published by Paul Morris using \with-url #"http://www.lilypond.org" {LilyPond.} Automatically converted to LilyPond format from an ABC source file from \with-url #"https://thesession.org" {the Session} website: \with-url #"https://thesession.org/tunes/1162#setting14429" {"https://thesession.org/tunes/1162#setting14429"}}}
	title = "Allie Crocker's"
}
voicedefault =  {
\set Score.defaultBarType = ""

\time 4/4 \key g \major   d'8  \bar "|"   g'4    g'8.    g'16  \bar "|"   g'8   
 g'8    g'8    g'8  \bar "|"   a'8    g'8    fis'8    g'8  \bar "|"   a'8    
b'8    c''8    d''8  \bar "|"   b'8    g'8    g'8    g'8  \bar "|"   g'8    g'8 
   g'8    g'8  \bar "|"   a'8.    g'16    fis'8    g'8  \bar "|"   a'8.    b'16 
   c''8    c''8  \bar "|"   \grace {    b'8 (   c''8  }   d''4  -)   d''8    
d''8  \bar "|"   d''8    d''8    d''8    d''8  \bar "|"   e''8    d''8    c''8  
  b'8  \bar "|"   a'8.    b'16    c''8    c''8  \bar "|"   \grace {    a'8 (   
b'8  }   c''4  -)   c''8    c''8  \bar "|"   c''8    c''8    c''8    c''8  
\bar "|"   d''8    c''8    b'8    a'8  \bar "|"   g'8.    a'16    b'8    b'8  
\bar "|"   g'8    g'8    g'8    g'8  \bar "|"   fis'8    fis'8    fis'8    g'16 
   fis'16  \bar "|"   e'8    e'8    e'8    fis'16    e'16  \bar "|"   d'8    
d'8    d'4  \bar "|"   c''8.    c''16    c''8    d''8  \bar "|" \grace {    
d''8  }   c''4    b'8    a'8  \bar "|"   b'8    g'8    c''8    a'8  \bar "|"   
fis'4 ^"~"    g'4  \bar "||"   
}

\score{
    <<

	\context Staff="default"
	{
	    \voicedefault 
	}

    >>
	\layout {
	}
	\midi {}
}
