\version "2.19.49"
% clairnote-type = sn
\include "clairnote.ly"
\header {
	transcription = "bledsoeo"
	crossRefNumber = "1"
	footnotes = ""
	meter = "Jig"
	source = "https://thesession.org/tunes/838#setting13999"
	arranger = "Setting 4"
	tagline = \markup { \vspace #1.8 \sans \abs-fontsize #7.5 \wordwrap {Sheet music in \with-url \clairnoteTypeUrl { \clairnoteTypeName music notation} published by Paul Morris using \with-url #"http://www.lilypond.org" {LilyPond.} Automatically converted to LilyPond format from an ABC source file from \with-url #"https://thesession.org" {the Session} website: \with-url #"https://thesession.org/tunes/838#setting13999" {"https://thesession.org/tunes/838#setting13999"}}}
	title = "Andy De Jarlis'"
}
voicedefault =  {
\set Score.defaultBarType = ""

\time 6/8 \key d \major   \bar "|"   d''4    e''8    \repeat volta 2 {   fis''8 
   e''8    fis''8    d''8    e''8    fis''8    \bar "|"   g''8    fis''8    
g''8    b'4.    \bar "|"   e''8    fis''8    e''8    e''4    d''8    \bar "|"   
cis''8    b'8    a'8    a''4    g''8    \bar "|"   \bar "|"   fis''8    e''8    
fis''8    d''8    e''8    fis''8    \bar "|"   g''8    fis''8    g''8    b'4.   
 \bar "|"   e''8    fis''8    e''8    a'8    b'8    cis''8    \bar "|"   d''8   
 fis''8    e''8 ^"~"    d''4    r8   }   \repeat volta 2 {   d'8 (   fis'8    
a'8  -)   d'8 (   fis'8    a'8  -)   \bar "|"   d'8 (   fis'8    a'8  -)   b'4 
(   a'8  -)   \bar "|"   d'8 (   fis'8    a'8  -)   d'8 (   fis'8    a'8  -)   
\bar "|"   g'8 (   fis'8 ^"~"    g'8  -)   e'4    fis'8    \bar "|"   \bar "|"  
 d'8 (   fis'8    a'8  -)   d'8 (   fis'8    a'8  -)   \bar "|"   d'8 (   fis'8 
   a'8  -)   b'4 (   g''8  -)   \bar "|"   fis''8 ^"~"    e''8    d''8    a'8   
 b'8    cis''8    \bar "|"   d''8    fis''8    e''8    d''4    r8   }   
\repeat volta 2 {   d'8 (   fis'8    a'8  -)   d'8 (   fis'8    a'8  -)   
\bar "|"   d'8 (   fis'8    a'8  -)   b'4 (   a'8  -)   \bar "|"   d'8 (   
fis'8    a'8  -)   d'8 (   fis'8    a'8  -)   \bar "|"   bis8    e'8    g'8    
a'8    g'8    e'8    \bar "|"   \bar "|"   d'8 (   fis'8    a'8  -)   d'8 (   
fis'8    a'8  -)   \bar "|"   d'8 (   fis'8    a'8  -)   b'4 (   g''8  -)   
\bar "|"   fis''8 ^"~"    e''8    d''8    a'8    b'8    cis''8    \bar "|"   
d''8    fis''8    e''8    d''4    r8   }   
}

\score{
    <<

	\context Staff="default"
	{
	    \voicedefault 
	}

    >>
	\layout {
	}
	\midi {}
}
