\version "2.19.49"
% clairnote-type = sn
\include "clairnote.ly"
\header {
	transcription = "radriano"
	crossRefNumber = "1"
	footnotes = ""
	meter = "Reel"
	source = "https://thesession.org/tunes/422#setting422"
	arranger = "Setting 1"
	tagline = \markup { \vspace #1.8 \sans \abs-fontsize #7.5 \wordwrap {Sheet music in \with-url \clairnoteTypeUrl { \clairnoteTypeName music notation} published by Paul Morris using \with-url #"http://www.lilypond.org" {LilyPond.} Automatically converted to LilyPond format from an ABC source file from \with-url #"https://thesession.org" {the Session} website: \with-url #"https://thesession.org/tunes/422#setting422" {"https://thesession.org/tunes/422#setting422"}}}
	title = "A Parcel Of Land"
}
voicedefault =  {
\set Score.defaultBarType = ""

\time 4/4 \key g \major   g'4.    b'8    d''2    \bar "|"   e''8    fis''8    
g''8    a''8    g''8    e''8    d''8    b'8    \bar "|"   a'8    e'8    
\tuplet 3/2 {   e'8    e'8    e'8  }   a'8    b'8    c''8    d''8    \bar "|"   
fis''8    d''8    \tuplet 3/2 {   d''8    d''8    d''8  }   fis''8    d''8    
c''8    a'8    \bar "|"     b'8    g'8    g'8    g'8    d'8    g'8    g'8    
g'8    \bar "|"   e''8    fis''8    g''8    a''8    g''8    e''8    d''8    b'8 
   \bar "|"   a'8    c''8    a''8    g''8    fis''8    d''8    c''8    a'8    
\bar "|"   fis'8    g'8    a'8    fis'8    g'8    fis'8    e'8    d'8    
\bar ":|."   a'8    g'8    fis'8    a'8    g'8    a'8    b'8    d''8  \bar "||" 
    \bar ".|:"   \tuplet 3/2 {   g''8 -.   a''8 -.   g''8 -. }   fis''8    a''8   
 g''8    e''8    d''8    c''8    \bar "|"   b'8    c''8    d''8    b'8    g'8   
 a'8    b'8    d''8    \bar "|"   e''8    a'8    \tuplet 3/2 {   a'8    a'8    
a'8  }   e''8    a'8    e''8    g''8    \bar "|"   fis''8    d''8    
\tuplet 3/2 {   d''8    d''8    d''8  }   fis''8    d''8    c''8    a'8  
\bar "|"     d''8    g''8    g''8    fis''8    g''8    e''8    d''8    c''8    
\bar "|"   b'8    g''8    g''8    fis''8    g''8    d''8    b'8    d''8    
\bar "|"   c''8    e''8    a''8    g''8    fis''8    d''8    c''8    a'8    
\bar "|"   a'8    g'8    fis'8    a'8    g'8    a'8    b'8    d''8    
\bar ":|."   fis'8    g'8    a'8    fis'8    g'2    \bar "||"   
}

\score{
    <<

	\context Staff="default"
	{
	    \voicedefault 
	}

    >>
	\layout {
	}
	\midi {}
}
