\version "2.19.49"
% clairnote-type = sn
\include "clairnote.ly"
\header {
	transcription = "slainte"
	crossRefNumber = "1"
	footnotes = ""
	meter = "Jig"
	source = "https://thesession.org/tunes/775#setting775"
	arranger = "Setting 1"
	tagline = \markup { \vspace #1.8 \sans \abs-fontsize #7.5 \wordwrap {Sheet music in \with-url \clairnoteTypeUrl { \clairnoteTypeName music notation} published by Paul Morris using \with-url #"http://www.lilypond.org" {LilyPond.} Automatically converted to LilyPond format from an ABC source file from \with-url #"https://thesession.org" {the Session} website: \with-url #"https://thesession.org/tunes/775#setting775" {"https://thesession.org/tunes/775#setting775"}}}
	title = "Banks Of Lough Gowna, The"
}
voicedefault =  {
\set Score.defaultBarType = ""

\time 6/8 \key b \minor   b'8    cis''8    b'8    b'8    a'8    fis'8  \bar "|" 
  fis'8    e'8    fis'8    d'8    fis'8    a'8  \bar "|"   b'8    cis''8    b'8 
   b'8    a'8    fis'8  \bar "|"     d''4    e''8    fis''8    e''8    d''8  
\bar "|"   b'8    cis''8    b'8    b'8    a'8    fis'8  \bar "|"   fis'8    e'8 
   fis'8    d'8    fis'8    a'8  \bar "|"     d''8    e''8    fis''8    g''8    
e''8    g''8  \bar "|"   fis''8    d''8    b'8    b'8    d''8    cis''8  
\bar ":|."   fis''8    d''8    b'8    b'4. ^"~"  \bar "||"     \bar ".|:"   d''8 
   e''8    fis''8    a''4. ^"~"  \bar "|"   a''8    fis''8    b''8    a''8    
fis''8    e''8  \bar "|"   d''8    fis'8    a'8    d''8    e''8    fis''8  
\bar "|"     g''8    e''8    g''8    fis''8    d''8    b'8  \bar "|"   d''8    
e''8    fis''8    a''4. ^"~"  \bar "|"   a''8    fis''8    b''8    a''8    
fis''8    e''8  \bar "|"     d''8    e''8    fis''8    g''8    e''8    g''8  
\bar "|"   fis''8    d''8    b'8    b'4. ^"~"  \bar ":|."   fis''8    d''8    
b'8    b'8    d''8    cis''8  \bar "||"   
}

\score{
    <<

	\context Staff="default"
	{
	    \voicedefault 
	}

    >>
	\layout {
	}
	\midi {}
}
