\version "2.19.49"
% clairnote-type = sn
\include "clairnote.ly"
\header {
	transcription = "ceolachan"
	crossRefNumber = "1"
	footnotes = ""
	meter = "Slip Jig"
	source = "https://thesession.org/tunes/1429#setting14808"
	arranger = "Setting 4"
	tagline = \markup { \vspace #1.8 \sans \abs-fontsize #7.5 \wordwrap {Sheet music in \with-url \clairnoteTypeUrl { \clairnoteTypeName music notation} published by Paul Morris using \with-url #"http://www.lilypond.org" {LilyPond.} Automatically converted to LilyPond format from an ABC source file from \with-url #"https://thesession.org" {the Session} website: \with-url #"https://thesession.org/tunes/1429#setting14808" {"https://thesession.org/tunes/1429#setting14808"}}}
	title = "Barney Brannigan"
}
voicedefault =  {
\set Score.defaultBarType = ""

\time 9/8 \key f \major   \repeat volta 2 {   a'4    c''8    c''8    d''8    
c''8    c''8    d''8    c''8    \bar "|"   a'4    c''8    c''8    d''8    c''8  
  f''4    a''8    \bar "|"   a'4    c''8    c''8    d''8    c''8    c''8    
d''8    c''8    \bar "|"   d''4    d''8    d''8    e''8    f''8    g''8    e''8 
   c''8    }   \repeat volta 2 {   a'4    c''8    a'4    c''8    a'8    g'8    
f'8    \bar "|"   a'4    c''8    a'4    c''8    bes'8    a'8    g'8    \bar "|" 
  a'4    c''8    a'4    c''8    a'8    g'8    f'8    \bar "|"   d''4    d''8    
d''8    e''8    f''8    g''8    e''8    c''8    }   \repeat volta 2 {   a''4.   
 g''4.    f''4.    \bar "|"   d''4    d''8    d''8    e''8    f''8    g''8    
e''8    c''8    \bar "|"   a''4.    g''4.    f''4.    \bar "|"   d''4    d''8   
 c''4    bes'8    a'8    g'8    f'8    }   
}

\score{
    <<

	\context Staff="default"
	{
	    \voicedefault 
	}

    >>
	\layout {
	}
	\midi {}
}
