\version "2.19.49"
% clairnote-type = sn
\include "clairnote.ly"
\header {
	transcription = "slainte"
	crossRefNumber = "1"
	footnotes = ""
	meter = "Slide"
	source = "https://thesession.org/tunes/1014#setting14232"
	arranger = "Setting 4"
	tagline = \markup { \vspace #1.8 \sans \abs-fontsize #7.5 \wordwrap {Sheet music in \with-url \clairnoteTypeUrl { \clairnoteTypeName music notation} published by Paul Morris using \with-url #"http://www.lilypond.org" {LilyPond.} Automatically converted to LilyPond format from an ABC source file from \with-url #"https://thesession.org" {the Session} website: \with-url #"https://thesession.org/tunes/1014#setting14232" {"https://thesession.org/tunes/1014#setting14232"}}}
	title = "Barrack Hill"
}
voicedefault =  {
\set Score.defaultBarType = ""

\time 12/8 \key a \dorian   g''4    fis''8  \bar "|"   e''4    a'8    a'8    
b'8    d''8    e''4    d''8    b'4    d''8  \bar "|"   e''4    a'8    b'4    
a'8    g'4    a'8    b'4    d''8  \bar "|"   a'8    b'8    d''8  \bar "|"   
e''4.    e''8    fis''8    g''8    a''4    fis''8    g''4    e''8  \bar "|"   
d''4    b'8    d''4    g''8    d''4    b'8    d''4    g''8  \bar "|"   
}

\score{
    <<

	\context Staff="default"
	{
	    \voicedefault 
	}

    >>
	\layout {
	}
	\midi {}
}
