\version "2.19.49"
% clairnote-type = sn
\include "clairnote.ly"
\header {
	transcription = "swisspiper"
	crossRefNumber = "1"
	footnotes = ""
	meter = "Reel"
	source = "https://thesession.org/tunes/1270#setting22656"
	arranger = "Setting 6"
	tagline = \markup { \vspace #1.8 \sans \abs-fontsize #7.5 \wordwrap {Sheet music in \with-url \clairnoteTypeUrl { \clairnoteTypeName music notation} published by Paul Morris using \with-url #"http://www.lilypond.org" {LilyPond.} Automatically converted to LilyPond format from an ABC source file from \with-url #"https://thesession.org" {the Session} website: \with-url #"https://thesession.org/tunes/1270#setting22656" {"https://thesession.org/tunes/1270#setting22656"}}}
	title = "Beauty Spot, The"
}
voicedefault =  {
\set Score.defaultBarType = ""

\time 4/4 \key d \mixolydian   \bar "|" \tuplet 3/2 {   a'8 -.   c''8 -.   a'8 
-. }   g'8    b'8  \grace {    d''8  }   a'4    d''8    b'8  \bar "|" \grace {  
  d''8  }   c''8    b'8  \grace {    d''8  }   c''8    g'8    e'8    g'8    g'8 
   g'8  \bar "|" \tuplet 3/2 {   a'8 -.   c''8 -.   a'8 -. }   fis'8    b'8  
\grace {    d''8  }   a'4    d''8    b'8  \bar "|" \grace {    d''8  }   c''8   
 b'8  \grace {    d''8  }   c''8    g'8    e'8    d'8    \tuplet 3/2 {   d'8    
d'8    d'8  } \bar "|"     \bar "|"   a'4. ^"~"    d''8    d''8    cis''8    
a'8    b'8  \bar "|" \grace {    d''8  }   c''8    b'8  \grace {    d''8  }   
c''8    g'8    e'8    g'8    g'8    g'8  \bar "|"   a'4. ^"~"    d''8    a'8  
\grace {    d''8  }   b'8  \grace {    a'8  }   b'8    d''8  \bar "|" \grace {  
  d''8  }   c''8    b'8  \grace {    d''8  }   c''8    g'8    e'8    d'8    
\tuplet 3/2 {   d'8    d'8    d'8  } \bar "||"     \bar "|" \grace {    fis''8  
}   e''8    d''8    \tuplet 3/2 {   d''8 -.   cis''8 -.   d''8 -. }   e''8    
d''8    cis''8    d''8  \bar "|"   e''8    d''8    d''16 -.   cis''16 -.   d''8 
-.   e''8    e''8    g''4  \bar "|" \grace {    fis''8  }   e''8    d''8 -.   
d''16 -.   cis''16 -.   d''8 -.   e''8    d''8    c''!8    b'8  \bar "|"   g'8  
  a'8    c''8    d''8    e''8 ^\downbow   d''8    d''4  \bar "|"     \bar "|" 
\grace {    fis''8  }   e''8    d''8    \tuplet 3/2 {   b'8 -.   cis''8 -.   
d''8 -. }   e''8    d''8    cis''8    d''8  \bar "|"   e''8    d''8    
\tuplet 3/2 {   b'8 -.   cis''8 -.   d''8 -. }   e''8    fis''8    g''8    e''8  
\bar "|"   fis''8  \grace {    a''8  }   g''8    e''8    d''8 -.   d''8 -.   
c''8    a'8    g'8  \bar "|"   g'8    a'8    c''8    d''8    \tuplet 3/2 {   
e''8 -.   fis''8 -.   e''8 -. }   d''8    cis''8  \bar "||"   
}

\score{
    <<

	\context Staff="default"
	{
	    \voicedefault 
	}

    >>
	\layout {
	}
	\midi {}
}
