\version "2.19.49"
% clairnote-type = sn
\include "clairnote.ly"
\header {
	transcription = "Paul-Kin"
	crossRefNumber = "1"
	footnotes = ""
	meter = "Hornpipe"
	source = "https://thesession.org/tunes/945#setting945"
	arranger = "Setting 1"
	tagline = \markup { \vspace #1.8 \sans \abs-fontsize #7.5 \wordwrap {Sheet music in \with-url \clairnoteTypeUrl { \clairnoteTypeName music notation} published by Paul Morris using \with-url #"http://www.lilypond.org" {LilyPond.} Automatically converted to LilyPond format from an ABC source file from \with-url #"https://thesession.org" {the Session} website: \with-url #"https://thesession.org/tunes/945#setting945" {"https://thesession.org/tunes/945#setting945"}}}
	title = "Beeswing, The"
}
voicedefault =  {
\set Score.defaultBarType = ""

\repeat volta 2 {
\time 4/4 \key g \major   d'8    fis'8  \bar "|"   g'8.    d''16    b'16    
g'8.    fis'8.    c''16    a'16    fis'8.  \bar "|"   d'8.    b'16    g'16    
d'8.    b8.    g'16    d'16    b8.  \bar "|"   c'8.    e'16    a'16    c''8.    
b8.    d'16    g'8. ^\downbow   b'16 ^\downbow \bar "|" \tuplet 3/2 {   a'8    
g'8    fis'8  }   \tuplet 3/2 {   g'8    fis'8    e'8  }   d'4    e'8    fis'8  
\bar "|"     g'8.    d''16    b'16    g''8.    fis'8.    d''16    a'16    
fis''8.  \bar "|"   c'8.    g'16    e'16    c''8.    b8.    g'16    d'16    
b'8.  \bar "|"   c'8.    e'16    a'8.    c''16    b'8.    a'16    g'8.    
fis'16  \bar "|"   a'4    g'4    g'4  }     \repeat volta 2 {   d''8    c''8  
\bar "|"   b'16    g'8.    d''8.    b'16    g''8.    d''16    b'8.    g'16  
\bar "|"   a'16    fis'8.    d''8.    a'16    fis''8.    d''16    a'8.    
fis'16  \bar "|"   e'16    c'8.    g'8.    e'16    c''8.    a'16    b'8.    
g'16  \bar "|" \tuplet 3/2 {   a'8    g'8    fis'8  }   \tuplet 3/2 {   g'8    
fis'8    e'8  }   d'4    e'8    fis'8  \bar "|"     g'8.    d''16    b'16    
g''8.    fis'8.    d''16    a'16    fis''8.  \bar "|"   c'8.    g'16    e'16    
c''8.    b8.    g'16    d'16    b'8.  \bar "|"   c'8.    e'16    a'8.    c''16  
  b'8.    a'16    g'8.    fis'16  \bar "|"   a'4    g'4    g'4  }     
\repeat volta 2 { \tuplet 3/2 {   fis'8    g'8    a'8  } \bar "|"   g'8.    
d''16    \tuplet 3/2 {   b'8    a'8    g'8  }   fis'8.    c''16    \tuplet 3/2 {  
 a'8    g'8    fis'8  } \bar "|"   g'8.    d''16    \tuplet 3/2 {   b'8    a'8   
 g'8  }   d'8.    c'16    b8.    d'16  \bar "|"   c'8.    e'16    a'16    c''8. 
   b8.    d'16    g'8.    b'16  \bar "|" \tuplet 3/2 {   a'8    gis'8    a'8  }  
 \tuplet 3/2 {   g''8    e''8    cis''8  }   d''4    d'8.    e'16  \bar "|"     
\tuplet 3/2 {   g'8    b'8    d''8  }   \tuplet 3/2 {   g''8    d''8    b'8  }   
\tuplet 3/2 {   fis'8    a'8    d''8  }   \tuplet 3/2 {   fis''8    d''8    a'8  
} \bar "|" \tuplet 3/2 {   c'8    e'8    g'8  }   \tuplet 3/2 {   c''8    g'8    
e'8  }   \tuplet 3/2 {   b8    d'8    g'8  }   \tuplet 3/2 {   b'8    g'8    d'8  
} \bar "|"   c'8.    e'16    a'8.    c''16    b'8.    a'16    g'8.    fis'16  
\bar "|"   a'4    g'4    g'4  }     \repeat volta 2 {   d''8    c''8  \bar "|" 
\tuplet 3/2 {   b'8    a'8    g'8  }   \tuplet 3/2 {   d''8    b'8    d''8  }   
\tuplet 3/2 {   g''8    d''8    c''8  }   \tuplet 3/2 {   b'8    a'8    g'8  } 
\bar "|" \tuplet 3/2 {   a'8    g'8    fis'8  }   \tuplet 3/2 {   d''8    a'8    
d''8  }   \tuplet 3/2 {   fis''8    d''8    a'8  }   \tuplet 3/2 {   a'8    g'8   
 fis'8  } \bar "|"     \tuplet 3/2 {   e'8    c'8    e'8  }   \tuplet 3/2 {   g'8 
   e'8    g'8  }   \tuplet 3/2 {   c''8    b'8    a'8  }   \tuplet 3/2 {   b'8    
a'8    g'8  } \bar "|" \tuplet 3/2 {   a'8    gis'8    a'8  }   \tuplet 3/2 {   
g''8    e''8    cis''8  }   d''4    d'8.    e'16  \bar "|"     \tuplet 3/2 {   
g'8    b'8    d''8  }   \tuplet 3/2 {   g''8    d''8    b'8  }   \tuplet 3/2 {   
fis'8    a'8    d''8  }   \tuplet 3/2 {   fis''8    d''8    a'8  } \bar "|" 
\tuplet 3/2 {   c'8    e'8    g'8  }   \tuplet 3/2 {   c''8    g'8    e'8  }   
\tuplet 3/2 {   b8    d'8    g'8  }   \tuplet 3/2 {   b'8    g'8    d'8  } 
\bar "|"   c'8.    e'16    a'8.    c''16    b'8.    a'16    g'8.    fis'16  
\bar "|"   a'4    g'4    g'4  }   
}

\score{
    <<

	\context Staff="default"
	{
	    \voicedefault 
	}

    >>
	\layout {
	}
	\midi {}
}
