\version "2.19.49"
% clairnote-type = sn
\include "clairnote.ly"
\header {
	transcription = "Will Harmon"
	crossRefNumber = "1"
	footnotes = ""
	meter = "Reel"
	source = "https://thesession.org/tunes/1403#setting14774"
	arranger = "Setting 3"
	tagline = \markup { \vspace #1.8 \sans \abs-fontsize #7.5 \wordwrap {Sheet music in \with-url \clairnoteTypeUrl { \clairnoteTypeName music notation} published by Paul Morris using \with-url #"http://www.lilypond.org" {LilyPond.} Automatically converted to LilyPond format from an ABC source file from \with-url #"https://thesession.org" {the Session} website: \with-url #"https://thesession.org/tunes/1403#setting14774" {"https://thesession.org/tunes/1403#setting14774"}}}
	title = "Bill McEvoy's"
}
voicedefault =  {
\set Score.defaultBarType = ""

\time 4/4 \key g \major   d''4    c''8    a'8    d''8    g'4. ^"~"  \bar "|"   
d'8    g'8    b'8    d''8    g''8    d''8    b'8    d''8  \bar "|"   c''16    
d''16    c''8    b'8    d''8    c''8    fis'4. ^"~"  \bar "|"   c'8    fis'8    
a'8    c''8    fis''8    a''8    g''8    fis''8  \bar "|"   d''16    e''16    
d''8    c''8    a'8    d''8    g'4. ^"~"  \bar "|"   d'8    g'8    b'8    d''8  
  g''8    d''8    b'16    c''16    d''8  \bar "|"   c''8    fis'8    a'8    
c''8    fis''8    a''8    g''8    e''8  \bar "|"   fis''8    d''8    c''8    
a'8    g'4    a'8    c''8  \bar ":|."   fis''8    d''8    c''8    a'8    g'4.   
 fis''8  \bar "||"   \bar ".|:"   g''4. ^"~"    a''8    b''8    g''8    a''16    
g''16    fis''8  \bar "|"   g''8    b''8    a''8    g''8    fis''8    d''8    
d''8    fis''8  \bar "|"   e''8    c''8    c''16    c''16    c''8    g''8    
c''8    e''8    g''8  \bar "|"   fis''8    g''8    a''8    g''8    fis''8    
d''8    e''8    fis''8  \bar "|"   g''4. ^"~"    a''8    b''8    g''8    a''16  
  g''16    fis''8  \bar "|"   g''8    b''8    a''8    g''8    fis''8    d''8    
d''8    fis''8  \bar "|"   e''8    c''8    c''16    c''16    c''8    g''8    
c''8    e''8    g''8  \bar "|"   fis''8    d''8    c''8    a'8    g'4.    
fis''8  \bar ":|."   fis''8    d''8    c''8    a'8    g'4    a'8    c''8  
\bar "||"   
}

\score{
    <<

	\context Staff="default"
	{
	    \voicedefault 
	}

    >>
	\layout {
	}
	\midi {}
}
