\version "2.19.49"
% clairnote-type = sn
\include "clairnote.ly"
\header {
	transcription = "Dr. Dow"
	crossRefNumber = "1"
	footnotes = ""
	meter = "Reel"
	source = "https://thesession.org/tunes/1403#setting1403"
	arranger = "Setting 1"
	tagline = \markup { \vspace #1.8 \sans \abs-fontsize #7.5 \wordwrap {Sheet music in \with-url \clairnoteTypeUrl { \clairnoteTypeName music notation} published by Paul Morris using \with-url #"http://www.lilypond.org" {LilyPond.} Automatically converted to LilyPond format from an ABC source file from \with-url #"https://thesession.org" {the Session} website: \with-url #"https://thesession.org/tunes/1403#setting1403" {"https://thesession.org/tunes/1403#setting1403"}}}
	title = "Bill McEvoy's"
}
voicedefault =  {
\set Score.defaultBarType = ""

\repeat volta 2 {
\time 4/4 \key g \mixolydian   d''4    c''8    a'8    d''8    g'8    g'4 ^"~"  
\bar "|"   d'8    g'8    b'8    d''8    g''8    d''8    b'8    d''8  \bar "|"   
c''4    b'8    d''8    c''8    f'8    f'4 ^"~"  \bar "|"   c'8    f'8    a'8    
c''8    f''8    a''8    g''8    f''8  \bar "|"     d''4    c''8    a'8    d''8  
  g'8    g'4 ^"~"  \bar "|"   d'8    g'8    b'8    d''8    g''8    d''8    b'8  
  d''8  \bar "|"   c''8    a'8    a'8    c''8    f''8    a''8    g''8    f''8  
\bar "|"   d''8    b'8    c''8    a'8    b'8    g'8    g'4 ^"~"  }   
\key g \major   \repeat volta 2 {   g''4. ^"~"    a''8    b''8    g''8    a''8  
  fis''8  \bar "|"   g''8    b''8    a''8    g''8    fis''8    d''8    d''8    
fis''8  \bar "|"   e''8    c''8    c''4 ^"~"    g''8    c''8    e''8    g''8  
\bar "|"   fis''8    g''8    a''8    g''8    fis''8    d''8    e''8    fis''8  
\bar "|"     g''4. ^"~"    a''8    b''8    g''8    a''8    fis''8  \bar "|"   
g''8    b''8    a''8    g''8    fis''8    d''8    d''8    fis''8  \bar "|"   
e''8    c''8    c''4 ^"~"    g''8    c''8    e''8    g''8  \bar "|"   fis''8    
d''8    c''8    a'8    b'8    g'8    g'4 ^"~"  }   
}

\score{
    <<

	\context Staff="default"
	{
	    \voicedefault 
	}

    >>
	\layout {
	}
	\midi {}
}
