\version "2.19.49"
% clairnote-type = sn
\include "clairnote.ly"
\header {
	transcription = "ceolachan"
	crossRefNumber = "1"
	footnotes = ""
	meter = "Reel"
	source = "https://thesession.org/tunes/966#setting14161"
	arranger = "Setting 3"
	tagline = \markup { \vspace #1.8 \sans \abs-fontsize #7.5 \wordwrap {Sheet music in \with-url \clairnoteTypeUrl { \clairnoteTypeName music notation} published by Paul Morris using \with-url #"http://www.lilypond.org" {LilyPond.} Automatically converted to LilyPond format from an ABC source file from \with-url #"https://thesession.org" {the Session} website: \with-url #"https://thesession.org/tunes/966#setting14161" {"https://thesession.org/tunes/966#setting14161"}}}
	title = "Black Pat's"
}
voicedefault =  {
\set Score.defaultBarType = ""

\time 4/4 \key g \major   \repeat volta 2 {   g'4. ^"~"    b'8    e''4    d''8  
  b'8    \bar "|"   a'8    d'8    b'8    a'8    g'8    e'8    e'4 ^"~"    
\bar "|"   g'4. ^"~"    b'8    e''8    d''8    b'8    a'8    \bar "|"   b'16    
c''16    d''8    g''8    b''8    a''4    g''8    a''8    \bar "|"   b''8    
g''8    g''4 ^"~"    a''8    g''8    e''8    d''8    \bar "|"   a'8    b'8    
d''8    b'8    a'8    g'8    e'8    d'8    \bar "|"   g'4. ^"~"    b'8    e''8  
  d''8    d''8    b'8    \bar "|"   a'8    g'8    b'8    a'8    g'4. ^"~"    r8 
  }   d'8    g'8    g'4 ^"~"    g'8    e'8    d'8    e'8    \bar "|"   g'4. 
^"~"    a'8    b'8    e''8    e''4 ^"~"    \bar "|"   d''4    b'8    g'8    
d''8    g'8    b'8    g'8    \bar "|"   a'8    d'8    b'8    a'8    g'8    e'8  
  e'4 ^"~"    \bar "|"   g'8    fis'8    g'8    a'8    g'8    e'8    d'8    e'8 
   \bar "|"   g'4. ^"~"    b'8    d''8    e''8    g''8    a''8    \bar "|"   
b''8    g''8    g''4 ^"~"    a''8    g''8    e''8    g''8    \bar "|"   d''8    
g''8    b''8    a''8    g''4. ^"~"    r8   \bar "|"   d''4.    b'8    b'8    
a'8    g'8    e'8    \bar "|"   d'8    e'8    g'8    a'8    b'8    e''8    e''4 
^"~"    \bar "|"   d''4    b'8    g'8    d''8    g'8    b'8    g'8    \bar "|"  
 a'8    d'8    b'8    a'8    g'8    e'8    e'4 ^"~"    \bar "|"   g'8    fis'8  
  g'8    a'8    g'8    e'8    d'8    e'8    \bar "|"   g'4. ^"~"    b'8    d''8 
   e''8    g''8    a''8    \bar "|"   b''8    g''8    g''4 ^"~"    a''8    g''8 
   e''8    g''8    \bar "|"   d''8    g''8    b''8    a''8    g''4. ^"~"    r8  
 \bar "||"   \repeat volta 2 {   b''4. ^"~"    g''8    e''8    g''8    d''8    
e''8    \bar "|"   g''8    e''8    d''8    b'8    g'4. ^"~"    r8   \bar "|"   
b''4    g''8    d''8    b''4    g''8    d''8    \bar "|"   e''8    a''8    a''4 
^"~"    a''4 ^"~"    g''8    a''8    \bar "|"   b''8    ais''8    b''8    g''8  
  e''8    g''8    d''8    g''8    \bar "|"   g''8    e''8    d''8    a'8    
b'16    c''16    d''8    g''8    a''8    \bar "|"   b''4    a''8    g''8    
e''8    d''8    d''8    b'8    \bar "|"   a'8    g'8    g'8    fis'8    g'4. 
^"~"    r8   }   
}

\score{
    <<

	\context Staff="default"
	{
	    \voicedefault 
	}

    >>
	\layout {
	}
	\midi {}
}
