\version "2.19.49"
% clairnote-type = sn
\include "clairnote.ly"
\header {
	transcription = "m.r.kelahan"
	crossRefNumber = "1"
	footnotes = ""
	meter = "Jig"
	source = "https://thesession.org/tunes/1076#setting14307"
	arranger = "Setting 4"
	tagline = \markup { \vspace #1.8 \sans \abs-fontsize #7.5 \wordwrap {Sheet music in \with-url \clairnoteTypeUrl { \clairnoteTypeName music notation} published by Paul Morris using \with-url #"http://www.lilypond.org" {LilyPond.} Automatically converted to LilyPond format from an ABC source file from \with-url #"https://thesession.org" {the Session} website: \with-url #"https://thesession.org/tunes/1076#setting14307" {"https://thesession.org/tunes/1076#setting14307"}}}
	title = "Black Rogue, The"
}
voicedefault =  {
\set Score.defaultBarType = ""

\time 6/8 \key d \major   \repeat volta 2 {   d''8    \bar "|"   cis''8    a'8  
  c''8    b'8    g'8    b'8    \bar "|"   cis''8    a'8    a'8    a'4    d''8   
 \bar "|"   cis''8    a'8    c''8    b'8    g'8    b'8    \bar "|"   a'8    
fis'8    d'8    d'4    d''8    \bar "|"   cis''8    a'8    c''8    b'8    g'8   
 b'8    \bar "|"   cis''8    a'8    a'8    a'4    d''8    \bar "|"   g'4.    
b'8    g'8    b'8    \bar "|"   a'8    fis'8    d'8    d'4    }   
\repeat volta 2 {   e''8    \bar "|"   fis''4.    g''4.    \bar "|"   a''8    
fis''8    d''8    cis''8    b'8    a'8    \bar "|"   fis''4.    g''4.    
\bar "|"   a''8    fis''8    d''8    d''8    fis''8    g''8    \bar "|"   a''8  
  g''8    fis''8    g''8    fis''8    e''8    \bar "|"   fis''8    e''8    d''8 
   e''4    d''8    \bar "|"   cis''8    a'8    c''8    b'8    g'8    b'8    
\bar "|"   a'8    fis'8    d'8    d'4    }   \repeat volta 2 {   d''8    
\bar "|"   cis''8 -.   a'8    c''8  \grace {    b'8    c''8  }   b'8    g'8    
b'8    \bar "|"   cis''8 -.   a'8    a'8  \grace {    b'8    a'8    g'8  }   
a'4    d''8    \bar "|"   cis''8 -.   a'8    c''8  \grace {    b'8    c''8  }   
b'8    g'8    b'8    \bar "|" \grace {    a'8    b'8  }   a'8    fis'8    d'8  
\grace {    a'8  }   d'4    d''8    \bar "|"   cis''8 -.   a'8    c''8  
\grace {    b'8    c''8  }   b'8    g'8    b'8    \bar "|"   cis''8 -.   a'8    
a'8  \grace {    b'8    a'8    g'8  }   a'4    fis'8    \bar "|"   g'4. ^"~"  
\grace {    cis''8  }   b'8    g'8    b'8    \bar "|" \grace {    a'8    b'8  } 
  a'8    fis'8    d'8  \grace {    a'8  }   d'4    }   \repeat volta 2 {   e''8 
   \bar "|"   fis''4. ^"~"    g''4. ^"~"    \bar "|" \grace {    b''8  }   a''8 
   fis''8    d''8  \grace {    a'8    b'8  }   cis''8    b'8    a'8    \bar "|" 
  fis''4. ^"~"    g''4. ^"~"    \bar "|"   a''8    fis''8 -.   d''8    d''8    
fis''8    g''8    \bar "|"   \grace {    b''8  }   a''8    fis''8    g''8  
\grace {    a''8  }   g''8    fis''8    e''8    \bar "|"   fis''8    e''8    
d''8  \grace {    g''8    e''8    d''8  }   e''4    d''8    \bar "|"   cis''8   
 a'8    c''8  \grace {    b'8    c''8  }   b'8    g'8    b'8    \bar "|" 
\grace {    a'8    b'8  }   a'8    fis'8    d'8  \grace {    a'8  }   d'4    }  
 
}

\score{
    <<

	\context Staff="default"
	{
	    \voicedefault 
	}

    >>
	\layout {
	}
	\midi {}
}
