\version "2.19.49"
% clairnote-type = sn
\include "clairnote.ly"
\header {
	transcription = "stanton135"
	crossRefNumber = "1"
	footnotes = ""
	meter = "Reel"
	source = "https://thesession.org/tunes/237#setting21736"
	arranger = "Setting 2"
	tagline = \markup { \vspace #1.8 \sans \abs-fontsize #7.5 \wordwrap {Sheet music in \with-url \clairnoteTypeUrl { \clairnoteTypeName music notation} published by Paul Morris using \with-url #"http://www.lilypond.org" {LilyPond.} Automatically converted to LilyPond format from an ABC source file from \with-url #"https://thesession.org" {the Session} website: \with-url #"https://thesession.org/tunes/237#setting21736" {"https://thesession.org/tunes/237#setting21736"}}}
	title = "Blackhaired Lass, The"
}
voicedefault =  {
\set Score.defaultBarType = ""

\time 4/4 \key a \mixolydian   \repeat volta 2 {   b'8    \bar "|"   cis''8    
a'8    a'4    cis''8    d''8    e''8    cis''8    \bar "|"   d''4    g''8    
d''8    b'8    g'8    g'8    b'8    \bar "|"   cis''8    a'8    a'4 ^"~"    
cis''8    d''8    e''8    cis''8    \bar "|"   d''8    fis''8    e''8    cis''8 
   a'4.    }     g'8    \bar "|"   b'16    cis''16    d''8    e''8    fis''8    
g''4 ^"~"    e''8    g''8    \bar "|"   fis''8    d''8    d''8    fis''8    
g''8    fis''8    e''8    d''8    \bar "|"   b'16    cis''16    d''8    e''8    
fis''8    g''8    e''8    a''8    g''8    \bar "|"   fis''8    d''8    e''8    
cis''8    a'4    a'8    g'8    \bar "|"     b'16    cis''16    d''8    e''8    
fis''8    g''8    fis''8    e''8    g''8    \bar "|"   fis''8    d''8    d''8   
 cis''8    d''8    e''8    fis''8    g''8    \bar "|"   a''8    fis''8    g''16 
   fis''16    e''8    fis''8    d''8    e''8    cis''8  \bar "|"   d''8    
fis''8    e''8    cis''8    a'4.    \bar "||"   
}

\score{
    <<

	\context Staff="default"
	{
	    \voicedefault 
	}

    >>
	\layout {
	}
	\midi {}
}
