\version "2.19.49"
% clairnote-type = sn
\include "clairnote.ly"
\header {
	transcription = "BenH"
	crossRefNumber = "1"
	footnotes = ""
	meter = "Jig"
	source = "https://thesession.org/tunes/5#setting25593"
	arranger = "Setting 5"
	tagline = \markup { \vspace #1.8 \sans \abs-fontsize #7.5 \wordwrap {Sheet music in \with-url \clairnoteTypeUrl { \clairnoteTypeName music notation} published by Paul Morris using \with-url #"http://www.lilypond.org" {LilyPond.} Automatically converted to LilyPond format from an ABC source file from \with-url #"https://thesession.org" {the Session} website: \with-url #"https://thesession.org/tunes/5#setting25593" {"https://thesession.org/tunes/5#setting25593"}}}
	title = "Blarney Pilgrim, The"
}
voicedefault =  {
\set Score.defaultBarType = ""

\repeat volta 2 {
\time 6/8 \key d \mixolydian   d'8    e'8    d'8    d'8    e'8    g'8  \bar "|" 
  a'4    g'8    a'8    b'8    c''8  \bar "|"   b'8    a'8    g'8    a'8    g'8  
  e'8  \bar "|"   g'8    e'8    a'8    g'8    e'8    d'8  \bar "|"     d'8    
e'8    d'8    d'8    e'8    g'8  \bar "|"   a'4    g'8    a'8    b'8    c''8  
\bar "|"   b'8    a'8    g'8    a'8    g'8    e'8  \bar "|"   g'8    e'8    d'8 
   d'4.  }     \repeat volta 2 {   d''8    e''8    d''8    d''8    b'8    g'8  
\bar "|"   a'8    g'8    a'8    b'8    g'8    e'8  \bar "|"   d''8    e''8    
d''8    d''8    b'8    g'8  \bar "|"   a'8    g'8    a'8    b'4    e''16    
fis''16  \bar "|"     g''4    e''8    d''8    b'8    g'8  \bar "|"   a'8    g'8 
   a'8    b'8    c''8    d''8  \bar "|"   c''8    b'8    a'8    b'8    a'8    
g'8  \bar "|"   a'8    g'8    e'8    d'4.  }     \repeat volta 2 {   a'4    d'8 
   b'4    d'8  \bar "|"   a'4    d'8    a'8    b'8    c''8  \bar "|"   b'8    
a'8    g'8    a'8    g'8    e'8  \bar "|"   g'8    e'8    a'8    g'8    e'8    
d'8  \bar "|"     a'4    d'8    b'4    d'8  \bar "|"   a'4    d'8    a'8    b'8 
   c''8  \bar "|"   b'8    a'8    g'8    a'8    g'8    e'8  \bar "|"   g'8    
e'8    d'8    d'4.  }   
}

\score{
    <<

	\context Staff="default"
	{
	    \voicedefault 
	}

    >>
	\layout {
	}
	\midi {}
}
