\version "2.19.49"
% clairnote-type = sn
\include "clairnote.ly"
\header {
	transcription = "aidriano"
	crossRefNumber = "1"
	footnotes = ""
	meter = "Reel"
	source = "https://thesession.org/tunes/274#setting27890"
	arranger = "Setting 3"
	tagline = \markup { \vspace #1.8 \sans \abs-fontsize #7.5 \wordwrap {Sheet music in \with-url \clairnoteTypeUrl { \clairnoteTypeName music notation} published by Paul Morris using \with-url #"http://www.lilypond.org" {LilyPond.} Automatically converted to LilyPond format from an ABC source file from \with-url #"https://thesession.org" {the Session} website: \with-url #"https://thesession.org/tunes/274#setting27890" {"https://thesession.org/tunes/274#setting27890"}}}
	title = "Blockers, The"
}
voicedefault =  {
\set Score.defaultBarType = ""

\time 4/4 \key g \major   \repeat volta 2 {   b'8    c''8    d''8    c''8    
b'8    g'8    g'4 ^"~"  \bar "|"   f'8    e'8    d'8    e'8    f'8    g'8    
a'8    c''8  \bar "|"   d''8    g''8    g''4 ^"~"    fis''8    g''8    a''8    
g''8  \bar "|"   fis''8    d''8    c''8    b'8    a'8    f'8    f'4  \bar "|"   
  b'8    c''8    d''8    c''8    b'8    g'8    g'4 ^"~"  \bar "|"   f'8    e'8  
  d'8    e'8    f'8    g'8    a'8    c''8  \bar "|"   d''8    g''8    g''4 
^"~"    fis''8    g''8    a''8    g''8  } \alternative{{   fis''8    d''8    
c''8    a'8    g'4.    r8 } {   fis''8    d''8    c''8    a'8    g'8    a'8    
b'8    d''8  \bar "||"     g''4    d''8    g''8    g'8    d''8    b'8    d''8  
\bar "|"   c''4    c''8    d''8    c''8    a'8    g'8    e'8  \bar "|"   d'8    
g'8    g'4 ^"~"    fis'8    g'8    a'8    c''8  \bar "|"   b'8    c''8    d''8  
  e''8    fis''8    d''8    e''8    fis''8  \bar "|"     g''4    d''8    g''8   
 g'8    d''8    b'8    d''8  \bar "|"   c''4    c''8    d''8    c''8    a'8    
g'8    e'8  \bar "|"   d'8    g'8    g'4 ^"~"    fis'8    g'8    a'8    c''8  
\bar "|"   b'8    g'8    a'8    fis'8    g'4.    r8 \bar "||"     g''4    d''8  
  g''8    g'8    d''8    b'8    d''8  \bar "|"   c''4    c''8    d''8    c''8   
 a'8    g'8    e'8  \bar "|"   d'8    g'8    g'4 ^"~"    fis'8    g'8    a'8    
c''8  \bar "|"   b'8    c''8    d''8    e''8    fis''8    d''8    e''8    
fis''8  \bar "|"     g''4    \tuplet 3/2 {   g''8  \grace {    a''8  }   fis''8  
}   g''8    g''8    d''8    b'8    d''8  \bar "|"   c''4    c''8    d''8    
c''8    a'8    g'8    e'8  \bar "|"   d'8    g'8    g'4 ^"~"    fis'8    g'8    
a'8    c''8  \bar "|"   b'8    r8   a'8    r8   g'2  \bar "||"   }}
}

\score{
    <<

	\context Staff="default"
	{
	    \voicedefault 
	}

    >>
	\layout {
	}
	\midi {}
}
