\version "2.19.49"
% clairnote-type = sn
\include "clairnote.ly"
\header {
	transcription = "glauber"
	crossRefNumber = "1"
	footnotes = ""
	meter = "Polka"
	source = "https://thesession.org/tunes/316#setting316"
	arranger = "Setting 1"
	tagline = \markup { \vspace #1.8 \sans \abs-fontsize #7.5 \wordwrap {Sheet music in \with-url \clairnoteTypeUrl { \clairnoteTypeName music notation} published by Paul Morris using \with-url #"http://www.lilypond.org" {LilyPond.} Automatically converted to LilyPond format from an ABC source file from \with-url #"https://thesession.org" {the Session} website: \with-url #"https://thesession.org/tunes/316#setting316" {"https://thesession.org/tunes/316#setting316"}}}
	title = "Boil The Coffee Early"
}
voicedefault =  {
\set Score.defaultBarType = ""

\time 2/4 \key d \major   a'16    \bar "|"   fis'8    e'16    d'16    fis'8    
e'16    d'16    \bar "|"   fis'8.    a'16    a'8.    a'16    \bar "|"   fis'8   
 e'16    d'16    fis'8    e'16    d'16    \bar "|"   fis'8.    e'16    e'8.    
a'16    \bar "|"     fis'8    e'16    d'16    fis'8    e'16    d'16    \bar "|" 
  fis'8.    a'16    a'8.    a'16    \bar "|"   \tuplet 3/2 {   a'8    b'8    
cis''8  }   d''8    b'16    g'16    \bar "|"   fis'8.    e'16    d'8.    
\bar "||"     a'32    \bar "|"   d''8.    cis''16    d''8.    a'16    \bar "|"  
 fis'8.    g'16    a'8.    fis'16    \bar "|"   g'8.    a'16    b'8.    cis''16 
   \bar "|"   d''8.    a'16    g'8.    a'16    \bar "|"     d''8.    cis''16    
d''8.    a'16    \bar "|"   fis'8.    g'16    a'8.    fis'16    \bar "|"   g'8. 
   a'16    b'8.    cis''16    \bar "|"   \tuplet 3/2 {   d''8    a'8    fis'8  } 
  d'8.    \bar "||"     fis'32    \bar "|"   d'8    e'16    fis'16    d'8    
e'16    fis'16    \bar "|"   e'8.    a'16    g'8.    a'16    \bar "|"   g'8    
a'16    b'16    a'8    b'16    cis''16    \bar "|"   d''8.    a'16    fis'8.    
a'16    \bar "|"     d''8.    cis''16    d''8.    a'16    \bar "|"   fis'8.    
e'16    d'8.    e'16    \bar "|"   \tuplet 3/2 {   a'8    fis'8    e'8  }   d'8. 
   e'16    \bar "|"   fis'8.    e'16    d'8.    \bar "||"   
}

\score{
    <<

	\context Staff="default"
	{
	    \voicedefault 
	}

    >>
	\layout {
	}
	\midi {}
}
