\version "2.19.49"
% clairnote-type = sn
\include "clairnote.ly"
\header {
	transcription = "Thom Pratt"
	crossRefNumber = "1"
	footnotes = ""
	meter = "Reel"
	source = "https://thesession.org/tunes/485#setting485"
	arranger = "Setting 1"
	tagline = \markup { \vspace #1.8 \sans \abs-fontsize #7.5 \wordwrap {Sheet music in \with-url \clairnoteTypeUrl { \clairnoteTypeName music notation} published by Paul Morris using \with-url #"http://www.lilypond.org" {LilyPond.} Automatically converted to LilyPond format from an ABC source file from \with-url #"https://thesession.org" {the Session} website: \with-url #"https://thesession.org/tunes/485#setting485" {"https://thesession.org/tunes/485#setting485"}}}
	title = "Bothar Na Sop"
}
voicedefault =  {
\set Score.defaultBarType = ""

\repeat volta 2 {
\time 4/4 \key g \major   d'8    g'8    b'8    g'8    a'8    g'8    b'8    g'8  
\bar "|"   d'8    g'8    b'8    g'8    a'8    g'8    e'8    g'8  \bar "|"   d'8 
   g'8    b'8    g'8    a'4. ^"~"    b'8  \bar "|"   d''4. ^"~"    c''8    b'8  
  g'4. ^"~"  \bar "|"     d'8    g'8    b'8    g'8    a'8    g'8    b'8    g'8  
\bar "|"   d'8    g'8    b'8    g'8    a'8    g'8    e'8    g'8  \bar "|"   
b'4. ^"~"    a'8    g'4. ^"~"    e'8  \bar "|"   d'8    e'8    g'8    a'8    
b'8    g'4. ^"~"  }     b'8    d''8    d''8    e''8    d''4. ^"~"    d''8  
\bar "|" \tuplet 3/2 {   b'8    c''8    d''8  }   g''8    d''8    b'8    a'4. 
^"~"  \bar "|"   b'8    d''8    d''8    e''8    d''4    g''8    d''8  \bar "|"  
 b'4    a'8    c''8    b'8    g'4. ^"~"  \bar "|"     b'8    d''8    d''8    
e''8    d''4. ^"~"    d''8  \bar "|" \tuplet 3/2 {   b'8    c''8    d''8  }   
g''8    d''8    b'8    a'4. ^"~"  \bar "|"   b'8    d''4. ^"~"    e''8    d''8  
  g''8    d''8  \bar "|"   d''8    b'8    a'8    c''8    b'8    g'4. ^"~"  
\bar "|"     b'8    d''8    d''8    e''8    d''4. ^"~"    d''8  \bar "|" 
\tuplet 3/2 {   b'8    c''8    d''8  }   g''8    d''8    b'8    a'4. ^"~"  
\bar "|"   b'8    d''8    d''8    e''8    d''4    g''8    d''8  \bar "|"   b'8  
  d''8    a'8    c''8    b'8    g'4. ^"~"  \bar "|"     b'8    d''8    d''8    
b'8    d''4. ^"~"    d''8  \bar "|" \tuplet 3/2 {   b'8    c''8    d''8  }   
g''8    d''8    b'8    a'4. ^"~"  \bar "|"   b'8    d''4. ^"~"    e''8    d''8  
  g''8    d''8  \bar "|"   b'8    d''8    a'8    c''8    b'8    g'4. ^"~"  
\bar "||"   
}

\score{
    <<

	\context Staff="default"
	{
	    \voicedefault 
	}

    >>
	\layout {
	}
	\midi {}
}
