\version "2.19.49"
% clairnote-type = sn
\include "clairnote.ly"
\header {
	transcription = "Mix O'Lydian"
	crossRefNumber = "1"
	footnotes = ""
	meter = "Hornpipe"
	source = "https://thesession.org/tunes/651#setting26210"
	arranger = "Setting 7"
	tagline = \markup { \vspace #1.8 \sans \abs-fontsize #7.5 \wordwrap {Sheet music in \with-url \clairnoteTypeUrl { \clairnoteTypeName music notation} published by Paul Morris using \with-url #"http://www.lilypond.org" {LilyPond.} Automatically converted to LilyPond format from an ABC source file from \with-url #"https://thesession.org" {the Session} website: \with-url #"https://thesession.org/tunes/651#setting26210" {"https://thesession.org/tunes/651#setting26210"}}}
	title = "Boys Of Bluehill, The"
}
voicedefault =  {
\set Score.defaultBarType = ""

\time 4/4 \key d \major   \repeat volta 2 {   d''8.    b'16    \bar "|"   b'8.  
  a'16    fis'8.    a'16    d'8.    a'16    fis'8.    a'16    \bar "|"   b'8.   
 a'16    \tuplet 3/2 {   b'8    cis''8    d''8  }   e''4    d''8.    e''16    
\bar "|"   fis''8.    a''16    g''8.    fis''16    e''8.    g''16    fis''8.    
e''16    \bar "|"   d''8.    fis''16    e''8.    d''16    b'4    d''8.    b'16  
  \bar "|"     b'8.    a'16    fis'8.    a'16    d'8.    a'16    fis'8.    a'16 
   \bar "|"   b'8.    a'16    \tuplet 3/2 {   b'8    cis''8    d''8  }   e''4    
d''8.    e''16    \bar "|"   fis''8.    a''16    g''8.    fis''16    e''8.    
g''16    fis''8.    e''16    \bar "|"   d''4    fis''4    d''4    }     
\repeat volta 2 {   fis''8.    g''16    \bar "|"   a''8.    fis''16    d''8.    
fis''16    a''4    g''8.    fis''16    \bar "|"   e''8.    fis''16    g''8.    
a''16    b''4    a''8.    g''16    \bar "|"   fis''8.    a''16    g''8.    
fis''16    e''8.    g''16    fis''8.    e''16    \bar "|"   d''8.    fis''16    
e''8.    d''16    b'4    d''8.    b'16    \bar "|"     b'8.    a'16    fis'8.   
 a'16    d'8.    a'16    fis'8.    a'16    \bar "|"   b'8.    a'16    
\tuplet 3/2 {   b'8    cis''8    d''8  }   e''4    d''8.    e''16    \bar "|"   
fis''8.    a''16    g''8.    fis''16    e''8.    g''16    fis''8.    e''16    
\bar "|"   d''4    fis''4    d''4    }   
}

\score{
    <<

	\context Staff="default"
	{
	    \voicedefault 
	}

    >>
	\layout {
	}
	\midi {}
}
