\version "2.19.49"
% clairnote-type = sn
\include "clairnote.ly"
\header {
	transcription = "JACKB"
	crossRefNumber = "1"
	footnotes = ""
	meter = "Reel"
	source = "https://thesession.org/tunes/1436#setting25185"
	arranger = "Setting 7"
	tagline = \markup { \vspace #1.8 \sans \abs-fontsize #7.5 \wordwrap {Sheet music in \with-url \clairnoteTypeUrl { \clairnoteTypeName music notation} published by Paul Morris using \with-url #"http://www.lilypond.org" {LilyPond.} Automatically converted to LilyPond format from an ABC source file from \with-url #"https://thesession.org" {the Session} website: \with-url #"https://thesession.org/tunes/1436#setting25185" {"https://thesession.org/tunes/1436#setting25185"}}}
	title = "Boys Of Portaferry, The"
}
voicedefault =  {
\set Score.defaultBarType = ""

\time 4/4 \key g \major   \repeat volta 2 {   g'4    b'8    g'8    a'8    c''8  
  b'8    a'8  \bar "|"   g'4.    fis'8    g'8    e'8    d'4  \bar "|"   g'4    
b'8    g'8    a'8    b'8    c''8    e''8  \bar "|"   d''8    b'8    g''8    b'8 
   c''4    b'8    a'8  \bar "|"     \bar "|"   g'4    b'8    g'8    a'8    c''8 
   b'8    a'8  \bar "|"   g'4.    fis'8    g'8    e'8    d'4  \bar "|"   g'4.   
 b'8    a'4.    b'8  } \alternative{{   d''8    b'8    a'8    b'8    g'4.    
d'8  } {   d''8    b'8    a'8    b'8    g'4.    r8 \bar "||"     \bar "|" 
\tuplet 3/2 {   b'8    c''8    d''8  }   g''8    d''8    e''8    d''8    g''8    
d''8  \bar "|" \tuplet 3/2 {   b'8    c''8    d''8  }   g''8    d''8    e''4.    
d''8  \bar "|" \tuplet 3/2 {   b'8    c''8    d''8  }   g''8    d''8    e''8    
d''8    e''8    fis''8  \bar "|" \tuplet 3/2 {   g''8    fis''8    e''8  }   
d''8    b'8    c''4    b'8    a'8  \bar "|"     \bar "|" \tuplet 3/2 {   b'8    
c''8    d''8  }   g''8    d''8    e''8    d''8    g''8    d''8  \bar "|" 
\tuplet 3/2 {   b'8    c''8    d''8  }   g''8    d''8    e''4.    d''8  \bar "|" 
\tuplet 3/2 {   b'8    c''8    d''8  }   g''8    d''8    e''8    d''8    e''8    
fis''8  \bar "|" \tuplet 3/2 {   g''8    fis''8    e''8  }   d''8    b'8    c''4 
   b'8    a'8  } }    
}

\score{
    <<

	\context Staff="default"
	{
	    \voicedefault 
	}

    >>
	\layout {
	}
	\midi {}
}
