\version "2.19.49"
% clairnote-type = sn
\include "clairnote.ly"
\header {
	transcription = "Nigel Gatherer"
	crossRefNumber = "1"
	footnotes = ""
	meter = "Reel"
	source = "https://thesession.org/tunes/11#setting12374"
	arranger = "Setting 3"
	tagline = \markup { \vspace #1.8 \sans \abs-fontsize #7.5 \wordwrap {Sheet music in \with-url \clairnoteTypeUrl { \clairnoteTypeName music notation} published by Paul Morris using \with-url #"http://www.lilypond.org" {LilyPond.} Automatically converted to LilyPond format from an ABC source file from \with-url #"https://thesession.org" {the Session} website: \with-url #"https://thesession.org/tunes/11#setting12374" {"https://thesession.org/tunes/11#setting12374"}}}
	title = "Boys Of Malin, The"
}
voicedefault =  {
\set Score.defaultBarType = ""

\repeat volta 2 {
\time 4/4 \key b \minor   b'8    fis''8    d''8    fis''8    b'8    fis''8    
d''8    fis''8    \bar "|"   b'8    fis''8    d''8    fis''8    e''4    d''8    
cis''8    \bar "|"   b'8    fis''8    d''8    fis''8    b'8    fis''8    d''8   
 fis''8    \bar "|"   e''8    cis''8    a'8    cis''8    e''8    cis''8    d''8 
   cis''8    }     b'8    cis''8    d''8    e''8    fis''4    d''8    fis''8    
\bar "|"   g''4    e''8    g''8    fis''8    e''8    d''8    cis''8    \bar "|" 
  b'8    cis''8    d''8    e''8    fis''4    d''8    fis''8    \bar "|"   e''8  
  cis''8    a'8    cis''8    e''8    cis''8    d''8    cis''8    \bar "|"     
b'8    cis''8    d''8    e''8    fis''4    d''8    fis''8    \bar "|"   g''4    
e''8    g''8    fis''8    e''8    d''8    cis''8    \bar "|"   b'8    cis''8    
d''8    e''8    fis''4    d''8    fis''8    \bar "|"   e''8    cis''8    a'8    
cis''8    e''8    fis''8    g''8    a''8    \bar "||"     b''8    b'8    b'16   
 b'16    b'8    fis''8    b'8    d''8    fis''8    \bar "|"   b''4    b''8    
a''8    fis''8    e''8    fis''8    a''8    \bar "|"   b''8    b'8    b'16    
b'16    b'8    fis''8    b'8    d''8    fis''8    \bar "|"   e''8    cis''8    
a'8    cis''8    e''8    fis''8    g''8    a''8    \bar "|"     b''8    b'8    
b'16    b'16    b'8    fis''8    b'8    d''8    fis''8    \bar "|"   b''4    
b''8    a''8    fis''8    e''8    fis''8    a''8    \bar "|"   b''8    g''8    
a''8    fis''8    g''8    e''8    fis''8    d''8    \bar "|"   e''8    cis''8   
 a'8    cis''8    e''4    d''8    cis''8    \bar "|."   
}

\score{
    <<

	\context Staff="default"
	{
	    \voicedefault 
	}

    >>
	\layout {
	}
	\midi {}
}
