\version "2.19.49"
% clairnote-type = sn
\include "clairnote.ly"
\header {
	transcription = "silas"
	crossRefNumber = "1"
	footnotes = ""
	meter = "Reel"
	source = "https://thesession.org/tunes/504#setting13428"
	arranger = "Setting 5"
	tagline = \markup { \vspace #1.8 \sans \abs-fontsize #7.5 \wordwrap {Sheet music in \with-url \clairnoteTypeUrl { \clairnoteTypeName music notation} published by Paul Morris using \with-url #"http://www.lilypond.org" {LilyPond.} Automatically converted to LilyPond format from an ABC source file from \with-url #"https://thesession.org" {the Session} website: \with-url #"https://thesession.org/tunes/504#setting13428" {"https://thesession.org/tunes/504#setting13428"}}}
	title = "Branohm"
}
voicedefault =  {
\set Score.defaultBarType = ""

\time 4/4 \key a \mixolydian   cis''4    b'8    cis''8    a'8    g'8    e'8    
d'8  \bar "|"   cis'8    d'8    e'8    fis'8    g'8    a'8    b'8    d''8  
\bar "|"   b'8    cis''8    b'8    cis''8    a'8    g'8    e'8    fis'8  
\bar "|"   g'8    e'8    d'8    b8    a4    a'8    b'8  \bar "|"   cis''4    
b'8    cis''8    a'8    g'8    e'8    d'8  \bar "|"   cis'8    d'8    e'8    
fis'8    g'8    a'8    b'8    cis''8  \bar "|"   d''8    b'8    b'8    b'8    
b'8    cis''8    b'8    a'8  \bar "|"   g'8    e'8    d'8    b8    a4    a'8    
b'8  \bar ":|."   g'8    e'8    d'8    b8    a4    r4 \bar "||"   \bar ".|:"   
cis''4.    b'8    a'8    b'8    cis''8    d''8  \bar "|"   e''8    a'8    
cis''8    e''8    g''4    fis''8    g''8  \bar "|"   e''8    a''8    a''8    
a''8    a''8    g''8    e''8    a''8  \bar "|"   g''8    e''8    d''8    b'8    
b'8    a'8    a'8    b'8  \bar "|"   cis''4    b'8    cis''8    a'8    b'8    
cis''8    d''8  \bar "|"   e''8    a'8    cis''8    e''8    g''4    g''8    
a''8  \bar "|"   b''8    a''8    g''8    b''8    a''8    g''8    e''8    a''8  
\bar "|"   g''8    e''8    d''8    b'8    b'8    a'8    a'8    b'8  \bar ":|."  
 
}

\score{
    <<

	\context Staff="default"
	{
	    \voicedefault 
	}

    >>
	\layout {
	}
	\midi {}
}
