\version "2.19.49"
% clairnote-type = sn
\include "clairnote.ly"
\header {
	transcription = "slainte"
	crossRefNumber = "1"
	footnotes = ""
	meter = "Reel"
	source = "https://thesession.org/tunes/776#setting776"
	arranger = "Setting 1"
	tagline = \markup { \vspace #1.8 \sans \abs-fontsize #7.5 \wordwrap {Sheet music in \with-url \clairnoteTypeUrl { \clairnoteTypeName music notation} published by Paul Morris using \with-url #"http://www.lilypond.org" {LilyPond.} Automatically converted to LilyPond format from an ABC source file from \with-url #"https://thesession.org" {the Session} website: \with-url #"https://thesession.org/tunes/776#setting776" {"https://thesession.org/tunes/776#setting776"}}}
	title = "Breton"
}
voicedefault =  {
\set Score.defaultBarType = ""

\time 4/4 \key d \major   a'8  \bar "|"   a'8    b'8    cis''8    d''8    e''8  
  a'8    cis''8    e''8  \bar "|"   fis''8    e''8    d''8    cis''8    b'4    
a'8    a'8  \bar "|"   a'8    b'8    cis''8    d''8    e''8    a'8    cis''8    
e''8  \bar "|"   fis''8    e''8    d''8    cis''8    b'4.    a'8  \bar ":|."   
fis''8    e''8    d''8    cis''8    b'4.    b'8  \bar "||"     cis''4    b'8    
a'8    b'4    e''4  \bar "|"   cis''16    b'16    a'8    d''8    cis''8    b'8  
  a'8    a'8    b'8  \bar "|"   cis''4    b'8    a'8    b'4    e''4  \bar "|"   
cis''16    b'16    a'8    d''8    cis''8    a'4.    b'8  \bar ":|."   cis''16   
 b'16    a'8    d''8    cis''8    a'2  \bar "||"   
}

\score{
    <<

	\context Staff="default"
	{
	    \voicedefault 
	}

    >>
	\layout {
	}
	\midi {}
}
