\version "2.19.49"
% clairnote-type = sn
\include "clairnote.ly"
\header {
	transcription = "Mix O'Lydian"
	crossRefNumber = "1"
	footnotes = ""
	meter = "Jig"
	source = "https://thesession.org/tunes/271#setting26153"
	arranger = "Setting 3"
	tagline = \markup { \vspace #1.8 \sans \abs-fontsize #7.5 \wordwrap {Sheet music in \with-url \clairnoteTypeUrl { \clairnoteTypeName music notation} published by Paul Morris using \with-url #"http://www.lilypond.org" {LilyPond.} Automatically converted to LilyPond format from an ABC source file from \with-url #"https://thesession.org" {the Session} website: \with-url #"https://thesession.org/tunes/271#setting26153" {"https://thesession.org/tunes/271#setting26153"}}}
	title = "Brian Boru's March"
}
voicedefault =  {
\set Score.defaultBarType = ""

\time 6/8 \key a \minor   \repeat volta 2 {   e''8    \bar "|"   c''8    b'8    
a'8    a'8    e''8    d''8    \bar "|"   c''8    b'8    a'8    a'4    d''8    
\bar "|"   b'8    a'8    g'8    g'8    d''8    c''8    \bar "|"   b'8    a'8    
g'8    g'4    e''8    \bar "|"     c''8    b'8    a'8    a'8    e''8    d''8    
\bar "|"   c''8    b'8    a'8    a'4    b'8    \bar "|"   c''8    d''8    e''8  
  e''4    d''8    \bar "|"   c''8    a'8    a'8    a'4    }     
\repeat volta 2 {   b'8    \bar "|"   c''8    d''8    e''8    e''8    f''8    
e''8    \bar "|"   e''8    f''8    e''8    e''8    d''8    c''8    \bar "|"   
b'8    c''8    d''8    d''8    e''8    d''8    \bar "|"   d''8    e''8    d''8  
  d''8    c''8    b'8    \bar "|"     c''8    d''8    e''8    e''8    f''8    
e''8    \bar "|"   e''8    f''8    e''8    e''8    d''8    c''8    \bar "|"   
e''4.    e''4    d''8    \bar "|"   c''8    a'8    a'8    a'4    }   
}

\score{
    <<

	\context Staff="default"
	{
	    \voicedefault 
	}

    >>
	\layout {
	}
	\midi {}
}
