\version "2.19.49"
% clairnote-type = sn
\include "clairnote.ly"
\header {
	transcription = "banjouke"
	crossRefNumber = "1"
	footnotes = ""
	meter = "Jig"
	source = "https://thesession.org/tunes/830#setting21436"
	arranger = "Setting 2"
	tagline = \markup { \vspace #1.8 \sans \abs-fontsize #7.5 \wordwrap {Sheet music in \with-url \clairnoteTypeUrl { \clairnoteTypeName music notation} published by Paul Morris using \with-url #"http://www.lilypond.org" {LilyPond.} Automatically converted to LilyPond format from an ABC source file from \with-url #"https://thesession.org" {the Session} website: \with-url #"https://thesession.org/tunes/830#setting21436" {"https://thesession.org/tunes/830#setting21436"}}}
	title = "Brian O'Lynn"
}
voicedefault =  {
\set Score.defaultBarType = ""

\time 6/8 \key a \dorian   b'8  \repeat volta 2 {   c''8 ^"Am"   a'8    d''8    
c''8    a'8    g'8  \bar "|"   e'8 ^"Em"   d'8    e'8    g'8    a'8    b'8  
\bar "|"   c''8 ^"Am"   a'8    d''8    c''8    a'8    g'8  \bar "|"   e'8 ^"Am" 
  a'8    a'8    a'4    b'8  \bar "|"   c''8 ^"Am"   c''8    c''8    c''8    a'8 
   g'8  \bar "|"       e'8 ^"Em"   d'8    e'8    g'8    a'8    b'8  \bar "|"   
c''8 ^"Am"   d''8    e''8    f''8    e''8    d''8  } \alternative{{     c''8 
^"Am"   a'8    a'8    a'4    b'8  } {     c''8 ^"Am"   a'8    a'8    a'4    
e''16    fis''16  \bar "|"       g''8 ^"Em"   g''8    g''8    g''8    e''8    
d''8  \bar "|"   c''8 ^"Am"   a'8    b'8    c''8    d''8    e''8  \bar "|"   
e''8 ^"Am"   a''8    a''8    a''8    g''8    e''8  \bar "|"   e''8 ^"D"   d''8  
  cis''8    d''8    e''8    fis''8  \bar "|"       g''8 ^"G"   a''8    fis''8   
 g''8    e''8    d''8  \bar "|"   c''8 ^"Am"   a'8    b'8    c''8    d''8    
e''8  \bar "|"   f''8 ^"Am"   e''8    d''8    c''8    a'8    g'8  \bar "|"   
e'8 ^"Am"   a'8    a'8    a'4    e''16    fis''16  } }    
}

\score{
    <<

	\context Staff="default"
	{
	    \voicedefault 
	}

    >>
	\layout {
	}
	\midi {}
}
