\version "2.19.49"
% clairnote-type = sn
\include "clairnote.ly"
\header {
	transcription = "bsykes62"
	crossRefNumber = "1"
	footnotes = ""
	meter = "Strathspey"
	source = "https://thesession.org/tunes/597#setting597"
	arranger = "Setting 1"
	tagline = \markup { \vspace #1.8 \sans \abs-fontsize #7.5 \wordwrap {Sheet music in \with-url \clairnoteTypeUrl { \clairnoteTypeName music notation} published by Paul Morris using \with-url #"http://www.lilypond.org" {LilyPond.} Automatically converted to LilyPond format from an ABC source file from \with-url #"https://thesession.org" {the Session} website: \with-url #"https://thesession.org/tunes/597#setting597" {"https://thesession.org/tunes/597#setting597"}}}
	title = "Bright Hollow Fog, The"
}
voicedefault =  {
\set Score.defaultBarType = ""

\time 4/4 \key g \major   e'8    fis'8  \bar "|"   g'8    fis'8    g'8    a'8   
 b'4    g''8    fis''8  \bar "|"   e''8    fis''8    e''8    d''8    b'4    g'8 
   a'8  \bar "|"   b'8    a'8    b'8    g'8    e'8    g'8    fis'8    a'8  
\bar "|"   g'2 (   g'4  -)   e'8    fis'8  \bar ":|."   g'2 (   g'4  -)   
\tuplet 3/2 {   d''8    e''8    fis''8  } \bar "||"     \bar "|"   g''8    
fis''8    g''8    fis''8    e''4    fis''8    g''8  \bar "|"   a''8    g''8    
fis''8    e''8    d''4    b'8    d''8  \bar "|"   e''8    d''8    e''8    
fis''8    g''8    fis''8    e''8    d''8  \bar "|"   e''2 (   e''4  -)   e'8    
fis'8  \bar "|"     g'8    fis'8    g'8    a'8    b'4    g''8    fis''8  
\bar "|"   e''8    fis''8    e''8    d''8    b'4    g'8    a'8  \bar "|"   b'8  
  a'8    b'8    g'8    e'8    g'8    fis'8    a'8  \bar "|"   g'2 (   g'4  -)   
e'8    fis'8  \bar "||"   
}

\score{
    <<

	\context Staff="default"
	{
	    \voicedefault 
	}

    >>
	\layout {
	}
	\midi {}
}
