\version "2.19.49"
% clairnote-type = sn
\include "clairnote.ly"
\header {
	transcription = "stefanremy"
	crossRefNumber = "1"
	footnotes = ""
	meter = "Reel"
	source = "https://thesession.org/tunes/1423#setting25925"
	arranger = "Setting 9"
	tagline = \markup { \vspace #1.8 \sans \abs-fontsize #7.5 \wordwrap {Sheet music in \with-url \clairnoteTypeUrl { \clairnoteTypeName music notation} published by Paul Morris using \with-url #"http://www.lilypond.org" {LilyPond.} Automatically converted to LilyPond format from an ABC source file from \with-url #"https://thesession.org" {the Session} website: \with-url #"https://thesession.org/tunes/1423#setting25925" {"https://thesession.org/tunes/1423#setting25925"}}}
	title = "Broken Pledge, The"
}
voicedefault =  {
\set Score.defaultBarType = ""

\repeat volta 2 {
\time 4/4 \key e \dorian   \bar "|"   e''8  \repeat volta 2 {   e''8    d''8    
b'8    a'8    b'8    e'8    e'4    \bar "|"   d''8    b'8    a'8    g'8    
fis'8    d'8    d'8    fis'8    \bar "|"   e'8    fis'8    g'8    a'8    b'8    
e''8    e''8    d''8    \bar "|"   \tuplet 3/2 {   b'8 (   c''8    b'8  -) }   
a'8    c''8    b'8    e''8    g''8    fis''8    \bar "|"   e''8    d''8    b'8  
  a'8    b'4    e''8    cis''8    \bar "|"     \tuplet 3/2 {   d''8 (   cis''8   
 b'8  -) }   a'8    g'8    fis'8    d'8    d'8    fis'8    \bar "|"   e'8    
fis'8    g'8    a'8    b'8    e''8    e''8    d''8    \bar "|"   \tuplet 3/2 {   
b'8 (   c''8    b'8  -) }   a'8    fis'8    fis'8    e'8    e'8    e''8  }   
e''8    d''8    b'8    a'8    b'4    e''8    fis''8    \bar "|"   g''8    
fis''8    g''8    e''8    fis''8    d''8    b'8    cis''8    \bar "|"     d''8  
  b'8    a'8    fis'8    a'8    b'8    d''8    e''8    \bar "|"   \tuplet 3/2 {  
 fis''8 (   g''8    a''8  -) }   e''8    g''8    fis''8    d''8    b'8    d''8  
  \bar "|"   e''8    d''8    b'8    a'8    b'4    e''8    fis''8    \bar "|"   
g''8    fis''8    g''8    e''8    fis''8    d''8    b'8    a'8    \bar "|"   
g'8 ^"~"    fis'8    g'8    a'8    b'8    e''8    e''8    d''8    \bar "|"   
\tuplet 3/2 {   b'8 (   c''8    b'8  -) }   a'8    fis'8    fis'8    e'8    e'8  
  e''8  }   
}

\score{
    <<

	\context Staff="default"
	{
	    \voicedefault 
	}

    >>
	\layout {
	}
	\midi {}
}
