\version "2.19.49"
% clairnote-type = sn
\include "clairnote.ly"
\header {
	transcription = "ceolachan"
	crossRefNumber = "1"
	footnotes = ""
	meter = "Slide"
	source = "https://thesession.org/tunes/1414#setting21328"
	arranger = "Setting 3"
	tagline = \markup { \vspace #1.8 \sans \abs-fontsize #7.5 \wordwrap {Sheet music in \with-url \clairnoteTypeUrl { \clairnoteTypeName music notation} published by Paul Morris using \with-url #"http://www.lilypond.org" {LilyPond.} Automatically converted to LilyPond format from an ABC source file from \with-url #"https://thesession.org" {the Session} website: \with-url #"https://thesession.org/tunes/1414#setting21328" {"https://thesession.org/tunes/1414#setting21328"}}}
	title = "Brosna, The"
}
voicedefault =  {
\set Score.defaultBarType = ""

\time 12/8 \key g \major   \repeat volta 2 {   g'8    fis'8    e'8    \bar "|"  
 d'4    g'8    g'4    a'8    b'8    ais'8    b'8    d''4    b'8    \bar "|"   
a'4    d'8    fis'8    e'8    d'8    a'4    g'8    fis'8    e'8    d'8    
\bar "|"     d'4    g'8   ~    g'4    a'8    b'8    ais'8    b'8    d''4    b'8 
   \bar "|"   a'4    d'8    fis'8    e'8    d'8    g'4.    }     
\repeat volta 2 {   g'8    b'16    c''16    d''8    \bar "|"   g''4    fis''8   
 e''4    g''8    fis''4    e''8    d''4    b'8    \bar "|"   c''4    b'8    a'4 
   b'8    c''4    d''8    e''4    fis''8    \bar "|"     g''4.    e''8    
fis''8    g''8    fis''4    e''8    d''4    b'8    \bar "|"   c''4    a'8    
fis'4    d'8    g'4.    }   
}

\score{
    <<

	\context Staff="default"
	{
	    \voicedefault 
	}

    >>
	\layout {
	}
	\midi {}
}
