\version "2.19.49"
% clairnote-type = sn
\include "clairnote.ly"
\header {
	transcription = "Musicalbison"
	crossRefNumber = "1"
	footnotes = ""
	meter = "Jig"
	source = "https://thesession.org/tunes/709#setting709"
	arranger = "Setting 1"
	tagline = \markup { \vspace #1.8 \sans \abs-fontsize #7.5 \wordwrap {Sheet music in \with-url \clairnoteTypeUrl { \clairnoteTypeName music notation} published by Paul Morris using \with-url #"http://www.lilypond.org" {LilyPond.} Automatically converted to LilyPond format from an ABC source file from \with-url #"https://thesession.org" {the Session} website: \with-url #"https://thesession.org/tunes/709#setting709" {"https://thesession.org/tunes/709#setting709"}}}
	title = "Bunch Of Roses, The"
}
voicedefault =  {
\set Score.defaultBarType = ""

\time 6/8 \key g \minor   \repeat volta 2 {   a'8  \bar "|"   bes'4.    bes'8   
 c''8    d''8  \bar "|"   c''4    a'8    a'8    bes'8    c''8  \bar "|"   bes'4 
   g'8    g'8    a'8    bes'8  \bar "|"   a'8    fis'8    d'8    d'4    a'8  
\bar "|"     bes'4.    bes'8    c''8    d''8  \bar "|"   c''4    a'8    a'8    
bes'8    c''8  \bar "|"   bes'8    a'8    g'8    a'8    g'8    fis'8  \bar "|"  
 g'4.    g'4  }     \repeat volta 2 {   e''8  \bar "|"   f''4    d''8    d''8   
 e''8    f''8  \bar "|"   g''4    d''8    d''8    c''8    a'8  \bar "|"   g'4.  
  f''4    g''8  \bar "|"   a''8    f''8    d''8    d''4    e''8  \bar "|"     
f''8    g''8    a''8    g''8    f''8    e''8  \bar "|"   f''8    e''8    d''8   
 c''8    bes'8    a'8  \bar "|"   g'8    a'8    bes'8    a'8    g'8    fis'8  
\bar "|"   g'4.    g'4  }   
}

\score{
    <<

	\context Staff="default"
	{
	    \voicedefault 
	}

    >>
	\layout {
	}
	\midi {}
}
