\version "2.19.49"
% clairnote-type = sn
\include "clairnote.ly"
\header {
	transcription = "drone"
	crossRefNumber = "1"
	footnotes = ""
	meter = "Reel"
	source = "https://thesession.org/tunes/1335#setting14684"
	arranger = "Setting 2"
	tagline = \markup { \vspace #1.8 \sans \abs-fontsize #7.5 \wordwrap {Sheet music in \with-url \clairnoteTypeUrl { \clairnoteTypeName music notation} published by Paul Morris using \with-url #"http://www.lilypond.org" {LilyPond.} Automatically converted to LilyPond format from an ABC source file from \with-url #"https://thesession.org" {the Session} website: \with-url #"https://thesession.org/tunes/1335#setting14684" {"https://thesession.org/tunes/1335#setting14684"}}}
	title = "Bunch Of Green Rushes, The"
}
voicedefault =  {
\set Score.defaultBarType = ""

\time 4/4 \key d \mixolydian   d''8  \bar "|"   c''8 ^\trill   a'8    g'8    
e'8    f'4. ^"~"    a'8  \bar "|"   c''8 ^\trill   a'8    g'8    c''8    a'8    
d''8    d''4 ^"~"  \bar "|"   c''8 ^\trill   a'8    g'8    e'8    f'4    e''8   
 g''8  \bar "|"   fis''8    d''8    e''8    c''8    a'8    d''8    d''4  
\bar "|"   c''8 ^\trill   a'8    g'8    e'8    f'4 ^\trill   a'8    d''8  
\bar "|"   c''8 ^\trill   a'8    g'8    c''8    a'8    d''8  \grace {    e''8  
}   d''4  \bar "|"   c''8 ^\trill   a'8    g'8    e'8    f'8    a'8    d''8    
g''8  \bar "|"   fis''8    d''8    e''8    c''8    a'8    d''8    d''4 ^"~"  
\bar "||"   \bar "||"   a'8    d''8  \grace {    e''8  }   d''8    b'8    c''8  
  a'8    g'8    e'8  \bar "|"   f'4 ^"~"    a'8    d''8    c''8    a'8    g'8   
 c''8  \bar "|"   a'8    d''8  \grace {    e''8  }   d''8    b'8    c''8    a'8 
   g'8    a'8  \bar "|"   b'16 (   c''16    d''8  -)   e''8    g''8    fis''8   
 d''8    e''8    c''8  \bar "|"   a'8    d''8  \grace {    e''8  }   d''8    
b'8    c''8    a'8    g'8    e'8  \bar "|"   f'4 ^"~"    a'8    d''8    c''8    
a'8    g'8    c''8  \bar "|"   a'8    d''8  \grace {    e''8  }   d''8    b'8   
 c''8    a'8    g'8    a'8  \bar "|"   b'16 (   c''16    d''8  -)   e''8    
g''8    fis''8    d''8    d''8  \bar "||"   \bar "||"   a'8  \bar "|"   d''4.   
 fis''8    a''8    d''8    fis''8    d''8  \bar "|"   c''4 ^\trill   e''8    
c''8    g''8    c''8    e''8    c''8  \bar "|"   d''4    fis''8    d''8    a''8 
   d''8    fis''8    d''8  \bar "|"   c''8    a'8    g'8    c''8    a'8    d'8  
  d'8    r8 \bar "|"   d''4    fis''8    d''8    a''8    d''8    fis''8    d''8 
 \bar "|"   c''4 ^\trill   e''8    c''8    g''8    c''8    e''16    fis''16    
g''8  \bar "|"   a''4. ^"~"    g''8    e''8    g''8    e''8    d''8  \bar "|"   
c''8    a'8    g'8    c''8    a'8    d'8    d'8  \bar "|."   
}

\score{
    <<

	\context Staff="default"
	{
	    \voicedefault 
	}

    >>
	\layout {
	}
	\midi {}
}
