\version "2.19.49"
% clairnote-type = sn
\include "clairnote.ly"
\header {
	transcription = "Dr. Dow"
	crossRefNumber = "1"
	footnotes = ""
	meter = "Reel"
	source = "https://thesession.org/tunes/1335#setting1335"
	arranger = "Setting 1"
	tagline = \markup { \vspace #1.8 \sans \abs-fontsize #7.5 \wordwrap {Sheet music in \with-url \clairnoteTypeUrl { \clairnoteTypeName music notation} published by Paul Morris using \with-url #"http://www.lilypond.org" {LilyPond.} Automatically converted to LilyPond format from an ABC source file from \with-url #"https://thesession.org" {the Session} website: \with-url #"https://thesession.org/tunes/1335#setting1335" {"https://thesession.org/tunes/1335#setting1335"}}}
	title = "Bunch Of Green Rushes, The"
}
voicedefault =  {
\set Score.defaultBarType = ""

\time 4/4 \key d \mixolydian   d''8  \repeat volta 2 {   c''8    a'8    g'8    
a'8    f'4. ^"~"    d''8  \bar "|"   c''8    a'8    g'8    c''8    a'8    d''8  
  d''8    a'8  \bar "|"   c''8    a'8    g'8    a'8    f'4    e''8    g''8  
\bar "|"   fis''!8    d''8    e''8    c''8    a'8    d''8    d''4 ^"~"  }     
\repeat volta 2 {   a''8    d''8    d''8    a'8    c''8    a'8    g'8    a'8  
\bar "|"   f'8 ^"~"    g'8    a'8    c''8  \grace {    d''8  }   c''8    a'8    
g'4  \bar "|"   a'8    d''8    d''8    a'8    c''8    a'8    g'8    a'8  
} \alternative{{   c''8    d''8    e''8    g''8  \grace {    a''8  }   g''8    
e''8    d''8    c''8  } {   c''8    d''8    e''8    g''8  \grace {    a''8  }   
g''8    e''8    c''8    e''8  \bar "||"     \bar "|"   d''4    fis''!8    d''8  
  a''8    d''8    fis''8    d''8  \bar "|"   c''4    e''8    c''8    g''8    
c''8    e''8    c''8  \bar "|"   d''4    fis''8    d''8    a''8    d''8    
fis''8    d''8  \bar "|"   c''8    a'8    g'8    c''8    a'8    d'8    d'8    
a'8  \bar "|"     \bar "|"   d''4    fis''8    d''8    a''8    d''8    fis''8   
 d''8  \bar "|"   c''4    e''8    c''8    g''8    c''8    e''8    g''8  
\bar "|"   g''8    fis''8    \tuplet 3/2 {   g''8    fis''8    e''8  }   fis''8  
  e''8    d''8    c''8  \bar "|"   d''8    c''8    a'8    g'8    a'8    d''8    
d''8  \bar "||"   }}
}

\score{
    <<

	\context Staff="default"
	{
	    \voicedefault 
	}

    >>
	\layout {
	}
	\midi {}
}
