\version "2.19.49"
% clairnote-type = sn
\include "clairnote.ly"
\header {
	transcription = "ceolachan"
	crossRefNumber = "1"
	footnotes = ""
	meter = "Slip Jig"
	source = "https://thesession.org/tunes/10#setting12371"
	arranger = "Setting 3"
	tagline = \markup { \vspace #1.8 \sans \abs-fontsize #7.5 \wordwrap {Sheet music in \with-url \clairnoteTypeUrl { \clairnoteTypeName music notation} published by Paul Morris using \with-url #"http://www.lilypond.org" {LilyPond.} Automatically converted to LilyPond format from an ABC source file from \with-url #"https://thesession.org" {the Session} website: \with-url #"https://thesession.org/tunes/10#setting12371" {"https://thesession.org/tunes/10#setting12371"}}}
	title = "Butterfly, The"
}
voicedefault =  {
\set Score.defaultBarType = ""

\time 9/8 \key e \minor   \repeat volta 2 {   b'4.    g'4.    fis'4.    
\bar "|"   b'4.    g'4.    e'4.    \bar "|"   b'4.    g'4.    fis'4.    
\bar "|"   b'4.    d''4.    fis'4.    }   \repeat volta 2 {   b'4.    e''4.    
g''4.    \bar "|"   b'4.    g''4.    a'4.    \bar "|"   b'4.    e''4.    g''4.  
  \bar "|"   b''4.    g''4.    a'4.    }   \repeat volta 2 {   b'4.    b'4.    
g'4.    \bar "|"   b'4.    b'4.    d''4.    \bar "|"   b'4.    b'4.    g'4.    
\bar "|"   b'4.    g''4.    a'4.    }   
}

\score{
    <<

	\context Staff="default"
	{
	    \voicedefault 
	}

    >>
	\layout {
	}
	\midi {}
}
