\version "2.19.49"
% clairnote-type = sn
\include "clairnote.ly"
\header {
	transcription = "slainte"
	crossRefNumber = "1"
	footnotes = ""
	meter = "Jig"
	source = "https://thesession.org/tunes/1205#setting14496"
	arranger = "Setting 2"
	tagline = \markup { \vspace #1.8 \sans \abs-fontsize #7.5 \wordwrap {Sheet music in \with-url \clairnoteTypeUrl { \clairnoteTypeName music notation} published by Paul Morris using \with-url #"http://www.lilypond.org" {LilyPond.} Automatically converted to LilyPond format from an ABC source file from \with-url #"https://thesession.org" {the Session} website: \with-url #"https://thesession.org/tunes/1205#setting14496" {"https://thesession.org/tunes/1205#setting14496"}}}
	title = "Castlebar Races, The"
}
voicedefault =  {
\set Score.defaultBarType = ""

\time 6/8 \key g \major   \bar "|"   g''4. ^"~"    b''8    a''8    g''8  
\bar "|"   fis''8    e''8    fis''8    d''8    e''8    fis''8  \bar "|"     
}

\score{
    <<

	\context Staff="default"
	{
	    \voicedefault 
	}

    >>
	\layout {
	}
	\midi {}
}
