\version "2.19.49"
% clairnote-type = sn
\include "clairnote.ly"
\header {
	transcription = "ZengaGirl"
	crossRefNumber = "1"
	footnotes = ""
	meter = "Reel"
	source = "https://thesession.org/tunes/703#setting13767"
	arranger = "Setting 2"
	tagline = \markup { \vspace #1.8 \sans \abs-fontsize #7.5 \wordwrap {Sheet music in \with-url \clairnoteTypeUrl { \clairnoteTypeName music notation} published by Paul Morris using \with-url #"http://www.lilypond.org" {LilyPond.} Automatically converted to LilyPond format from an ABC source file from \with-url #"https://thesession.org" {the Session} website: \with-url #"https://thesession.org/tunes/703#setting13767" {"https://thesession.org/tunes/703#setting13767"}}}
	title = "Catharsis"
}
voicedefault =  {
\set Score.defaultBarType = ""

\time 4/4 \key g \minor   d''8    g'8    g'8    c''8    g'8    g'8    bes'8    
g'8  \bar "|"   g'8    a'8    g'8    g'8    g'8    a'8    bes'8    c''8  
\bar "|"   d''8    f'8    f'8    c''8    f'8    f'8    bes'8    f'8  \bar "|"   
f'8    a'8    f'8    f'8    g'8    a'8    bes'8    c''8  \bar "|"   d''8    
ees'8    ees'8    c''8    ees'8    ees'8    bes'8    ees'8    \bar "|"   ees'8  
  a'8    ees'8    ees'8    g'8    a'8    bes'8    c''8  \bar "|"   d''8    c''8 
   bes'8    c''8    bes'8    a'8    g'8    f'8  \bar "|"   d'8    g'8    g'8    
f'8    g'8    
}

\score{
    <<

	\context Staff="default"
	{
	    \voicedefault 
	}

    >>
	\layout {
	}
	\midi {}
}
