\version "2.19.49"
% clairnote-type = sn
\include "clairnote.ly"
\header {
	transcription = "Mix O'Lydian"
	crossRefNumber = "1"
	footnotes = ""
	meter = "Polka"
	source = "https://thesession.org/tunes/531#setting26219"
	arranger = "Setting 3"
	tagline = \markup { \vspace #1.8 \sans \abs-fontsize #7.5 \wordwrap {Sheet music in \with-url \clairnoteTypeUrl { \clairnoteTypeName music notation} published by Paul Morris using \with-url #"http://www.lilypond.org" {LilyPond.} Automatically converted to LilyPond format from an ABC source file from \with-url #"https://thesession.org" {the Session} website: \with-url #"https://thesession.org/tunes/531#setting26219" {"https://thesession.org/tunes/531#setting26219"}}}
	title = "Cathy's Favourite"
}
voicedefault =  {
\set Score.defaultBarType = ""

\time 2/4 \key g \major   \repeat volta 2 {   g'8.    a'16    b'8    d''8    
\bar "|"   g''8    fis''8    e''8    d''8    \bar "|"   e''8    a'8    a'8    
b'8    \bar "|"   c''8    d''16    c''16    b'8    a'8    \bar "|"     g'8.    
a'16    b'8    d''8    \bar "|"   g''8    fis''8    e''8    d''8    \bar "|"   
e''8    a''8    e''8    fis''8    \bar "|"   g''4    g''4    }     
\repeat volta 2 {   a''8    e''8    a''8    e''8    \bar "|"   a''8    e''8    
e''8.    fis''16    \bar "|"   g''8    d''8    g''8    d''8    \bar "|"   g''8  
  d''8    d''4    \bar "|"     a''8    e''8    a''8    e''8    \bar "|"   a''8  
  e''8    e''8    fis''8    \bar "|"   g''8    e''8    d''8    b'8    \bar "|"  
 a'4    a'4    }   
}

\score{
    <<

	\context Staff="default"
	{
	    \voicedefault 
	}

    >>
	\layout {
	}
	\midi {}
}
