\version "2.19.49"
% clairnote-type = sn
\include "clairnote.ly"
\header {
	transcription = "Bill"
	crossRefNumber = "1"
	footnotes = ""
	meter = "Hornpipe"
	source = "https://thesession.org/tunes/402#setting402"
	arranger = "Setting 1"
	tagline = \markup { \vspace #1.8 \sans \abs-fontsize #7.5 \wordwrap {Sheet music in \with-url \clairnoteTypeUrl { \clairnoteTypeName music notation} published by Paul Morris using \with-url #"http://www.lilypond.org" {LilyPond.} Automatically converted to LilyPond format from an ABC source file from \with-url #"https://thesession.org" {the Session} website: \with-url #"https://thesession.org/tunes/402#setting402" {"https://thesession.org/tunes/402#setting402"}}}
	title = "Cat On The Stairs, The"
}
voicedefault =  {
\set Score.defaultBarType = ""

\time 4/4 \key e \dorian   b8    e'8    e'8    d'8    e'8    fis'8    g'8    
a'8  \bar "|"   b'8    a'8    g'8    b'8    a'8    g'8    fis'8    d'8  
\bar "|"   b8    e'8    e'8    d'8    e'8    fis'8    g'8    a'8  \bar "|"   
b'4    g'4    g'4.    d'8  \bar "|"     b8    e'8    e'8    d'8    e'8    fis'8 
   g'8    a'8  \bar "|"   b'8    a'8    g'8    b'8    a'8    g'8    fis'8    
d'8  \bar "|"   e''8    d''8    b'8    e''8    d''8    b'8    a'8    fis'8  
\bar "|"   g'4    e'4    e'4.    d'8  \bar ":|."   g'4    e'4    e'4.    r8 
\bar "||"     g''8    fis''8    e''8    g''8    fis''8    e''8    d''8    
fis''8  \bar "|"   e''8    d''8    b'8    e''8    d''8    b'8    a'8    fis'8  
\bar "|"   e'8    fis'8    g'8    a'8    b'8    a'8    g'8    b'8  \bar "|"   
a'4    fis'4    fis'4.    r8 \bar "|"     g''8    a''8    b''8    g''8    
fis''8    g''8    a''8    fis''8  \bar "|"   e''8    d''8    e''8    fis''8    
e''8    d''8    b'8    a'8  \bar "|"   g''8    fis''8    e''8    cis''8    d''8 
   b'8    a'8    fis'8  \bar "|"   g'4    e'4    e'2  \bar "||"     g''8    
fis''8    e''8    g''8    fis''8    e''8    d''8    fis''8  \bar "|"   e''8    
d''8    b'8    e''8    d''8    b'8    a'8    fis'8  \bar "|"   e'8    fis'8    
g'8    a'8    b'8    a'8    g'8    b'8  \bar "|"   a'4    fis'4    fis'4.    b8 
 \bar "|"     b8    e'8    e'8    d'8    e'8    fis'8    g'8    a'8  \bar "|"   
b'8    a'8    g'8    b'8    a'8    g'8    fis'8    d'8  \bar "|"   e''8    d''8 
   b'8    e''8    d''8    b'8    a'8    fis'8  \bar "|"   g'4    e'4    e'2  
\bar "||"   
}

\score{
    <<

	\context Staff="default"
	{
	    \voicedefault 
	}

    >>
	\layout {
	}
	\midi {}
}
