\version "2.19.49"
% clairnote-type = sn
\include "clairnote.ly"
\header {
	transcription = "stanton135"
	crossRefNumber = "1"
	footnotes = ""
	meter = "Slide"
	source = "https://thesession.org/tunes/365#setting21855"
	arranger = "Setting 2"
	tagline = \markup { \vspace #1.8 \sans \abs-fontsize #7.5 \wordwrap {Sheet music in \with-url \clairnoteTypeUrl { \clairnoteTypeName music notation} published by Paul Morris using \with-url #"http://www.lilypond.org" {LilyPond.} Automatically converted to LilyPond format from an ABC source file from \with-url #"https://thesession.org" {the Session} website: \with-url #"https://thesession.org/tunes/365#setting21855" {"https://thesession.org/tunes/365#setting21855"}}}
	title = "Cat Rambles To The Child's Saucepan, The"
}
voicedefault =  {
\set Score.defaultBarType = ""

\time 12/8 \key c \major   \repeat volta 2 {   g'8    \bar "|"   c''4    d''8   
 e''4    d''8    c''8    b'8    c''8    a'4. ^"~"    \bar "|"   f''4    g'8    
b'8    a'8    g'8    d''4    g'8    b'8    a'8    g'8    \bar "|"     c''4    
d''8    e''4    d''8    c''8    b'8    c''8    a'8    c''8    a'8    \bar "|"   
f''4    g'8    b'8    a'8    g'8    c''4. ^"~"    c''4    }     
\repeat volta 2 {   g'8    \bar "|"   c''4    e''8    g''4. ^"~"    a''8    
g''8    e''8    g''4 ^"~"    e''8    \bar "|"   d''4    g'8    b'8    a'8    
g'8    d''4    g'8    b'8    a'8    g'8    \bar "|"     c''4    e''8    g''4. 
^"~"    a''8    g''8    e''8    g''4 ^"~"    e''8    \bar "|"   d''4    g'8    
b'8    a'8    g'8    c''4. ^"~"    c''4    }   
}

\score{
    <<

	\context Staff="default"
	{
	    \voicedefault 
	}

    >>
	\layout {
	}
	\midi {}
}
