\version "2.19.49"
% clairnote-type = sn
\include "clairnote.ly"
\header {
	transcription = "gian marco"
	crossRefNumber = "1"
	footnotes = ""
	meter = "Reel"
	source = "https://thesession.org/tunes/989#setting14190"
	arranger = "Setting 2"
	tagline = \markup { \vspace #1.8 \sans \abs-fontsize #7.5 \wordwrap {Sheet music in \with-url \clairnoteTypeUrl { \clairnoteTypeName music notation} published by Paul Morris using \with-url #"http://www.lilypond.org" {LilyPond.} Automatically converted to LilyPond format from an ABC source file from \with-url #"https://thesession.org" {the Session} website: \with-url #"https://thesession.org/tunes/989#setting14190" {"https://thesession.org/tunes/989#setting14190"}}}
	title = "Cloch Na Ceithre Mhile"
}
voicedefault =  {
\set Score.defaultBarType = ""

\time 4/4 \key a \dorian   a4    a8    a8    e'8    a8    a8    e'8  \bar "|"   
a8    e'8    f'8    e'8    d'8    c'8    b8    a8  \bar "|"   g4    d'8    g8   
 b8    g8    d'8    b8  \bar "|"   g8    b8    b4 ^"~"    d'8    b8    g8    b8 
 \bar "|"   a4    e'8    a8    c'8    e'8    a'8    b'8  \bar "|"   c''4    b'8 
   c''8    a'4    a'8    b'8  \bar "|"   c''4    b'8    g'8    a'8    g'8    
e'8    a'8  \bar "|"   g'8    e'8    d'8    g'8    e'8    b8    d'8    b8  
\bar ":|."   g'8    e'8    d'8    g'8    e'8    a'8    a'8    g'8  \bar "||"   
a'4    c''8    a'8    e''8    a'8    a'4 ^"~"  \bar "|"   a8    b8    c'8    
d'8    e'8    b8    d'8    b8  \bar "|"   g4    d'8    g8    b8    g8    d'8    
b8  \bar "|"   g8    b8    b4 ^"~"    d'8    b8    g8    b8  \bar "|"   a8    
e'8    e'8    d'8    e'8    fis'8    g'8    b'8  \bar "|"   a'8    g'8    e'8   
 d'8    e'8    g'8    a'8    b'8  \bar "|"   c''4    c''8    b'8    a'8    b'8  
  c''8    a'8  \bar "|"   g'8    e'8    d'8    g'8    e'8    a8    a8    b'8  
\bar "|"   a'4    c''8    a'8    e''8    a'8    a'4 ^"~"  \bar "|"   a8    b8   
 c'8    d'8    e'8    b8    d'8    b8  \bar "|"   g4    d'8    g8    b8    g8   
 g'8    a'8  \bar "|"   b'8    d''8    a'8    fis'8    g'8    e'8    d'8    b8  
\bar "|"   a8    e'8    e'8    d'8    e'8    fis'8    g'8    b'8  \bar "|"   
a'8    g'8    e'8    d'8    e'8    g'8    a'8    b'8  \bar "|"   c''4    c''8   
 b'8    a'8    b'8    c''8    a'8  \bar "|"   g'8    e'8    d'8    g'8    e'8   
 b8    d'8    b8  \bar "|"   
}

\score{
    <<

	\context Staff="default"
	{
	    \voicedefault 
	}

    >>
	\layout {
	}
	\midi {}
}
