\version "2.19.49"
% clairnote-type = sn
\include "clairnote.ly"
\header {
	transcription = "Ralex"
	crossRefNumber = "1"
	footnotes = ""
	meter = "Reel"
	source = "https://thesession.org/tunes/558#setting23861"
	arranger = "Setting 7"
	tagline = \markup { \vspace #1.8 \sans \abs-fontsize #7.5 \wordwrap {Sheet music in \with-url \clairnoteTypeUrl { \clairnoteTypeName music notation} published by Paul Morris using \with-url #"http://www.lilypond.org" {LilyPond.} Automatically converted to LilyPond format from an ABC source file from \with-url #"https://thesession.org" {the Session} website: \with-url #"https://thesession.org/tunes/558#setting23861" {"https://thesession.org/tunes/558#setting23861"}}}
	title = "Coen's Memories"
}
voicedefault =  {
\set Score.defaultBarType = ""

\repeat volta 2 {
\time 4/4 \key e \dorian   a'8    g'8    e'8    d'8    e'8    a'8    a'8    b'8 
 \bar "|"   e''8    a''8    a''8    fis''8    g''8    e''8    d''8    b'8  
\bar "|"   g'4    g'8    b'8    a'4    g'8    e'8  \bar "|"   d'4    b'8    g'8 
   a'8    g'8    e'8    d'8  \bar "|"     a'8    g'8    e'8    d'8    e'8    
a'8    a'8    b'8  \bar "|"   e''8    a''8    a''8    fis''8    g''8    e''8    
d''8    b'8  \bar "|"   g'8    a'8    b'8    d''8    e''4    d''8    b'8  
\bar "|"   g'8    a'8    b'8    g'8    a'4    a'8    d''8  }     
\repeat volta 2 {   e''8    a''8    a''4 ^"~"    b''8    a''8    g''8    e''8  
\bar "|"   a''4    b''8    a''8    g''8    e''8    d''8    b'8  \bar "|"   
d''4. ^"~"    fis''8    g''4    g''8    b''8  \bar "|"   a''4    a''8    b''8   
 g''8    a''8    fis''8    a''8  \bar "|"     e''8    a''8    a''4 ^"~"    b''8 
   a''8    g''8    e''8  \bar "|"   a''4    b''8    a''8    g''8    e''8    
d''8    b'8  \bar "|"   g'8    a'8    b'8    d''8    e''4    d''8    b'8  
\bar "|"   g'8    a'8    b'8    g'8    a'4    a'8    d''8  }   
}

\score{
    <<

	\context Staff="default"
	{
	    \voicedefault 
	}

    >>
	\layout {
	}
	\midi {}
}
