\version "2.19.49"
% clairnote-type = sn
\include "clairnote.ly"
\header {
	transcription = "ceolachan"
	crossRefNumber = "1"
	footnotes = ""
	meter = "Reel"
	source = "https://thesession.org/tunes/208#setting12878"
	arranger = "Setting 7"
	tagline = \markup { \vspace #1.8 \sans \abs-fontsize #7.5 \wordwrap {Sheet music in \with-url \clairnoteTypeUrl { \clairnoteTypeName music notation} published by Paul Morris using \with-url #"http://www.lilypond.org" {LilyPond.} Automatically converted to LilyPond format from an ABC source file from \with-url #"https://thesession.org" {the Session} website: \with-url #"https://thesession.org/tunes/208#setting12878" {"https://thesession.org/tunes/208#setting12878"}}}
	title = "Congress, The"
}
voicedefault =  {
\set Score.defaultBarType = ""

\time 4/4 \key d \mixolydian   \repeat volta 2 {   a'8    d'8    \tuplet 3/2 {   
d'8    d'8    d'8  }   d'8    e'8    fis'8    g'8    \bar "|"   a'8    d''8    
d''8    b'8    c''8    a'8    g'8    c''8    \bar "|"   a'8    d'8    
\tuplet 3/2 {   d'8    d'8    d'8  }   a'8    d'8    fis'8    d'8    \bar "|"   
e'8    c'8    \tuplet 3/2 {   c'8    b8    c'8  }   e'8    c'8    e'8    g'8    
\bar "|"   a'8    d'8    \tuplet 3/2 {   d'8    d'8    d'8  }   d'8    e'8    
fis'8    g'8    \bar "|"   a'8    d''8    d''8    b'8    c''8    a'8    g'8    
e'8    \bar "|"   fis'8    d'8    fis'8    g'8    a'8    b'8    c''8    a'8    
\bar "|"   g'8    e'8    c'8    e'8    d'8    e'8    fis'8    g'8    }   
\repeat volta 2 {   a'8    d''8    d''8    b'8    c''8    a'8    g'8    c''8    
\bar "|"   a'8    d''8    d''8    b'8    c''8    a'8    g'8    c''8    \bar "|" 
  a'8    c''8    g'8    c''8    a'8    c''8    g'8    c''8    \bar "|"   a'8    
d''8    d''8    b'8    c''8    a'8    g'4    \bar "|"   a'8    d''8    d''8    
b'8    c''8    a'8    g'8    c''8    \bar "|"   a'8    d''8    d''8    b'8    
c''8    a'8    g'8    e'8    \bar "|"   fis'8    d'8    fis'8    g'8    a'8    
b'8    c''8    a'8    \bar "|"   g'8    e'8    c'8    e'8    d'8    e'8    
fis'8    g'8    }   
}

\score{
    <<

	\context Staff="default"
	{
	    \voicedefault 
	}

    >>
	\layout {
	}
	\midi {}
}
