\version "2.19.49"
% clairnote-type = sn
\include "clairnote.ly"
\header {
	transcription = "Kevin Rietmann"
	crossRefNumber = "1"
	footnotes = ""
	meter = "Reel"
	source = "https://thesession.org/tunes/208#setting22698"
	arranger = "Setting 8"
	tagline = \markup { \vspace #1.8 \sans \abs-fontsize #7.5 \wordwrap {Sheet music in \with-url \clairnoteTypeUrl { \clairnoteTypeName music notation} published by Paul Morris using \with-url #"http://www.lilypond.org" {LilyPond.} Automatically converted to LilyPond format from an ABC source file from \with-url #"https://thesession.org" {the Session} website: \with-url #"https://thesession.org/tunes/208#setting22698" {"https://thesession.org/tunes/208#setting22698"}}}
	title = "Congress, The"
}
voicedefault =  {
\set Score.defaultBarType = ""

\time 4/4 \key a \dorian   e''8    a'8  \grace {    b'8  }   a'8    g'8    a'8  
  b'8    c''8    d''8    \bar "|"   e''8    a''8  \grace {    c'''8  }   a''8   
 fis''8    \tuplet 3/2 {   g''8 -.   fis''8 -.   e''8 -. }   d''8    fis''8    
\bar "|"   e''8    a'8  \grace {    b'8  }   \tuplet 3/2 {   a'8    g'8    a'8  
}   e''8    a'8  \grace {    b'8  }   \tuplet 3/2 {   a'8    g'8    a'8  }   
\bar "|"   b'8    g'8  \grace {    a'8  }   \tuplet 3/2 {   g'8    fis'8    g'8  
}   b'8    c''8    d''8    fis''8    \bar "|"     e''8    a'8  \grace {    b'8  
}   a'8    g'8    a'8    b'8    c''8    d''8    \bar "|"   e''8 
^"Not the original ending"   a''8  \grace {    c'''8  }   a''8    fis''8    
\tuplet 3/2 {   g''8 -.   fis''8 -.   e''8 -. }   d''8    b'8    \bar "|"   c''8 
   b'8    c''8    d''8    \tuplet 3/2 {   e''8    fis''8    g''8  }   e''8    
d''8    \bar "||"   e''8 ^"Correct way to play"   a''8  \grace {    c'''8  }   
a''8    fis''8    \tuplet 3/2 {   g''8 -.   fis''8 -.   e''8 -. }   d''4    
\bar "|"   e''8    fis''8    g''8    a''8    \tuplet 3/2 {   b''8    a''8    
g''8  }   a''8    fis''8    \bar "|"     e''8    a''8  \grace {    c'''8  }   
\tuplet 3/2 {   a''8    g''8    a''8  }   \tuplet 3/2 {   b''8    a''8    g''8  } 
  a''8    fis''8    \bar "|"   e''8    a''8  \grace {    c''8  }   a''8    g''8 
   \tuplet 3/2 {   e''8    g''8    e''8  }   d''8    fis''8    \bar "|"   
\tuplet 3/2 {   e''8 -.   g''8 -.   e''8 -. }   d''8 -.   fis''8 -.   
\tuplet 3/2 {   e''8 -.   g''8 -.   e''8 -. }   d''8    fis''8    \bar "|"   
e''8    a''8  \grace {    c'''8  }   a''8    fis''8    \tuplet 3/2 {   g''8 -.   
fis''8 -.   e''8 -. }   d''4    \bar "|"     e''8    a''8  \grace {    c'''8  } 
  \tuplet 3/2 {   a''8    g''8    a''8  }   \tuplet 3/2 {   b''8    a''8    g''8  
}   a''8    g''8    \bar "|"   e''8 ^"Not the original ending"   a''8  
\grace {    c'''8  }   a''8    g''8    \tuplet 3/2 {   e''8 -.   g''8 -.   e''8 
-. }   d''8    b'8    \bar "|"   c''8    b'8    c''8    d''8    \tuplet 3/2 {   
e''8    fis''8    g''8  }   e''8    d''8    \bar "|"   c''8    a'8    b'8    
g'8    a'4    \bar "||"       e''8 ^"Correct way to play"   a''8  \grace {    
c'''8  }   a''8    g''8    \tuplet 3/2 {   e''8 -.   g''8 -.   e''8 -. }   d''4  
  \bar "|"   e''8    fis''8    g''8    a''8    \tuplet 3/2 {   b''8    a''8    
g''8  }   a''8    fis''8    \bar "|"   g''8    e''8    d''8    b'8  \grace {    
d''8  }   b'8    a'8    \bar "||"   
}

\score{
    <<

	\context Staff="default"
	{
	    \voicedefault 
	}

    >>
	\layout {
	}
	\midi {}
}
