\version "2.19.49"
% clairnote-type = sn
\include "clairnote.ly"
\header {
	transcription = "birlibirdie"
	crossRefNumber = "1"
	footnotes = ""
	meter = "Reel"
	source = "https://thesession.org/tunes/924#setting14115"
	arranger = "Setting 2"
	tagline = \markup { \vspace #1.8 \sans \abs-fontsize #7.5 \wordwrap {Sheet music in \with-url \clairnoteTypeUrl { \clairnoteTypeName music notation} published by Paul Morris using \with-url #"http://www.lilypond.org" {LilyPond.} Automatically converted to LilyPond format from an ABC source file from \with-url #"https://thesession.org" {the Session} website: \with-url #"https://thesession.org/tunes/924#setting14115" {"https://thesession.org/tunes/924#setting14115"}}}
	title = "Connor Bones"
}
voicedefault =  {
\set Score.defaultBarType = ""

\repeat volta 2 {
\time 4/4 \key a \mixolydian   a'4    a'8    cis''8    cis''8    b'8    a'8    
fis'8    \bar "|"   d'4    d'8    fis'8    fis'8    e'8    d'8    fis'8    
\bar "|"   e'4    cis''8    e'8    a'8    e'8    cis''8    e'8    \bar "|"   
e'8    fis'8    a'8    cis''8    b'8    a'8    fis'8    e'8    \bar "|"   a'4   
 a'8    cis''8    cis''8    b'8    a'8    fis'8    \bar "|"   d'4    d'8    
fis'8    fis'8    e'8    d'8    fis'8    \bar "|"   e'4    cis''8    e'8    a'8 
   e'8    cis''8    e'8    \bar "|"   e'8    fis'8    a'8    cis''8    b'8    
a'8    a'8    b'8    }   cis''4    cis''8    d''8    e''8    cis''8    a'8    
cis''8    \bar "|"   d''4    d''8    e''8    fis''8    d''8    b'8    d''8    
\bar "|"   cis''4    cis''8    d''8    e''8    cis''8    a'8    cis''8    
\bar "|"   e'8    fis'8    a'8    cis''8    b'8    a'8    a'8    b'8    
\bar "|"   cis''4    cis''8    d''8    e''8    cis''8    a'8    cis''8    
\bar "|"   d''4    d''8    e''8    fis''8    d''8    b'8    d''8    \bar "|"   
cis''4    cis''8    b'8    a'8    b'8    a'8    fis'8    \bar "|"   e'8    
fis'8    a'8    cis''8    b'8    a'8    a'8    b'8    \bar ":|."   cis''8    
d''8    b'8    cis''8    a'8    b'8    fis'8    a'8    \bar "|"   e'8    fis'8  
  a'8    cis''8    b'8    a'8    fis'8    e'8    \bar "||"   
}

\score{
    <<

	\context Staff="default"
	{
	    \voicedefault 
	}

    >>
	\layout {
	}
	\midi {}
}
