\version "2.19.49"
% clairnote-type = sn
\include "clairnote.ly"
\header {
	transcription = "joe fidkid"
	crossRefNumber = "1"
	footnotes = ""
	meter = "Reel"
	source = "https://thesession.org/tunes/614#setting13630"
	arranger = "Setting 2"
	tagline = \markup { \vspace #1.8 \sans \abs-fontsize #7.5 \wordwrap {Sheet music in \with-url \clairnoteTypeUrl { \clairnoteTypeName music notation} published by Paul Morris using \with-url #"http://www.lilypond.org" {LilyPond.} Automatically converted to LilyPond format from an ABC source file from \with-url #"https://thesession.org" {the Session} website: \with-url #"https://thesession.org/tunes/614#setting13630" {"https://thesession.org/tunes/614#setting13630"}}}
	title = "Connemara Stockings, The"
}
voicedefault =  {
\set Score.defaultBarType = ""

\time 4/4 \key d \major   \repeat volta 2 {   d''4    cis''8    d''8    b'8    
a'8    fis'8    e'8    \bar "|"   d'8    e'8  \grace {    fis'8    g'8  }   
fis'8    d'8  \grace {    e'8    fis'8  }   e'8    d'8    b8    a8    \bar "|"  
 d'8    e'8    fis'8    a'8  \grace {    cis''8  }   b'8    a'8    e''8    d''8 
   } \alternative{{   cis''8    a'8    b'8    cis''8    d''8    a'8    b'8    
cis''8    } {   cis''8    a'8    b'8    cis''8    d''4    b'8    cis''8    
\bar "|"   \grace {    d''8  }   cis''8    b'8    fis'8    b'8    d''8    b'8   
 fis''8    b'8    \bar "|"   cis''8    a'8    e'8    a'8    cis''8    a'8    
e''8    cis''8    \bar "|"   d''8    b'8    fis'8    b'8  \grace {    d''8  }   
cis''8    b'8    fis''8    b'8    \bar "|"   d''8    cis''8    a'8    cis''8    
b'4. ^"~"    cis''8    \bar "|"   d''4  \grace {    g''8  }   fis''8    e''8    
fis''8    d''8    e''8    d''8    \bar "|"   cis''8    a''8    e''8    cis''8   
 a'8    b'8    cis''8    a'8    \bar "|"   d''4. ^"~"    a'8    cis''4. ^"~"    
a'8    \bar "|"   b'4. ^"~"    cis''8    d''8    a'8    fis'8    a'8    
\bar "|."   }}
}

\score{
    <<

	\context Staff="default"
	{
	    \voicedefault 
	}

    >>
	\layout {
	}
	\midi {}
}
