\version "2.19.49"
% clairnote-type = sn
\include "clairnote.ly"
\header {
	transcription = "Mitch"
	crossRefNumber = "1"
	footnotes = ""
	meter = "Waltz"
	source = "https://thesession.org/tunes/1282#setting1282"
	arranger = "Setting 1"
	tagline = \markup { \vspace #1.8 \sans \abs-fontsize #7.5 \wordwrap {Sheet music in \with-url \clairnoteTypeUrl { \clairnoteTypeName music notation} published by Paul Morris using \with-url #"http://www.lilypond.org" {LilyPond.} Automatically converted to LilyPond format from an ABC source file from \with-url #"https://thesession.org" {the Session} website: \with-url #"https://thesession.org/tunes/1282#setting1282" {"https://thesession.org/tunes/1282#setting1282"}}}
	title = "Convelescent, The"
}
voicedefault =  {
\set Score.defaultBarType = ""

\time 3/4 \key g \major   g'8    a'8  \bar "|"   b'4.    c''8    b'4  \bar "|"  
 b'4.    a'8    g'4  \bar "|"   e'4.    fis'8    g'4  \bar "|"   fis'4    e'4   
 d'4  \bar "|"   e'4.    fis'8    g'4  \bar "|"   d'4    g'4    b'4  \bar "|"   
c''4.    b'8    c''4  \bar "|"   a'2    g'8    a'8  \bar "|"     b'4.    c''8   
 b'4  \bar "|"   b'4.    a'8    g'4  \bar "|"   e'4.    fis'8    g'4  \bar "|"  
 fis'4    e'4    d'4  \bar "|"   e'4.    fis'8    g'4  \bar "|"   d'4    g'4    
b'4  \bar "|"   a'4.    b'8    a'4  \bar "|"   g'2    d''4  \bar "|"     g''4.  
  fis''8    g''4  \bar "|"   d''2    d''4  \bar "|"   e''8    d''8    c''4    
e''4  \bar "|"   d''2    d''4  \bar "|"   g''4.    fis''8    g''4  \bar "|"   
d''2    d''4  \bar "|"   e''8    d''8    c''8    b'8    a'8    g'8  \bar "|"   
a'2    d''4  \bar "|"     g''4.    fis''8    g''4  \bar "|"   d''2    d''4  
\bar "|"   e''4.    d''8    c''8    e''8  \bar "|"   d''2    b'8    a'8  
\bar "|"   g'8    a'8    b'8    c''8    d''8    e''8  \bar "|"   d''4.    c''8  
  b'4  \bar "|"   a'4.    b'8    a'4  \bar "|"   g'2  \bar "||"   
}

\score{
    <<

	\context Staff="default"
	{
	    \voicedefault 
	}

    >>
	\layout {
	}
	\midi {}
}
