\version "2.19.49"
% clairnote-type = sn
\include "clairnote.ly"
\header {
	transcription = "ceolachan"
	crossRefNumber = "1"
	footnotes = ""
	meter = "Hornpipe"
	source = "https://thesession.org/tunes/478#setting25384"
	arranger = "Setting 4"
	tagline = \markup { \vspace #1.8 \sans \abs-fontsize #7.5 \wordwrap {Sheet music in \with-url \clairnoteTypeUrl { \clairnoteTypeName music notation} published by Paul Morris using \with-url #"http://www.lilypond.org" {LilyPond.} Automatically converted to LilyPond format from an ABC source file from \with-url #"https://thesession.org" {the Session} website: \with-url #"https://thesession.org/tunes/478#setting25384" {"https://thesession.org/tunes/478#setting25384"}}}
	title = "Cronin's"
}
voicedefault =  {
\set Score.defaultBarType = ""

\time 4/4 \key g \major   \repeat volta 2 {   \tuplet 3/2 {   c''8    b'8    a'8 
 }   \bar "|"   g'8.    a'16    b'8.    d''16    d''8.    b'16    d''8.    
e''16    \bar "|"   g''8.    a''16    g''8.    e''16    d''8.    e''16    g''8. 
   a''16    \bar "|"   b''8.    a''16    g''8.    e''16    d''8.    b'16    
g'8.    a'16    \bar "|"   b'8.    a'16    a'8.    g'16    \tuplet 3/2 {   a'8   
 b'8    c''8  }   b'8.    a'16    \bar "|"     g'8.    a'16    b'8.    d''16    
d''8.    b'16    d''8.    e''16    \bar "|"   g''8.    a''16    g''8.    e''16  
  d''8.    e''16    g''8.    a''16    \bar "|"   b''8.    a''16    g''8.    
e''16    d''8.    b'16    \tuplet 3/2 {   a'8    ais'8    b'8  }   \bar "|"   
\tuplet 3/2 {   g'8    a'8    g'8  }   \tuplet 3/2 {   fis'8    g'8    a'8  }   
g'4    }     \repeat volta 2 {   fis''8.    g''16    \bar "|"   a''8.    
fis''16    d''8.    c''16    d''8.    e''16    g''8.    a''16    \bar "|"   
b''8.    g''16    e''8.    d''16    e''8.    fis''16    g''8.    a''16    
\bar "|"   b''8.    g''16    a''8.    fis''16    g''8.    e''16    d''8.    
b'16    \bar "|"   b'8.    a'16    a'8.    g'16    \tuplet 3/2 {   a'8    b'8    
c''8  }   b'8.    a'16    \bar "|"     g'8.    a'16    b'8.    d''16    d''8.   
 b'16    d''8.    e''16    \bar "|"   g''8.    a''16    g''8.    e''16    d''8. 
   e''16    g''8.    a''16    \bar "|"   b''8.    a''16    g''8.    e''16    
d''8.    b'16    \tuplet 3/2 {   a'8    ais'8    b'8  }   \bar "|"   
\tuplet 3/2 {   g'8    a'8    g'8  }   \tuplet 3/2 {   fis'8    g'8    a'8  }   
g'4    }   
}

\score{
    <<

	\context Staff="default"
	{
	    \voicedefault 
	}

    >>
	\layout {
	}
	\midi {}
}
