\version "2.19.49"
% clairnote-type = sn
\include "clairnote.ly"
\header {
	transcription = "b.maloney"
	crossRefNumber = "1"
	footnotes = ""
	meter = "Hornpipe"
	source = "https://thesession.org/tunes/573#setting573"
	arranger = "Setting 1"
	tagline = \markup { \vspace #1.8 \sans \abs-fontsize #7.5 \wordwrap {Sheet music in \with-url \clairnoteTypeUrl { \clairnoteTypeName music notation} published by Paul Morris using \with-url #"http://www.lilypond.org" {LilyPond.} Automatically converted to LilyPond format from an ABC source file from \with-url #"https://thesession.org" {the Session} website: \with-url #"https://thesession.org/tunes/573#setting573" {"https://thesession.org/tunes/573#setting573"}}}
	title = "Cuckoo's Nest, The"
}
voicedefault =  {
\set Score.defaultBarType = ""

\time 4/4 \key g \major   d'4    \bar "||"   b'8    g'8    d'8    g'8    c''8   
 a'8    fis'8    a'8    \bar "|"   d''8    cis''8    d''8    e''8    d''8    
b'8    g'8    fis'8    \bar "|"   e'8    c''8  \grace {    d''8  }   c''8    
b'8    a'8    g'8    fis'8    g'8    \bar "|"     \bar "|"   \tuplet 3/2 {   a'8 
-.   b'8 -.   a'8 -. }   \tuplet 3/2 {   g'8 -.   fis'8 -.   e'8 -. }   
\tuplet 3/2 {   d'8 -.   e'8 -.   d'8 -. }   b4    \bar ":|."   \tuplet 3/2 {   
a'8 -.   b'8 -.   a'8 -. }   g'8    fis'8    g'4    \bar "|"   g''8    a''8    
\bar "||"     b''8    g''8    g''4 ^"~"    d''8    g''8    b'8    g''8    
\bar "|"   b''8    g''8    g''4 ^"~"    d''8    g''8    b'8    g''8    \bar "|" 
    \bar "|"   c'''8    a''8    a''4 ^"~"    e''8    a''8    c''8    a''8    
\bar "|"   c'''8    a''8    a''4 ^"~"    e''8    a''8    c''8    a''8    
\bar ":|."     \bar "|"   \tuplet 3/2 {   a''8 (   b''8    a''8  -) }   
\tuplet 3/2 {   g''8 (   a''8    g''8  -) }   \tuplet 3/2 {   fis''8 (   g''8    
fis''8  -) }   \tuplet 3/2 {   e''8 (   fis''8    e''8  -) }   \bar "|"   
\tuplet 3/2 {   d''8 (   e''8    d''8  -) }   \tuplet 3/2 {   c''8 (   d''8    
c''8  -) }   b'4    \bar "|."   
}

\score{
    <<

	\context Staff="default"
	{
	    \voicedefault 
	}

    >>
	\layout {
	}
	\midi {}
}
