\version "2.19.49"
% clairnote-type = sn
\include "clairnote.ly"
\header {
	transcription = "didier"
	crossRefNumber = "1"
	footnotes = ""
	meter = "Jig"
	source = "https://thesession.org/tunes/825#setting28467"
	arranger = "Setting 5"
	tagline = \markup { \vspace #1.8 \sans \abs-fontsize #7.5 \wordwrap {Sheet music in \with-url \clairnoteTypeUrl { \clairnoteTypeName music notation} published by Paul Morris using \with-url #"http://www.lilypond.org" {LilyPond.} Automatically converted to LilyPond format from an ABC source file from \with-url #"https://thesession.org" {the Session} website: \with-url #"https://thesession.org/tunes/825#setting28467" {"https://thesession.org/tunes/825#setting28467"}}}
	title = "Cuil Aodha, The"
}
voicedefault =  {
\set Score.defaultBarType = ""

\time 6/8 \key a \major   a''8    \bar "|"   a''8    gis''8    e''8    d''8    
b'8    e''8  \bar "|"   a'8    b'8    a'8    cis''4    d''8    \bar "|"   e''4  
  cis''8    d''8    b'8    a'8    \bar "|"   gis'8    e'8    e'8    cis''8    
d''8    b'8    \bar "|"     a'8    b'8    a'8    a'8    b'8    a'8    \bar "|"  
 b'4.    gis''8    a''8    b''8    \bar "|"   a''8    gis''8    e''8    d''8    
b'8    e''8    \bar "|"   a'8    b'8    a'8    a'4    \bar ":|."   a'8    b'8   
 a'8    a'8    cis''8    e''8    \bar "||"     a''8    b''8    a''8    a''8    
gis''8    a''8    \bar "|"   b''8    e''8    e''8    gis''8    a''8    b''8    
\bar "|"   a''8    gis''8    e''8    d''8    e''8    d''8    \bar "|"   d''8    
b'8    a'8    gis'8    a'8    b'8    \bar "|"     a'4    a''8    a''8    gis''8 
   a''8    \bar "|"   b''4    e''8    gis''8    a''8    b''8    \bar "|"   a''8 
   gis''8    e''8    d''8    b'8    e''8    \bar "|"   a'8    b'8    a'8    a'8 
   cis''8    e''8    \bar ":|."   a'8    b'8    a'8    a'4    \bar "||"   
}

\score{
    <<

	\context Staff="default"
	{
	    \voicedefault 
	}

    >>
	\layout {
	}
	\midi {}
}
