\version "2.19.49"
% clairnote-type = sn
\include "clairnote.ly"
\header {
	transcription = "Damien Rogeau"
	crossRefNumber = "1"
	footnotes = ""
	meter = "Jig"
	source = "https://thesession.org/tunes/1204#setting29759"
	arranger = "Setting 4"
	tagline = \markup { \vspace #1.8 \sans \abs-fontsize #7.5 \wordwrap {Sheet music in \with-url \clairnoteTypeUrl { \clairnoteTypeName music notation} published by Paul Morris using \with-url #"http://www.lilypond.org" {LilyPond.} Automatically converted to LilyPond format from an ABC source file from \with-url #"https://thesession.org" {the Session} website: \with-url #"https://thesession.org/tunes/1204#setting29759" {"https://thesession.org/tunes/1204#setting29759"}}}
	title = "Custy's"
}
voicedefault =  {
\set Score.defaultBarType = ""

\time 6/8 \key a \dorian   c''8    d''8    e''8    a'8    g'8    e'8  \bar "|"  
 g'8    a'8    b'8    a'4. ^"~"  \bar "|"   e''8    a''8    g''8    e''8    
d''8    c''8  \bar "|"   e''4. ^"~"    a'8    g'8    e'8  \bar "|"     c''4    
e''8    d''8    c''8    a'8  \bar "|"   g'4. ^"~"    g'8    c''8    d''8  
\bar "|"   e''4    a''8    g''8    e''8    d''8  \bar "|"   c''8    a'8    g'8  
  a'4    b'8  \bar "|"     c''4    e''8    a'8    g'8    e'8  \bar "|"   g'8    
a'8    b'8    a'4. ^"~"  \bar "|"   a''4    g''8    e''8    d''8    c''8  
\bar "|"   e''4. ^"~"    a'8    g'8    e'8  \bar "|"     c''4    e''8    d''8   
 c''8    a'8  \bar "|"   g'4. ^"~"    g'8    c''8    d''8  \bar "|"   e''4    
a''8    g''8    e''8    d''8  \bar "|"   c''8    a'8    g'8    a'8    e''8    
g''8  \bar "|"     \repeat volta 2 {   a''4. ^"~"    g''8    e''8    d''8  
\bar "|"   d''8    e''4. ^"~"    d''8    c''8  \bar "|"   a'4. ^"~"    g'4    
c''8  \bar "|"   d''4    e''8    d''8    e''8    g''8  \bar "|"     a''8    
e''8    g''8    d''8    e''8    c''8  \bar "|"   a'4. ^"~"    g'4. ^"~"  
\bar "|"   c''8    d''8    e''8    g''8    e''8    d''8  } \alternative{{   
c''8    a'8    g'8    a'8    e''8    g''8    } {   c''8    a'8    g'8    a'4.  
\bar "||"   }}
}

\score{
    <<

	\context Staff="default"
	{
	    \voicedefault 
	}

    >>
	\layout {
	}
	\midi {}
}
