\version "2.19.49"
% clairnote-type = sn
\include "clairnote.ly"
\header {
	transcription = "Edgar Bolton"
	crossRefNumber = "1"
	footnotes = ""
	meter = "Barndance"
	source = "https://thesession.org/tunes/1088#setting14328"
	arranger = "Setting 3"
	tagline = \markup { \vspace #1.8 \sans \abs-fontsize #7.5 \wordwrap {Sheet music in \with-url \clairnoteTypeUrl { \clairnoteTypeName music notation} published by Paul Morris using \with-url #"http://www.lilypond.org" {LilyPond.} Automatically converted to LilyPond format from an ABC source file from \with-url #"https://thesession.org" {the Session} website: \with-url #"https://thesession.org/tunes/1088#setting14328" {"https://thesession.org/tunes/1088#setting14328"}}}
	title = "Dancing The Baby"
}
voicedefault =  {
\set Score.defaultBarType = ""

\time 4/4 \key d \major   \repeat volta 2 {   cis''8    e''8    e''8    d''8    
e''8    e''8    \bar "|"   cis''8    e''8    e''8    d''8    cis''8    b'8    
\bar "|"   cis''8    e''8    e''8    d''8    e''8    e''8    \bar "|"   
\tuplet 3/2 {   a'8    a'8    a'8  }   a'8    cis''8    b'8    a'8    \bar "|"   
cis''8    e''8    e''8    d''8    e''8    e''8    \bar "|"   cis''8    e''8    
e''8    d''8    cis''8    b'8    \bar "|"   \tuplet 3/2 {   a'8    a'8    a'8  } 
  cis''8    b'8    cis''8    b'8    \bar "|"   a'8    \tuplet 3/2 {   cis''8    
b'8    a'8  }   a'8    a'8    a'8    }   \repeat volta 2 {   a''8    cis''8    
cis''8    e''8    cis''8    cis''8    \bar "|"   a''8    cis''8    cis''8    
e''8    cis''8    cis''8    \bar "|"   a''8    cis''8    cis''8    e''8    
cis''8    cis''8    \bar "|"   \tuplet 3/2 {   a'8    a'8    a'8  }   a'8    
cis''8    b'8    a'8    \bar "|"   a''8    cis''8    cis''8    e''8    cis''8   
 cis''8    \bar "|"   a''8    cis''8    cis''8    e''8    cis''8    cis''8    
\bar "|"   \tuplet 3/2 {   a'8    a'8    a'8  }   cis''8    b'8    cis''8    b'8 
   \bar "|"   a'8    \tuplet 3/2 {   cis''8    b'8    a'8  }   a'8    a'8    a'8 
   }   
}

\score{
    <<

	\context Staff="default"
	{
	    \voicedefault 
	}

    >>
	\layout {
	}
	\midi {}
}
