\version "2.19.49"
% clairnote-type = sn
\include "clairnote.ly"
\header {
	transcription = "Jeremy"
	crossRefNumber = "1"
	footnotes = ""
	meter = "Slide"
	source = "https://thesession.org/tunes/22#setting22"
	arranger = "Setting 1"
	tagline = \markup { \vspace #1.8 \sans \abs-fontsize #7.5 \wordwrap {Sheet music in \with-url \clairnoteTypeUrl { \clairnoteTypeName music notation} published by Paul Morris using \with-url #"http://www.lilypond.org" {LilyPond.} Automatically converted to LilyPond format from an ABC source file from \with-url #"https://thesession.org" {the Session} website: \with-url #"https://thesession.org/tunes/22#setting22" {"https://thesession.org/tunes/22#setting22"}}}
	title = "Dancing Dog, The"
}
voicedefault =  {
\set Score.defaultBarType = ""

\time 12/8 \key a \mixolydian   \repeat volta 2 {   a'4    b'8    cis''8    b'8 
   a'8  \bar "|"   e''8    a'8    b'8    cis''8    b'8    a'8  \bar "|"   d''8  
  e''8    d''8    cis''8    b'8    a'8  \bar "|"   g'8    a'8    b'8    a'4    
e'8  \bar "|"   a'4    b'8    cis''8    b'8    a'8  \bar "|"   e''8    a'8    
b'8    cis''8    b'8    a'8  \bar "|"   fis''8    a''8    fis''8    g''8    
e''8    d''8  \bar "|"   g'8    a'8    b'8    a'4.  }   \repeat volta 2 {   
e''4    cis''8    cis''8    d''8    e''8  \bar "|"   b'8    cis''8    d''8    
cis''8    b'8    a'8  \bar "|"   e''4    cis''8    cis''8    d''8    e''8  
\bar "|"   b'8    cis''8    d''8    e''4    fis''8  \bar "|"   g''8    fis''8   
 e''8    fis''8    e''8    d''8  \bar "|"   e''8    fis''8    e''8    d''8    
cis''8    b'8  \bar "|"   a'4    b'8    cis''8    b'8    a'8  \bar "|"   g'8    
a'8    b'8    a'4.  }   
}

\score{
    <<

	\context Staff="default"
	{
	    \voicedefault 
	}

    >>
	\layout {
	}
	\midi {}
}
