\version "2.19.49"
% clairnote-type = sn
\include "clairnote.ly"
\header {
	transcription = "Pat Hargan"
	crossRefNumber = "1"
	footnotes = ""
	meter = "Jig"
	source = "https://thesession.org/tunes/1317#setting28801"
	arranger = "Setting 4"
	tagline = \markup { \vspace #1.8 \sans \abs-fontsize #7.5 \wordwrap {Sheet music in \with-url \clairnoteTypeUrl { \clairnoteTypeName music notation} published by Paul Morris using \with-url #"http://www.lilypond.org" {LilyPond.} Automatically converted to LilyPond format from an ABC source file from \with-url #"https://thesession.org" {the Session} website: \with-url #"https://thesession.org/tunes/1317#setting28801" {"https://thesession.org/tunes/1317#setting28801"}}}
	title = "Daniel Of The Sun"
}
voicedefault =  {
\set Score.defaultBarType = ""

\time 6/8 \key g \major \key g \major   \repeat volta 2 {   b'8    g'8    g'8   
 a'8    g'8    a'8  \bar "|"   b'8    a'8    b'8    g'8    e'8    d'8  \bar "|" 
  e'8    a'8    a'8    a'8    b'8    a'8  \bar "|"   e'8    a'8    a'8    a'4   
 c''8  \bar "|"     b'8    g'8    g'8    a'8    g'8    g'8  \bar "|"   b'8    
a'8    b'8    g'8    e'8    d'8  \bar "|"   e'8    g'8    g'8    g'8    e'8    
d'8  \bar "|"   e'8    g'8    g'8    g'4.  }     \repeat volta 2 {   b'8    
c''8    d''8    a'8    b'8    c''8  \bar "|"   b'8    a'8    b'8    g'8    e'8  
  d'8  \bar "|"   e'8    a'8    a'8    a'8    b'8    a'8  \bar "|"   e'8    a'8 
   a'8    a'4    c''8  \bar "|"     b'8    c''8    d''8    a'8    b'8    c''8  
\bar "|"   b'8    a'8    b'8    g'8    e'8    d'8  \bar "|"   e'8    g'8    g'8 
   g'8    e'8    d'8  \bar "|"   e'8    g'8    g'8    g'4.  }   
}

\score{
    <<

	\context Staff="default"
	{
	    \voicedefault 
	}

    >>
	\layout {
	}
	\midi {}
}
