\version "2.19.49"
% clairnote-type = sn
\include "clairnote.ly"
\header {
	transcription = "Weejie"
	crossRefNumber = "1"
	footnotes = ""
	meter = "Reel"
	source = "https://thesession.org/tunes/229#setting12924"
	arranger = "Setting 7"
	tagline = \markup { \vspace #1.8 \sans \abs-fontsize #7.5 \wordwrap {Sheet music in \with-url \clairnoteTypeUrl { \clairnoteTypeName music notation} published by Paul Morris using \with-url #"http://www.lilypond.org" {LilyPond.} Automatically converted to LilyPond format from an ABC source file from \with-url #"https://thesession.org" {the Session} website: \with-url #"https://thesession.org/tunes/229#setting12924" {"https://thesession.org/tunes/229#setting12924"}}}
	title = "Dowd's Favourite"
}
voicedefault =  {
\set Score.defaultBarType = ""

\time 4/4 \key g \dorian   f'8  \bar "|"   d'4.    g'8    bes'8    a'8    bes'8 
   f'8  \bar "|"   c'8    f'8  \grace {    g'8  }   f'8  \grace {    e'8  }   
f'8    c'8    f'8    a'8    f'8  \bar "|"   d'8    g'8    g'8    a'8    bes'8.  
\grace {    c''8  }   bes'16  \grace {    a'8  }   bes'8    d''8  \bar "|"   
c''8    a'8    f''8    a'8    a'8    g'8    g'8    f'8  \bar "|"   d'8    g'8   
 g'16 -.   g'16 -.   g'8 -.   bes'8    a'8    bes'8    f'8  \bar "|"   c'8    
f'8  \grace {    g'8  }   f'8  \grace {    e'8  }   f'8    c'8    f'8    a'8    
f'8  \bar "|"   d'8    g'8    g'8    a'8    bes'8.  \grace {    c''8  }   
bes'16  \grace {    a'8  }   bes'8    d''8  \bar "|"   c''8    a'8    f''8    
a'8    a'8    g'8    g'8    r8 \bar "||"   bes'4    d''8    bes'8    f'8    
bes'8    d''8    bes'8  \bar "|"   d'8    f'8    bes'8    d''8    c''8    a'8   
 f'8    a'8  \bar "|"   bes'16 -.   bes'16 -.   bes'8 -.   d''8    bes'8    
f''8    bes'8  \grace {    c''8  }   bes'8  \grace {    a'8  }   bes'8  
\bar "|"   bes'16 -.   bes'16 -.   bes'8 -.   d''8    bes'8    c''8    a'8    
f'8    a'8  \bar "|"   g'8    bes'8    a'8    c''8    bes'8    a''8    g''8    
e''8  \bar "|"   f''8    d''8    c''8    a'8    bes'8    g'8    g'8    r8 
\bar "||"   g''4    d''8    f''8    g''16 (   f''16    g''8  -)   bes''8    
g''8  \bar "|"   f''8    d''8    c''8    a'8    bes'8    g'8    g'8    r8 
\bar "|"   g''4    d''8    f''8    g''16 (   f''16    g''8  -)   bes''8    g''8 
 \bar "|"   f''8    c''8    c''8    e''8    f''8    g''8    c''8    a'8  
\bar "|"   g'8    bes'8    a'8    c''8    bes'8    a''8    g''8    e''8  
\bar "|"   f''8    d''8    c''8    a'8    bes'4    a'8    f'8  \bar "|"   g'1  
\bar "|."   
}

\score{
    <<

	\context Staff="default"
	{
	    \voicedefault 
	}

    >>
	\layout {
	}
	\midi {}
}
