\version "2.19.49"
% clairnote-type = sn
\include "clairnote.ly"
\header {
	transcription = "ceolachan"
	crossRefNumber = "1"
	footnotes = ""
	meter = "Jig"
	source = "https://thesession.org/tunes/1051#setting23597"
	arranger = "Setting 4"
	tagline = \markup { \vspace #1.8 \sans \abs-fontsize #7.5 \wordwrap {Sheet music in \with-url \clairnoteTypeUrl { \clairnoteTypeName music notation} published by Paul Morris using \with-url #"http://www.lilypond.org" {LilyPond.} Automatically converted to LilyPond format from an ABC source file from \with-url #"https://thesession.org" {the Session} website: \with-url #"https://thesession.org/tunes/1051#setting23597" {"https://thesession.org/tunes/1051#setting23597"}}}
	title = "Do You Want Any More ?"
}
voicedefault =  {
\set Score.defaultBarType = ""

\time 6/8 \key d \mixolydian   \repeat volta 2 {   e'8    \bar "|"   fis'8    
d'8    fis'8    a'4    b'8    \bar "|"   c''8    a'8    d''8    c''8    a'8    
g'8    \bar "|"   a'8    d''8    cis''8    d''4    e''8    \bar "|"   fis''8.   
 e''16    d''8    c''8    a'8    g'8    \bar "|"     fis'8    d'16    e'16    
fis'8    a'8    fis'8    b'8    \bar "|"   c''4    d''8    c''8    a'8    gis'8 
   \bar "|"   a'8    d''8    cis''8    a'8    g'8    e'8    \bar "|"   e'8    
d'8    d'8    d'4    }     \repeat volta 2 {   g''8    \bar "|"   fis''8    
d''8    d''8    fis''8    d''8    c''8    \bar "|"   a'4    d''8    cis''8    
d''8    g''8    \bar "|"   fis''8    d''8    d''8    fis''8    d''8    c''8    
\bar "|"   a'8    b'8    cis''8    d''8    e''16    fis''16    g''8    \bar "|" 
    a''8    b''8    a''8    g''4    e''8    \bar "|"   fis''8    d''8    d''8   
 c''8    a'8    gis'8    \bar "|"   a'4    d''8    c''8    g'8    e'8    
\bar "|"   e'8    d'8    d'8    d'4    }   
}

\score{
    <<

	\context Staff="default"
	{
	    \voicedefault 
	}

    >>
	\layout {
	}
	\midi {}
}
