\version "2.19.49"
% clairnote-type = sn
\include "clairnote.ly"
\header {
	transcription = "ceolachan"
	crossRefNumber = "1"
	footnotes = ""
	meter = "Reel"
	source = "https://thesession.org/tunes/1148#setting14417"
	arranger = "Setting 5"
	tagline = \markup { \vspace #1.8 \sans \abs-fontsize #7.5 \wordwrap {Sheet music in \with-url \clairnoteTypeUrl { \clairnoteTypeName music notation} published by Paul Morris using \with-url #"http://www.lilypond.org" {LilyPond.} Automatically converted to LilyPond format from an ABC source file from \with-url #"https://thesession.org" {the Session} website: \with-url #"https://thesession.org/tunes/1148#setting14417" {"https://thesession.org/tunes/1148#setting14417"}}}
	title = "Drag Her Round The Road"
}
voicedefault =  {
\set Score.defaultBarType = ""

\time 4/4 \key e \minor   b'8    e'8  \grace {    fis'8  }   e'8    d'8    e'8  
\grace {    fis'8  }   e'8    d'8    e'8    \bar "|"   g'8    e'8    d'8    b8  
  \tuplet 3/2 {   d'8    e'8    d'8  }   b8    d'8    \bar "|"   g'8    e'8  
\grace {    fis'8  }   e'8    d'8    e'8  \grace {    fis'8  }   e'8    d'8    
e'8    \bar "|"   g'4    b'8    g'8    a'8    b'8    g'8    a'8    \bar "|"   
b'8    e'4. ^"~"    b8    e'4. ^"~"    \bar "|"   g'8    e'8    d'8    b8    
\tuplet 3/2 {   d'8    e'8    d'8  }   b8    d'8    \bar "|"   g'8    e'8  
\grace {    fis'8  }   e'8    d'8    e'8  \grace {    fis'8  }   e'8    d'8    
e'8    \bar "|"   g'4    b'8    g'8    a'8    d'8    \bar "||"   g'4  \grace {  
  a'8  }   g'8    fis'8    g'8    b'8    d''8    c''8    \bar "|"   b'4  
\grace {    c''8  }   b'8    a'8    b'8    c''8    b'8    a'8    \bar "|"   g'8 
 \grace {    a'8  }   g'8    g'8    fis'8    g'8    b'8    d''8    c''8    
\bar "|"   \tuplet 3/2 {   a'8    b'8    a'8  }   g'8    b'8    a'4    
\tuplet 3/2 {   d'8    e'8    fis'8  }   \bar "|"   g'4  \grace {    a'8  }   
g'8    fis'8    g'8    b'8    d''8    c''8    \bar "|"   \tuplet 3/2 {   b'8    
c''8    b'8  }   a'8    c''8    b'4. ^"~"    a'8    \bar "|"   g'4    g'8    
fis'8    g'8    b'8    d''8    c''8    \bar "|"   \tuplet 3/2 {   a'8    b'8    
a'8  }   g'8    b'8    a'4    \bar "||"   
}

\score{
    <<

	\context Staff="default"
	{
	    \voicedefault 
	}

    >>
	\layout {
	}
	\midi {}
}
