\version "2.19.49"
% clairnote-type = sn
\include "clairnote.ly"
\header {
	transcription = "CreadurMawnOrganig"
	crossRefNumber = "1"
	footnotes = ""
	meter = "Hornpipe"
	source = "https://thesession.org/tunes/553#setting20770"
	arranger = "Setting 6"
	tagline = \markup { \vspace #1.8 \sans \abs-fontsize #7.5 \wordwrap {Sheet music in \with-url \clairnoteTypeUrl { \clairnoteTypeName music notation} published by Paul Morris using \with-url #"http://www.lilypond.org" {LilyPond.} Automatically converted to LilyPond format from an ABC source file from \with-url #"https://thesession.org" {the Session} website: \with-url #"https://thesession.org/tunes/553#setting20770" {"https://thesession.org/tunes/553#setting20770"}}}
	title = "Drunken Sailor's, The"
}
voicedefault =  {
\set Score.defaultBarType = ""

\time 4/4 \key e \dorian   \repeat volta 2 {   e'8    d'8  \bar "|"   b8    e'8 
   e'8    d'8    e'8    fis'8    g'8    a'8  \bar "|"   b'8    a'8    g'8    
fis'8    e'8    d'8    b8    cis'8  \bar "|"   d'4    d'8    cis'8    d'8    
e'8    e'8    d'8  \bar "|"   a'8    fis'8    fis'8    a'8    b'8    a'8    g'8 
   fis'8  \bar "|"     e'8    b8    g8    b8    e'8    fis'8    g'8    a'8  
\bar "|"   b'8    a'8    g'8    fis'8    e'8    d'8    b8    cis'8  \bar "|"   
d'8    d''8    cis''8    e''8    d''8    b'8    a'8    fis'8  \bar "|"   g'4    
e'4    e'4  }     \repeat volta 2 {   r8 fis'8  \bar "|"   g'4    g'8    fis'8  
  g'8    a'8    b'8    cis''8  \bar "|"   d''8    a'8    fis'8    g'8    a'8    
fis'8    d'4  \bar "|"   fis'8    d'8    a'8    d'8    b'8    d'8    a'8    g'8 
 \bar "|" \tuplet 3/2 {   fis'8    e'8    d'8  }   d'8    a'8    b'8    d'8    
a'8    fis'8  \bar "|"     g'4    g'8    fis'8    g'8    a'8    b'8    cis''8  
\bar "|"   d''8    a'8    fis'8    g'8    a'8    fis'8    d'8    fis'8  
\bar "|"   e'4    e''8    d''8    b'8    a'8    fis'8    a'8  \bar "|"   g'4    
e'4    e'4  }     \repeat volta 2 {   fis'8    a'8  \bar "|"   b'8    e''8    
e''8    d''8    e''8    b'8    d''8    e''8  \bar "|"   fis''8    e''8    d''8  
  cis''8    b'8    b'8    b'8    d''8  \bar "|"   cis''8    a'8    e''8    a'8  
  fis''8    a'8    e''8    d''8  \bar "|"   cis''8    a'8    a'8    e''8    
fis''8    a'8    e''8    a'8    \bar "|"     b'8    e''8    e''8    d''8    
e''8    b'8    d''8    e''8  \bar "|"   fis''8    e''8    d''8    cis''8    b'8 
   g'8    d'8    g'8  \bar "|" \tuplet 3/2 {   b'8    cis''8    d''8  }   cis''8 
   e''8    d''8    b'8    a'8    fis'8  \bar "|"   g'4    e'4    e'4  }     
\repeat volta 2 {   r8 d'8  \bar "|"   b8    e'8    g'8    b'8    b8    e'8    
g'8    b'8  \bar "|"   b8    d'8    fis'8    a'8    b8    d'8    fis'8    a'8  
\bar "|"   b8    e'8    g'8    b'8    b8    e'8    g'8    b'8  \bar "|"     b'4 
   b'8    a'8    fis'8    b'8    d'8    fis'8  \bar "|" \tuplet 3/2 {   e'8    
e'8    e'8  }   g'8    b'8    b8    e'8    g'8    b'8  \bar "|"   a'8    d'8    
\tuplet 3/2 {   fis'8    e'8    d'8  }   a'8    d'8    fis'8    a'8  \bar "|" 
\tuplet 3/2 {   b'8    cis''8    d''8  }   cis''8    e''8    d''8    b'8    a'8  
  fis'8  \bar "|"   g'4    e'4    e'4  }     \repeat volta 2 {   g''8    fis''8 
 \bar "|"   e''8    b'8    \tuplet 3/2 {   e''8    fis''8    g''8  }   e''8    
b'8    e''8    g''8  \bar "|"   d''8    a'8    \tuplet 3/2 {   d''8    e''8    
fis''8  }   d''8    a'8    d''8    fis''8  \bar "|"   e''8    b'8    e''8    
g''8    e''8    b'8    e''8    g''8  \bar "|"   d''8    b'8    a'8    fis'8    
b'8    a'8    a'8    fis'8  \bar "|"     g'8    e'8    b8    g'8    fis'8    
e'8    d'8    fis'8  \bar "|"   g'8    d'8    g'8    b'8    a'8    d'8    fis'8 
   a'8    \bar "|"   \tuplet 3/2 {   b'8    cis''8    d''8  }   cis''8    e''8   
 d''8    b'8    a'8    fis'8  \bar "|"   g'4    e'4    e'4  }   
}

\score{
    <<

	\context Staff="default"
	{
	    \voicedefault 
	}

    >>
	\layout {
	}
	\midi {}
}
