\version "2.19.49"
% clairnote-type = sn
\include "clairnote.ly"
\header {
	transcription = "Dr. Dow"
	crossRefNumber = "1"
	footnotes = ""
	meter = "Jig"
	source = "https://thesession.org/tunes/1186#setting14458"
	arranger = "Setting 2"
	tagline = \markup { \vspace #1.8 \sans \abs-fontsize #7.5 \wordwrap {Sheet music in \with-url \clairnoteTypeUrl { \clairnoteTypeName music notation} published by Paul Morris using \with-url #"http://www.lilypond.org" {LilyPond.} Automatically converted to LilyPond format from an ABC source file from \with-url #"https://thesession.org" {the Session} website: \with-url #"https://thesession.org/tunes/1186#setting14458" {"https://thesession.org/tunes/1186#setting14458"}}}
	title = "Elsie Marley"
}
voicedefault =  {
\set Score.defaultBarType = ""

\time 6/8 \key g \mixolydian   \repeat volta 2 {   g'4    g''8    g''8    d''8  
  b'8    \bar "|"   g''8    d''8    b'8    g''8    d''8    b'8    \bar "|"   
g'4    g''8    g''8    fis''8    b'8    \bar "|"   f''!4.    f''8    c''8    
a'8    \bar "|"   g'4    g''8    g''8    d''8    b'8    \bar "|"   g''8    d''8 
   b'8    g''8    d''8    b'8    \bar "|"   c''8    a''8    c''8    b'8    g''8 
   b'8    \bar "|"   a'4    f''8    f''8    c''8    a'8    }   
}

\score{
    <<

	\context Staff="default"
	{
	    \voicedefault 
	}

    >>
	\layout {
	}
	\midi {}
}
