\version "2.19.49"
% clairnote-type = sn
\include "clairnote.ly"
\header {
	transcription = "Will Harmon"
	crossRefNumber = "1"
	footnotes = ""
	meter = "Reel"
	source = "https://thesession.org/tunes/1293#setting14601"
	arranger = "Setting 2"
	tagline = \markup { \vspace #1.8 \sans \abs-fontsize #7.5 \wordwrap {Sheet music in \with-url \clairnoteTypeUrl { \clairnoteTypeName music notation} published by Paul Morris using \with-url #"http://www.lilypond.org" {LilyPond.} Automatically converted to LilyPond format from an ABC source file from \with-url #"https://thesession.org" {the Session} website: \with-url #"https://thesession.org/tunes/1293#setting14601" {"https://thesession.org/tunes/1293#setting14601"}}}
	title = "Exile Of Erin, The"
}
voicedefault =  {
\set Score.defaultBarType = ""

\time 4/4 \key d \mixolydian   \repeat volta 2 {   fis'8    g'8    a'8    g'8   
 fis'8    d'8    d'8    e'8    \bar "|"   e'8    d'8    a'8    g'8    fis'8    
d'8    a'8    c''8    \bar "|"   d''8    e''8    f''8    e''8    d''8    c''8   
 a'8    g'8    \bar "|"   \tuplet 3/2 {   e'8    fis'8    g'8  }   a'8    b'8  
\grace {    b'8  } <<   c''4.    g'4.   >> g'8    \bar "|"   \bar "|"   
\tuplet 3/2 {   e'8    fis'8    g'8  }   a'8    g'8    fis'8    d'8    d'8    
e'8    \bar "|"   \tuplet 3/2 {   fis'8    e'8    d'8  }   a'8    g'8    fis'8   
 d'8    c'8    d'8    \bar "|" \grace {    g8  } <<   a4.    d'4.   >>   d'8    
c'8    a4. ^"~"    } \alternative{{   g8    a8    c'8    d'8    e'8    d'8    
d'8    e'8    } {   g8    a8    c'8    d'8    e'8    d'8    d'8    a'8    
\bar "||"   \bar "|"   d''4.    d''8    c''8    a'8    g'8    c''8    \bar "|"  
 \tuplet 3/2 {   c''8    c''8    a'8  }   g'8    a'8    fis'8    a'8    e'8    
a'8    \bar "|"   d''4.    d''8    cis''8    d''8    e''8    fis''8    \bar "|" 
  g''8    e''8    a''8    g''8    fis''8    d''8    d''8    cis''8    \bar "|"  
 \bar "|"   d''4    a'8    d''8    c''8    a'8    g'8    c''8    \bar "|"   
\tuplet 3/2 {   c''8    c''8    a'8  }   g'8    a'8    fis'8    a'8    e'8    
a'8    \bar "|" <<   d'4.    a'4.   >> b'8    c''8    a'8    d''8    b'8    
\bar "|"   c''8    a'8    g'8    e'8    d'4.    cis''8    \bar "|"   \bar "|"   
d''4    e''8    d''8    c''8    a'8    g'8    c''8    \bar "|"   a'8    c''8    
g'8    a'8    fis'8    a'8    e'8    a'8    \bar "|"   d''4.    d''8    cis''8  
  d''8    e''8    fis''8    \bar "|"   g''8    e''8    a''8    g''8    fis''8   
 d''8  \tuplet 3/2 {   d''8    d''8    cis''8  }   \bar "|"   \bar "|"   d''4    
a'8    d''8    c''8    a'8    g'8    c''8    \bar "|"   \tuplet 3/2 {   c''8    
c''8    a'8  }   g'8    a'8    fis'8    a'8    e'8    a'8    \bar "|"   d'4    
a'8    b'8    c''8    a'8    d''8    b'8    \bar "|"   c''8    a'8    g'8    
e'8    d'4.    e'8    \bar "||"   }}
}

\score{
    <<

	\context Staff="default"
	{
	    \voicedefault 
	}

    >>
	\layout {
	}
	\midi {}
}
