\version "2.19.49"
% clairnote-type = sn
\include "clairnote.ly"
\header {
	transcription = "ObieWhistler"
	crossRefNumber = "1"
	footnotes = ""
	meter = "Reel"
	source = "https://thesession.org/tunes/1293#setting21037"
	arranger = "Setting 3"
	tagline = \markup { \vspace #1.8 \sans \abs-fontsize #7.5 \wordwrap {Sheet music in \with-url \clairnoteTypeUrl { \clairnoteTypeName music notation} published by Paul Morris using \with-url #"http://www.lilypond.org" {LilyPond.} Automatically converted to LilyPond format from an ABC source file from \with-url #"https://thesession.org" {the Session} website: \with-url #"https://thesession.org/tunes/1293#setting21037" {"https://thesession.org/tunes/1293#setting21037"}}}
	title = "Exile Of Erin, The"
}
voicedefault =  {
\set Score.defaultBarType = ""

\repeat volta 2 {
\time 4/4 \key d \mixolydian   fis'8    g'8    a'8    g'8    fis'8    d'8    
d'8    e'8  \bar "|"   fis'8    g'8    a'8    g'8    fis'8    d'8    fis'8    
a'8  \bar "|"   d''8    e''8    f''8    e''8    d''8    c''8    a'8    g'8  
\bar "|"   fis'8    g'8    a'8    b'8    c''4    a'8    g'8  \bar "|"     fis'8 
   g'8    a'8    g'8    fis'8    d'8    d'8    e'8  \bar "|"   fis'8    g'8    
a'8    g'8    fis'8    d'8    d''8    c''8  \bar "|"   a'2    c''8    d''8    
a'4  \bar "|"   g'8    a'8    c''8    d''8    e''8    d''8    d''4  }     
\repeat volta 2 {   d''8    fis''8    e''8    d''8    c''8    a'8    a'8    b'8 
 \bar "|"   c''16    b'16    a'8    g'8    a'8    fis'8    a'8    e'8    a'8  
\bar "|"   d''8    fis''8    e''8    d''8    cis''8    d''8    e''8    fis''8  
\bar "|"   g''8    e''8    a''8    fis''8    e''8    fis''8    g''8    e''8  
\bar "|"     d''8    fis''8    e''8    d''8    c''8    a'8    a'8    b'8  
\bar "|"   c''16    b'16    a'8    g'8    a'8    fis'8    a'8    e'8    a'8  
\bar "|"   d'8    fis'8    a'8    b'8    c''8    a'8    d''8    b'8  \bar "|"   
c''8    a'8    g'8    e'8    e'8    d'8    d'4  }   
}

\score{
    <<

	\context Staff="default"
	{
	    \voicedefault 
	}

    >>
	\layout {
	}
	\midi {}
}
