\version "2.19.49"
% clairnote-type = sn
\include "clairnote.ly"
\header {
	transcription = "Manu Novo"
	crossRefNumber = "1"
	footnotes = ""
	meter = "Reel"
	source = "https://thesession.org/tunes/390#setting13227"
	arranger = "Setting 3"
	tagline = \markup { \vspace #1.8 \sans \abs-fontsize #7.5 \wordwrap {Sheet music in \with-url \clairnoteTypeUrl { \clairnoteTypeName music notation} published by Paul Morris using \with-url #"http://www.lilypond.org" {LilyPond.} Automatically converted to LilyPond format from an ABC source file from \with-url #"https://thesession.org" {the Session} website: \with-url #"https://thesession.org/tunes/390#setting13227" {"https://thesession.org/tunes/390#setting13227"}}}
	title = "Famous Ballymote, The"
}
voicedefault =  {
\set Score.defaultBarType = ""

\repeat volta 2 {
\time 4/4 \key d \mixolydian   \bar "||"   fis'8    d'8    a'8    d'8    fis'8  
  a'4. ^"~"  \bar "|"   c''8    a'8    b'8    g'8    e'8    fis'8    g'8    e'8 
 \bar "|"   fis'8    d'8    a'8    d'8    fis'8    a'4. ^"~"  \bar "|"   c''8   
 a'8    g'8    e'8    fis'8    d'8    d'4  }   \bar "||"   fis'8    d'8    
fis'8    a'8    d''4    e''8    d''8  \bar "|"   c''8    a'8    b'8    g'8    
e'8    fis'8    g'8    e'8  \bar "|"   fis'8    d'8    fis'8    a'8    d''4    
e''8    d''8  \bar "|"   c''8    a'8    g'8    e'8    fis'8    d'8    d'4  
\bar ":|."   fis'8    d'8    fis'8    a'8    d''8    fis''8    e''8    d''8  
\bar "|"   c''8    a'8    g'8    e'8    fis'8    d'8    d'4  \bar "||"   
}

\score{
    <<

	\context Staff="default"
	{
	    \voicedefault 
	}

    >>
	\layout {
	}
	\midi {}
}
