\version "2.19.49"
% clairnote-type = sn
\include "clairnote.ly"
\header {
	transcription = "JACKB"
	crossRefNumber = "1"
	footnotes = ""
	meter = "Reel"
	source = "https://thesession.org/tunes/33#setting25494"
	arranger = "Setting 8"
	tagline = \markup { \vspace #1.8 \sans \abs-fontsize #7.5 \wordwrap {Sheet music in \with-url \clairnoteTypeUrl { \clairnoteTypeName music notation} published by Paul Morris using \with-url #"http://www.lilypond.org" {LilyPond.} Automatically converted to LilyPond format from an ABC source file from \with-url #"https://thesession.org" {the Session} website: \with-url #"https://thesession.org/tunes/33#setting25494" {"https://thesession.org/tunes/33#setting25494"}}}
	title = "Farewell To Erin"
}
voicedefault =  {
\set Score.defaultBarType = ""

\time 4/4 \key a \dorian   \repeat volta 2 {   a'4.    c''8    e''4.    fis''8  
\bar "|"   g''8    e''8    d''8    b'8    g'8    b'8    d''8    b'8  \bar "|"   
a'4.    c''8    e''4.    fis''8  \bar "|"   g''8    e''8    d''8    b'8    e''8 
   a'8    a'8    g'8  \bar "|"     a'4.    c''8    e''4.    fis''8  \bar "|"   
g''8    e''8    d''8    b'8    d''4    g''4  \bar "|"   e''8    d''8    e''8    
g''8    a''4    b''8    a''8  \bar "|"   g''8    e''8    d''8    b'8    b'8    
a'8    a'4  }   \key a \mixolydian   \repeat volta 2 {   a''4.    g''8    a''8  
  g''8    e''8    fis''8  \bar "|"   g''4.    a''8    g''8    e''8    d''8    
e''8  \bar "|"   a''4.    g''8    a''8    g''8    e''8    fis''8  \bar "|"   
g''8    e''8    d''8    b'8    b'8    a'8    a'4  \bar "|"     a''8    g''8    
e''8    fis''8    g''8    a''8    g''8    e''8  \bar "|"   d''4.    b'8    g'8  
  a'8    b'8    d''8  \bar "|" \tuplet 3/2 {   cis''8    b'8    a'8  }   b'8    
a'8    b'8    d''8    e''8    fis''8  \bar "|"   g''8    e''8    d''8    b'8    
b'8    a'8    a'4    }     \repeat volta 2 {   e''8    a'8    b'8    a'8    
e''8    a'8    b'8    a'8  \bar "|"   d''4.    b'8    g'8    a'8    b'8    d''8 
 \bar "|"   e''8    a'8    b'8    a'8    e''8    a'8    a'8    fis''8  \bar "|" 
  g''8    e''8    d''8    b'8    b'8    a'8    a'4  \bar "|"     e''8    a'8    
b'8    a'8    e''8    a'8    b'8    a'8  \bar "|"   d''4.    b'8    g'8    a'8  
  b'8    d''8  \bar "|" \tuplet 3/2 {   cis''8    b'8    a'8  }   b'8    a'8    
b'8    d''8    e''8    fis''8  \bar "|"   g''8    e''8    d''8    b'8    b'8    
a'8    a'4  }     \repeat volta 2 {   a''8    e''8    cis''8    e''8    a''8    
e''8    cis''8    e''8  \bar "|"   g''8    d''8    b'8    d''8    g''8    d''8  
  b'8    d''8  \bar "|"   a''8    e''8    cis''8    e''8    a''4.    fis''8  
\bar "|"   g''8    e''8    d''8    b'8    b'8    a'8    a'4  \bar "|"     a''8  
  g''8    e''8    fis''8    g''4.    e''8  \bar "|"   d''8    e''8    d''8    
b'8    g'8    a'8    b'8    d''8  \bar "|" \tuplet 3/2 {   cis''8    b'8    a'8  
}   b'8    a'8    b'8    d''8    e''8    fis''8  \bar "|"   g''8    e''8    
d''8    b'8    b'8    a'8    a'4  }   
}

\score{
    <<

	\context Staff="default"
	{
	    \voicedefault 
	}

    >>
	\layout {
	}
	\midi {}
}
