\version "2.19.49"
% clairnote-type = sn
\include "clairnote.ly"
\header {
	transcription = "Joe CSS"
	crossRefNumber = "1"
	footnotes = ""
	meter = "Reel"
	source = "https://thesession.org/tunes/33#setting12430"
	arranger = "Setting 4"
	tagline = \markup { \vspace #1.8 \sans \abs-fontsize #7.5 \wordwrap {Sheet music in \with-url \clairnoteTypeUrl { \clairnoteTypeName music notation} published by Paul Morris using \with-url #"http://www.lilypond.org" {LilyPond.} Automatically converted to LilyPond format from an ABC source file from \with-url #"https://thesession.org" {the Session} website: \with-url #"https://thesession.org/tunes/33#setting12430" {"https://thesession.org/tunes/33#setting12430"}}}
	title = "Farewell To Erin"
}
voicedefault =  {
\set Score.defaultBarType = ""

\repeat volta 2 {
\time 4/4 \key a \dorian   a4    a8    c'8    e'4    e'8    fis'8  \bar "|"   
g'8    e'8    d'8    b8    g8    a8    b8    g8  \bar "|"   a4    a8    c'8    
e'4    e'8    fis'8  \bar "|"   g'8    e'8    d'8    b8    e'8    a8    a8    
g8  \bar "|"   a4    a8    c'8    e'4    e'8    fis'8  \bar "|"   g'8    e'8    
d'8    b8    g4    g''4  \bar "|"   e''8    d''8    e''8    g''8    a''4. ^"~"  
  fis''8  \bar "|"   g''8    e''8    d''8    b'8    b'8    a'8    a'4 ^"~"  }   
\repeat volta 2 {   a''4. ^"~"    b''8    a''8    g''8    e''8    fis''8  
\bar "|"   g''4. ^"~"    a''8    g''8    e''8    d''8    e''8  \bar "|"   a''4. 
^"~"    b''8    a''8    g''8    e''8    fis''8  \bar "|"   g''8    e''8    d''8 
   b'8    b'8    a'8    a'4 ^"~"  \bar "|"   a''8    g''8    e''8    fis''8    
g''4. ^"~"    e''8  \bar "|"   d''8    e''8    d''8    b'8    g'8    a'8    b'8 
   d''8  \bar "|"   c''8    b'8    a'8    b'8    c''8    d''8    e''8    a''8  
\bar "|"   g''8    e''8    d''8    b'8    b'8    a'8    a'4 ^"~"  }   
\repeat volta 2 {   e''8    a'8  \tuplet 3/2 {   c''8    b'8    a'8  }   e''8    
a'8  \tuplet 3/2 {   c''8    b'8    a'8  } \bar "|"   d''4. ^"~"    b'8    g'8   
 b'8    b'4 ^"~"  \bar "|"   e''8    a'8  \tuplet 3/2 {   c''8    b'8    a'8  }  
 e''4. ^"~"    a''8  \bar "|"   g''8    e''8    d''8    b'8    b'8    a'8    
a'4 ^"~"  \bar "|"   e''8    a'8  \tuplet 3/2 {   c''8    b'8    a'8  }   e''8   
 a'8  \tuplet 3/2 {   c''8    b'8    a'8  } \bar "|"   d''8    e''8    d''8    
b'8    g'8    a'8    b'8    d''8  \bar "|"   c''8    b'8    a'8    b'8    c''8  
  d''8    e''8    a''8  \bar "|"   g''8    e''8    d''8    b'8    b'8    a'8    
a'4 ^"~"  }   \repeat volta 2 {   a''8    e''8    c''8    e''8    a''8    e''8  
  c''8    e''8  \bar "|"   g''8    d''8    b'8    d''8    g''8    d''8    b'8   
 d''8  \bar "|"   a''8    e''8    c''8    e''8    a''4. ^"~"    fis''8  
\bar "|"   g''8    e''8    d''8    b'8    b'8    a'8    a'4 ^"~"  \bar "|"   
a''8    g''8    e''8    fis''8    g''4. ^"~"    e''8  \bar "|"   d''8    e''8   
 d''8    b'8    g'8    a'8    b'8    d''8  \bar "|"   c''8    b'8    a'8    b'8 
   c''8    d''8    e''8    a''8  \bar "|"   g''8    e''8    d''8    b'8    b'8  
  a'8    a'4 ^"~"  }   
}

\score{
    <<

	\context Staff="default"
	{
	    \voicedefault 
	}

    >>
	\layout {
	}
	\midi {}
}
