\version "2.19.49"
% clairnote-type = sn
\include "clairnote.ly"
\header {
	transcription = "ceolachan"
	crossRefNumber = "1"
	footnotes = ""
	meter = "Reel"
	source = "https://thesession.org/tunes/767#setting13882"
	arranger = "Setting 4"
	tagline = \markup { \vspace #1.8 \sans \abs-fontsize #7.5 \wordwrap {Sheet music in \with-url \clairnoteTypeUrl { \clairnoteTypeName music notation} published by Paul Morris using \with-url #"http://www.lilypond.org" {LilyPond.} Automatically converted to LilyPond format from an ABC source file from \with-url #"https://thesession.org" {the Session} website: \with-url #"https://thesession.org/tunes/767#setting13882" {"https://thesession.org/tunes/767#setting13882"}}}
	title = "Farewell To Chernobyl"
}
voicedefault =  {
\set Score.defaultBarType = ""

\repeat volta 2 {
\time 4/4 \key d \minor   d'4    d'8.    f'16    a'8.    d'16    f'8.    a'16   
 \bar "|"   d'8.    f'16    a'8.    f'16    g'8.    f'16    e'8.    c'16    
\bar "|"   a4    a8.    c'16    e'8.    a16    c'8.    e'16    \bar "|"   a8.   
 c'16    e'8.    g'16    a'8.    c''16    g'8.    f'16    \bar "|"   d'4    
\tuplet 3/2 {   f'8    e'8    d'8  }   a'8    d'8    f'8    a'8    \bar "|"   
d'4    a'8.    d'16    \tuplet 3/2 {   e'8    f'8    g'8  }   a'8.    b'16    
\bar "|"   c''4    g'8.    c''16    e'8.    c''16    g'8.    c''16    \bar "|"  
 f''8.    e''16    d''8.    cis''16    d''4    }   d''4    f''8.    d''16    
g''8.    d''16    f''8.    d''16    \bar "|"   \tuplet 3/2 {   d''8    d''8    
d''8  }   f''8.    d''16    g''8.    f''16    e''8.    f''16    \bar "|"   d''4 
   f''8.    d''16    g''8.    d''16    f''8.    d''16    \bar "|"   e''4    
a'8.    c''16    a''8.    c''16    \tuplet 3/2 {   g''8    f''8    e''8  }   
\bar "|"   d''4    f''8.    d''16    g''8.    d''16    f''8.    d''16    
\bar "|"   d''4    f''8.    d''16    g''8.    f''16    e''8.    g''16    
\bar "|"   e''8.    a''16    a''8.    gis''16    a''4    a''8.    f''16    
\bar "|"   e''4    e''8.    f''16    e''8.    d''16    cis''8.    a'16    
\bar "|"   d''4    \tuplet 3/2 {   f''8    e''8    d''8  }   g''8.    d''16    
\tuplet 3/2 {   f''8    e''8    d''8  }   \bar "|"   d''4    f''8.    d''16    
g''8.    f''16    e''8.    c''16    \bar "|"   d''4    \tuplet 3/2 {   f''8    
e''8    d''8  }   g''4    f''8.    c''16    \bar "|"   a''8.    c''16    g''8.  
  c''16    f''8.    c''16    e''8.    c''16    \bar "|"   d''4    f''8.    
d''16    a'8.    d''16    f''8.    d''16    \bar "|"   \tuplet 3/2 {   bes'8    
bes'8    bes'8  }   f''8.    d''16    bes'8.    d''16    f''8.    d''16    
\bar "|"   c''4    g''8.    e''16    c''8.    e''16    g''8.    c''16    
\bar "|"   a''8.    c''16    g''8.    c''16    f''8.    c''16    \bar "||"   
}

\score{
    <<

	\context Staff="default"
	{
	    \voicedefault 
	}

    >>
	\layout {
	}
	\midi {}
}
