\version "2.19.49"
% clairnote-type = sn
\include "clairnote.ly"
\header {
	transcription = "fidicen"
	crossRefNumber = "1"
	footnotes = ""
	meter = "Reel"
	source = "https://thesession.org/tunes/1115#setting1115"
	arranger = "Setting 1"
	tagline = \markup { \vspace #1.8 \sans \abs-fontsize #7.5 \wordwrap {Sheet music in \with-url \clairnoteTypeUrl { \clairnoteTypeName music notation} published by Paul Morris using \with-url #"http://www.lilypond.org" {LilyPond.} Automatically converted to LilyPond format from an ABC source file from \with-url #"https://thesession.org" {the Session} website: \with-url #"https://thesession.org/tunes/1115#setting1115" {"https://thesession.org/tunes/1115#setting1115"}}}
	title = "Father Kelly's"
}
voicedefault =  {
\set Score.defaultBarType = ""

\repeat volta 2 {
\time 4/4 \key a \major   a'8    cis''8    b'8    cis''8    a'8    fis'8    e'8 
   fis'8  \bar "|"   a'8    cis''8    e''8    a''8    fis''4    fis''8    
gis''8  \bar "|"   a''8    gis''8    fis''8    e''8    fis''8    e''8    cis''8 
   a'8  \bar "|"   b'8    cis''8    b'8    a'8    fis'4    e'4  \bar "|"     
a'8    cis''8    b'8    cis''8    a'8    fis'8    e'8    fis'8  \bar "|"   a'8  
  cis''8    e''8    a''8    fis''4    \tuplet 3/2 {   e''8    fis''8    gis''8  
} \bar "|"   a''8    gis''8    fis''8    e''8    fis''8    e''8    cis''8    
a'8  \bar "|"   b'4    a'4    a'2  }     \repeat volta 2 {   e''8    a''8    
gis''8    a''8    fis''8    e''8    cis''8    e''8  \bar "|"   e''8    a''8    
gis''8    a''8    fis''4    fis''8    gis''8  \bar "|"   a''8    gis''8    
fis''8    e''8    fis''8    e''8    cis''8    a'8  \bar "|"   b'8    cis''8    
b'8    a'8    fis'4    e'4  \bar "|"     a'8    cis''8    b'8    cis''8    a'8  
  fis'8    e'8    fis'8  \bar "|"   a'8    cis''8    e''8    a''8    fis''4    
\tuplet 3/2 {   e''8    fis''8    gis''8  } \bar "|"   a''8    gis''8    fis''8  
  e''8    fis''8    e''8    cis''8    a'8  \bar "|"   b'4    a'4    a'4    
cis''4  }   
}

\score{
    <<

	\context Staff="default"
	{
	    \voicedefault 
	}

    >>
	\layout {
	}
	\midi {}
}
