\version "2.19.49"
% clairnote-type = sn
\include "clairnote.ly"
\header {
	transcription = "Imnotirish"
	crossRefNumber = "1"
	footnotes = ""
	meter = "Reel"
	source = "https://thesession.org/tunes/220#setting220"
	arranger = "Setting 1"
	tagline = \markup { \vspace #1.8 \sans \abs-fontsize #7.5 \wordwrap {Sheet music in \with-url \clairnoteTypeUrl { \clairnoteTypeName music notation} published by Paul Morris using \with-url #"http://www.lilypond.org" {LilyPond.} Automatically converted to LilyPond format from an ABC source file from \with-url #"https://thesession.org" {the Session} website: \with-url #"https://thesession.org/tunes/220#setting220" {"https://thesession.org/tunes/220#setting220"}}}
	title = "Fifth Year, The"
}
voicedefault =  {
\set Score.defaultBarType = ""

\time 4/4 \key d \minor   d'4    d''8    c''8    d''4    a'8    bes'8  \bar "|" 
  c''4.    d''8    c''8    bes'8    a'8    g'8  \bar "|"   d'4    d''8    c''8  
  d''4    a'8    bes'8  \bar "|"     c''8    bes'8    a'8    bes'8    c''8    
bes'8    a'8    g'8  \bar ":|."   d'8    e'8    f'8    g'8    a'8    d''8    
d''8    c''8  \bar "|"   a'8    d''8    d''8    cis''8    d''2  \bar "||"     
d'8    e'8    f'8    g'8    a'8    d''4    cis''8  \bar "|"   a'8    c''4    
bes'8    g'4.    a'8  \bar "|"   d'8    e'8    f'8    g'8    a'8    d''8    
d''8    e''8  \bar "|"     f''8    e''8    d''8    e''8    f''8    e''8    d''4 
 \bar ":|."   fis'8    a'8    d''8    cis''8    fis'!8    a'8    cis''8    
bes'8  \bar "|"   fis'8    a'8    d''8    cis''8    d''2  \bar "||"   
}

\score{
    <<

	\context Staff="default"
	{
	    \voicedefault 
	}

    >>
	\layout {
	}
	\midi {}
}
