\version "2.19.49"
% clairnote-type = sn
\include "clairnote.ly"
\header {
	transcription = "ceolachan"
	crossRefNumber = "1"
	footnotes = ""
	meter = "Hornpipe"
	source = "https://thesession.org/tunes/872#setting14048"
	arranger = "Setting 9"
	tagline = \markup { \vspace #1.8 \sans \abs-fontsize #7.5 \wordwrap {Sheet music in \with-url \clairnoteTypeUrl { \clairnoteTypeName music notation} published by Paul Morris using \with-url #"http://www.lilypond.org" {LilyPond.} Automatically converted to LilyPond format from an ABC source file from \with-url #"https://thesession.org" {the Session} website: \with-url #"https://thesession.org/tunes/872#setting14048" {"https://thesession.org/tunes/872#setting14048"}}}
	title = "Fisher's"
}
voicedefault =  {
\set Score.defaultBarType = ""

\time 4/4 \key d \major   \repeat volta 2 {   \tuplet 3/2 {   a'8    b'8    
cis''8  }   \bar "|"   d''8 ^"D"   a'8    fis'8    d'8      g'8 ^"G"   b'8    
a'8    g'8    \bar "|"     fis'8 ^"D"   d'8    fis'8    d'8      g'8 ^"G"   b'8 
   a'8    g'8    \bar "|"     fis'8 ^"D"   d'8    fis'8    d'8      g'8 ^"G"   
b'8    a'8    g'8    \bar "|"     fis'8 ^"D"   d'8    fis'8    d'8      e'4 
^"A"   \tuplet 3/2 {   a'8    b'8    cis''8  }   \bar "|"       d''8 ^"D"   a'8  
  fis'8    d'8      g'8 ^"G"   b'8    a'8    g'8    \bar "|"     fis'8 ^"D"   
d'8    fis'8    d'8      g'8 ^"G"   b'8    a'8    g'8    \bar "|"     fis'8 
^"D"   g'8    a'8    b'8    cis''8    d''8    e''8    cis''8    \bar "|"   d''4 
   d''16    e''16    d''16    cis''16    d''4    }     \repeat volta 2 {   
cis''8    d''8    \bar "|"   e''8 ^"A"   cis''8    a'8    cis''8    e''8    
fis''8    g''8    e''8    \bar "|"     fis''8 ^"D"   d''8    a'8    d''8    
fis''8    g''8    a''8    fis''8    \bar "|"     e''8 ^"A"   cis''8    a'8    
cis''8    e''8    fis''8    g''8    fis''8    \bar "|"   e''8    d''8    cis''8 
   b'8    a'4    a'4    \bar "|"     b'8 ^"D"   g'8    d'8    g'8    b'8    
d''8    cis''8    b'8    \bar "|"       a'8 ^"G"   fis'8    d'8    fis'8    a'4 
   g'8    a'8    \bar "|"     b'8 ^"D"   d''8    cis''8    b'8      a'8 ^"A"   
g'8    fis'8    e'8    \bar "|"     d'4 ^"D"   d''4    d'4    }   
}

\score{
    <<

	\context Staff="default"
	{
	    \voicedefault 
	}

    >>
	\layout {
	}
	\midi {}
}
