\version "2.19.49"
% clairnote-type = sn
\include "clairnote.ly"
\header {
	transcription = "ceolachan"
	crossRefNumber = "1"
	footnotes = ""
	meter = "Barndance"
	source = "https://thesession.org/tunes/252#setting12980"
	arranger = "Setting 7"
	tagline = \markup { \vspace #1.8 \sans \abs-fontsize #7.5 \wordwrap {Sheet music in \with-url \clairnoteTypeUrl { \clairnoteTypeName music notation} published by Paul Morris using \with-url #"http://www.lilypond.org" {LilyPond.} Automatically converted to LilyPond format from an ABC source file from \with-url #"https://thesession.org" {the Session} website: \with-url #"https://thesession.org/tunes/252#setting12980" {"https://thesession.org/tunes/252#setting12980"}}}
	title = "Follow Me Down To Milltown"
}
voicedefault =  {
\set Score.defaultBarType = ""

\time 4/4 \key d \major   a'8.    r16   fis'8.    r16   a'8.    r16 
\tuplet 3/2 {   fis'8    g'8    a'8  }   \bar "|"   b'8.    r16   g'8.    r16   
b'8.    r16 \tuplet 3/2 {   d''8    cis''8    b'8  }   \bar "|"   \tuplet 3/2 {   
a'8    b'8    a'8  }   fis'8.    d'16    a'4    \tuplet 3/2 {   fis'8    e'8    
d'8  }   \bar "|"   e'4    fis'4    g'4    \tuplet 3/2 {   b'8    a'8    g'8  }  
 \bar "|"     a'4   ~    a'8.    gis'16    a'8.    d'16    fis'8.    a'16    
\bar "|"   b'4   ~    b'8.    ais'16    \tuplet 3/2 {   b'8    cis''8    d''8  } 
  cis''8.    b'16    \bar "|"   a'4    \tuplet 3/2 {   d''8    cis''8    b'8  }  
 a'4    \tuplet 3/2 {   g'8    fis'8    e'8  }   \bar "|"   d'4    a'16    g'16  
  fis'16    e'16    d'2    \bar "||"     a'8.    d''16    fis''8.    d''16    
a'4    fis''8.    d''16    \bar "|"   a'8.    cis''16    e''8.    cis''16    
a'4    e''8.    cis''16    \bar "|"   a'4    fis''8.    d''16    a'8.    d''16  
  \tuplet 3/2 {   fis''8    e''8    d''8  }   \bar "|"   e''4   ~    e''8.    
cis''16    d''4   ~    d''8.    b'16    \bar "|"     a'8.    d''16    fis''4    
a''8.    d''16    fis''4    \bar "|"   a'8.    cis''16    e''4    g''8.    
cis''16    e''4    \bar "|"   d''8.    r16   cis''4    a'4    g'8.    e'16    
\bar "|"   d'8.    r16   cis'4    d'2    \bar "|."   
}

\score{
    <<

	\context Staff="default"
	{
	    \voicedefault 
	}

    >>
	\layout {
	}
	\midi {}
}
