\version "2.19.49"
% clairnote-type = sn
\include "clairnote.ly"
\header {
	transcription = "Fiddlemaus"
	crossRefNumber = "1"
	footnotes = ""
	meter = "Reel"
	source = "https://thesession.org/tunes/341#setting26589"
	arranger = "Setting 7"
	tagline = \markup { \vspace #1.8 \sans \abs-fontsize #7.5 \wordwrap {Sheet music in \with-url \clairnoteTypeUrl { \clairnoteTypeName music notation} published by Paul Morris using \with-url #"http://www.lilypond.org" {LilyPond.} Automatically converted to LilyPond format from an ABC source file from \with-url #"https://thesession.org" {the Session} website: \with-url #"https://thesession.org/tunes/341#setting26589" {"https://thesession.org/tunes/341#setting26589"}}}
	title = "Fox On The Town, The"
}
voicedefault =  {
\set Score.defaultBarType = ""

\repeat volta 2 {
\time 4/4 \key g \major   g'8    e'8    d'8    g'8    e'8    d'8    b8    a8  
\bar "|"   g4    b8    g8    d'8    g8    b8    d'8  \bar "|"   g'8    e'8    
d'8    g'8    e'4.    fis'8  \bar "|"   g'4    fis'8    g'8    e'8    fis'8    
g'8    a'8  \bar "|"     b'8    e'8    \tuplet 3/2 {   e'8    e'8    e'8  }   
e'8    d'8    b8    a8  \bar "|"   g4    b8    g8    d'8    g8    b8    d'8  
\bar "|"   e'8    fis'8    g'8    b'8    a'8    g'8    e'8    d'8  \bar "|"   
d'8    g'8    g'8    fis'8    g'4    e'8    fis'8  }     \repeat volta 2 {   
b'8    e'8    \tuplet 3/2 {   e'8    e'8    e'8  }   b'8    a'8    g'8    e'8  
\bar "|"   d'8    b8    \tuplet 3/2 {   b8    b8    b8  }   d'8    e'8    g'8    
a'8  \bar "|"   b'8    e'8    \tuplet 3/2 {   e'8    e'8    e'8  }   b'8    a'8  
  g'8    e'8  \bar "|"   d'8    e'8    g'8    b'8    a'8    b'8    a'4  
\bar "|"     g'4    g'8    e'8    d'8    e'8    d'8    b8  \bar "|"   g8    b8  
  d'8    g'8    e'8    d'8    b8    e'8  \bar "|"   d'8    e'8    g'8    a'8    
b'8    g'8    a'8    fis'8  \bar "|"   g'8    e'8    d'8    b8    g4    g'8    
a'8  }   
}

\score{
    <<

	\context Staff="default"
	{
	    \voicedefault 
	}

    >>
	\layout {
	}
	\midi {}
}
