\version "2.19.49"
% clairnote-type = sn
\include "clairnote.ly"
\header {
	transcription = "brotherstorm"
	crossRefNumber = "1"
	footnotes = ""
	meter = "Jig"
	source = "https://thesession.org/tunes/992#setting14198"
	arranger = "Setting 3"
	tagline = \markup { \vspace #1.8 \sans \abs-fontsize #7.5 \wordwrap {Sheet music in \with-url \clairnoteTypeUrl { \clairnoteTypeName music notation} published by Paul Morris using \with-url #"http://www.lilypond.org" {LilyPond.} Automatically converted to LilyPond format from an ABC source file from \with-url #"https://thesession.org" {the Session} website: \with-url #"https://thesession.org/tunes/992#setting14198" {"https://thesession.org/tunes/992#setting14198"}}}
	title = "Fraher's"
}
voicedefault =  {
\set Score.defaultBarType = ""

\time 6/8 \key d \mixolydian   \bar "|"   a'4.    g'8    e'8    a'8  \bar "|"   
d'8    e'8    d'8    g'4. ^"~"  \bar "|"   a'8    e'8    a'8    g'8    e'8    
a'8  \bar "|"   d'4. ^"~"    d'8    e'16    fis'16    g'8  \bar "|"   a'4    
a'8    g'8    e'8    a'8  \bar "|"   d'8    a'8    fis'8    g'8    a'8    b'8  
\bar "|"   a'4    a'8    g'8    e'8    a'8  \bar "|"   d'4. ^"~"    d'4.  
\bar "|"   a'8    e'8    a'8    g'8    e'8    a'8  \bar "|"   d'8    e'8    d'8 
   g'4. ^"~"  \bar "|"   a'8    e'8    a'8    g'8    e'8    a'8  \bar "|"   
d'4. ^"~"    d'8    e'16    fis'16    g'8  \bar "|"   a'4    a'8    g'8    e'8  
  a'8  \bar "|"   d'8    a'8    fis'8    g'8    a'8    b'8  \bar "|"   a'8    
e'8    a'8    g'8    e'8    a'8  \bar "|"   d'4. ^"~"    d'4.  \bar "|"   
\tuplet 3/2 {   a'8    b'8    c''8  }   a'8    d''4    a'8  \bar "|"   d''8    
c''8    a'8    a'8    g'8    e'8  \bar "|"   g'8    a'8    b'8    c''4    a'8  
\bar "|"   b'8    g'8    e'8    e'8    d'8    d'8  \bar "|"   d''8    d''8    
a'8    d''4    fis''8  \bar "|"   d''8    c''8    a'8    a'8    g'8    e'8  
\bar "|"   a'4. ^"~"    g'8    e'8    a'8  \bar "|"   d'4. ^"~"    d'4.  
\bar "|"   \tuplet 3/2 {   a'8    b'8    c''8  }   a'8    d''8    c''8    a'8  
\bar "|"   d''8    c''8    a'8    a'8    g'8    e'8  \bar "|"   g'8    a'8    
b'8    c''4    b'8  \bar "|"   b'8    g'8    e'8    e'8    d'8    d'8  \bar "|" 
  d''8    d''8    a'8    fis''16    fis''8.    e''8  \bar "|"   d''4    a'8    
a'8    g'8    e'8  \bar "|"   a'8    e'8    a'8    g'8    e'8    a'8  \bar "|"  
 d'4. ^"~"    d'4.  \bar "||"   \bar "|"   a'8    e'8    a'8    g'8    e'8    
a'8  \bar "|"   d'4    d'8    g'8    d'8    d'8  \bar "|"   a'8    d'8    d'8   
 g'8    e'8    a'8  \bar "|"   d'4. ^"~"    d'8    e'16    fis'16    g'8  
\bar "|"   a'4    a'8    g'8    e'8    a'8  \bar "|"   d'8    a'8    fis'8    
g'8    a'8    b'8  \bar "|"   c''4    a'8    g'8    e'8    a'8  \bar "|"   d'4. 
^"~"    d'4.  \bar "|"   a'8    e'8    a'8    g'8    e'8    a'8  \bar "|"   d'8 
   a'8    d'8    g'4. ^"~"  \bar "|"   a'4    a'8    g'8    e'8    a'8  
\bar "|"   d'4. ^"~"    d'8    e'16    fis'16    g'8  \bar "|"   a'4    a'8    
g'8    e'8    a'8  \bar "|"   d'4. ^"~"    g'4. ^"~"  \bar "|"   a'8    e'8    
a'8    g'8    e'8    a'8  \bar "|"   d'4. ^"~"    d'4.  \bar "|"   \tuplet 3/2 { 
  a'8    b'8    c''8  }   a'8    d''8    c''8    a'8  \bar "|"   d''4    c''8   
 a'8    g'8    e'8  \bar "|"   g'8    a'8    b'8    c''4    r16   b'16   ~    
\bar "|"   b'8    g'8    e'8    e'8    d'8    d'8  \bar "|"   d''8    a'8    
a'8    d''4    fis''8  \bar "|"   d''8    c''8    a'8    a'8    g'8    e'8  
\bar "|"   a'4. ^"~"    g'8    e'8    a'8  \bar "|"   d'4. ^"~"    d'4.  
\bar "|"   \tuplet 3/2 {   a'8    b'8    c''8  }   a'8    d''8    c''8    a'8  
\bar "|"   d''4    c''8    a'8    g'8    e'8  \bar "|"   g'8    a'8    b'8    
c''8    b'8    a'8  \bar "|"   b'8    g'8    e'8    e'8    d'8    d'8  \bar "|" 
  d''8    d''8    a'8    f''4    e''8  \bar "|"   d''4    a'8    a'8    g'8    
e'8  \bar "|"   a'4    a'8    g'8    e'8    a'8  \bar "|"   d'8    fis'8    a'8 
   d''4.  \bar "|."   
}

\score{
    <<

	\context Staff="default"
	{
	    \voicedefault 
	}

    >>
	\layout {
	}
	\midi {}
}
