\version "2.19.49"
% clairnote-type = sn
\include "clairnote.ly"
\header {
	transcription = "RickR"
	crossRefNumber = "1"
	footnotes = ""
	meter = "Reel"
	source = "https://thesession.org/tunes/613#setting13627"
	arranger = "Setting 3"
	tagline = \markup { \vspace #1.8 \sans \abs-fontsize #7.5 \wordwrap {Sheet music in \with-url \clairnoteTypeUrl { \clairnoteTypeName music notation} published by Paul Morris using \with-url #"http://www.lilypond.org" {LilyPond.} Automatically converted to LilyPond format from an ABC source file from \with-url #"https://thesession.org" {the Session} website: \with-url #"https://thesession.org/tunes/613#setting13627" {"https://thesession.org/tunes/613#setting13627"}}}
	title = "Galway, The"
}
voicedefault =  {
\set Score.defaultBarType = ""

\time 4/4 \key g \major   b'8  \bar "|"   a'8    g'8    e'8    g'8    d'8    
g'8    b'8    d'8  \bar "|"   b'8    a'8    g'8    a'8    b'8    e''8    d''8   
 b'8  \bar "|"   a'8    g'8    e'8    d'8    b'8    d'8    a'8    d'8  \bar "|" 
  \bar "|"   g'8    e'4 ^"~"    b'8    g'8    e'8    e'8    d'8  \bar "|"   e'4 
   d'8    e'8    g'8    e'8    d'8    e'8  \bar "|"   d'4    g'8    e'8    d'8  
  g'8    g'8    d'8  \bar "|"   \bar "|"   e'4. ^"~"    g'8    d'8    e'8    
g'8    a'8  \bar "|"   b'8    d''8    a'8    b'8    g'4.  \bar ":|."   b'8    
d''8    a'8    b'8    g'4.    b'8  \bar "||"   \bar ".|:"   d''8    g'4. ^"~"    
e'8    g'8    d'8    g'8  \bar "|"   e'8    g'8    g'8    d'8    g'8    b'8    
d''8    fis''8  \bar "|"   e''8    c''4. ^"~"    a'8    c''8    g'8    e'8  
\bar "|"   \bar "|"   d'8    fis'8    a'8    d''8  \grace {    a''8  }   fis''8 
   e''8    d''8    c''8  \bar "|"   b'8    g'8  \tuplet 3/2 {   g'8    g'8    
g'8  }   e'8    g'8    d'8    g'8  \bar "|"   e'8    g'8    g'8    d'8    g'8   
 b'8    d''8    fis''8  \bar "|"   \bar "|"   e''8    c''4. ^"~"    e''8    
fis''8  \grace {    b''8  }   g''8    e''8  \bar "|"   d''8    b'8    a'8    
b'8    g'4.    b'8  \bar ":|."   d''8    b'8    a'8    b'8    g'4.  \bar "||"   
}

\score{
    <<

	\context Staff="default"
	{
	    \voicedefault 
	}

    >>
	\layout {
	}
	\midi {}
}
