\version "2.19.49"
% clairnote-type = sn
\include "clairnote.ly"
\header {
	transcription = "Zina Lee"
	crossRefNumber = "1"
	footnotes = ""
	meter = "Jig"
	source = "https://thesession.org/tunes/544#setting544"
	arranger = "Setting 1"
	tagline = \markup { \vspace #1.8 \sans \abs-fontsize #7.5 \wordwrap {Sheet music in \with-url \clairnoteTypeUrl { \clairnoteTypeName music notation} published by Paul Morris using \with-url #"http://www.lilypond.org" {LilyPond.} Automatically converted to LilyPond format from an ABC source file from \with-url #"https://thesession.org" {the Session} website: \with-url #"https://thesession.org/tunes/544#setting544" {"https://thesession.org/tunes/544#setting544"}}}
	title = "Garrett Barry's"
}
voicedefault =  {
\set Score.defaultBarType = ""

\time 6/8 \key g \major   a'8  \repeat volta 2 {   d'8    e'8    fis'8    g'4. 
^"~"  \bar "|"   a'8    g'8    e'8    c''4    a'8  \bar "|"   d''8    c''8    
a'8    d''4    e''8  \bar "|"   fis''8    e''8    d''8    c''8    a'8    g'8  
\bar "|"     fis'4. ^"~"    g'8    fis'8    g'8  \bar "|"   a'8    g'8    e'8   
 \tuplet 3/2 {   b'8    c''8    d''8  }   e''8  \bar "|"   d''8    c''8    a'8   
 g'8    e'8    a'8  \bar "|"   d'8    e'8    d'8    d'4    a'8  }     
\repeat volta 2 {   d''8    c''8    a'8    d''4    e''8  \bar "|"   fis''8    
e''8    d''8    \tuplet 3/2 {   e''8    fis''8    g''8  }   e''8  \bar "|"   
d''8    c''8    a'8    c''4    d''8  \bar "|"   e''8    fis''8    d''8    e''8  
  c''8    a'8  \bar "|"     d''8    a'8    a'8    d''4    e''8  \bar "|"   
fis''8    e''8    d''8    \tuplet 3/2 {   e''8    fis''8    g''8  }   e''8  
\bar "|"   d''8    c''8    a'8    g'8    e'8    a'8  \bar "|"   d'8    e'8    
d'8    d'4    a'8  }   
}

\score{
    <<

	\context Staff="default"
	{
	    \voicedefault 
	}

    >>
	\layout {
	}
	\midi {}
}
