\version "2.19.49"
% clairnote-type = sn
\include "clairnote.ly"
\header {
	transcription = "ceolachan"
	crossRefNumber = "1"
	footnotes = ""
	meter = "Jig"
	source = "https://thesession.org/tunes/1214#setting14510"
	arranger = "Setting 3"
	tagline = \markup { \vspace #1.8 \sans \abs-fontsize #7.5 \wordwrap {Sheet music in \with-url \clairnoteTypeUrl { \clairnoteTypeName music notation} published by Paul Morris using \with-url #"http://www.lilypond.org" {LilyPond.} Automatically converted to LilyPond format from an ABC source file from \with-url #"https://thesession.org" {the Session} website: \with-url #"https://thesession.org/tunes/1214#setting14510" {"https://thesession.org/tunes/1214#setting14510"}}}
	title = "Girl Of The House, The"
}
voicedefault =  {
\set Score.defaultBarType = ""

\time 6/8 \key d \major   \repeat volta 2 {   a'8    \bar "|"   d'8    e'8    
fis'8    g'4. ^"~"    \bar "|"   a'8    g'8    e'8    cis''4    a'8    \bar "|" 
  d''8    cis''8    a'8    d''4    e''8    \bar "|"   fis''8    e''8    d''8    
cis''8    a'8    g'8    \bar "|"     fis'4. ^"~"    g'8    fis'8    g'8    
\bar "|"   a'8    g'8    e'8    b'16    cis''16    d''8    e''8    \bar "|"   
d''8    cis''8    a'8    g'8    e'8    a'8    \bar "|"   d'8    e'8    d'8    
d'4    }     \repeat volta 2 {   a'8    \bar "|"   d''8    cis''8    a'8    
d''4    e''8    \bar "|"   fis''8    e''8    d''8    e''16    fis''16    g''8   
 e''8    \bar "|"   d''8    cis''8    a'8    cis''4    d''8    \bar "|"   e''8  
  fis''8    d''8    e''8    cis''8    a'8    \bar "|"     d''8    a'8    a'8    
d''4    e''8    \bar "|"   fis''8    e''8    d''8    e''16    fis''16    g''8   
 e''8    \bar "|"   d''8    cis''8    a'8    g'8    e'8    a'8    \bar "|"   
d'8    e'8    d'8    d'4    a'8    }   
}

\score{
    <<

	\context Staff="default"
	{
	    \voicedefault 
	}

    >>
	\layout {
	}
	\midi {}
}
