\version "2.19.49"
% clairnote-type = sn
\include "clairnote.ly"
\header {
	transcription = "CreadurMawnOrganig"
	crossRefNumber = "1"
	footnotes = ""
	meter = "Mazurka"
	source = "https://thesession.org/tunes/1332#setting14675"
	arranger = "Setting 8"
	tagline = \markup { \vspace #1.8 \sans \abs-fontsize #7.5 \wordwrap {Sheet music in \with-url \clairnoteTypeUrl { \clairnoteTypeName music notation} published by Paul Morris using \with-url #"http://www.lilypond.org" {LilyPond.} Automatically converted to LilyPond format from an ABC source file from \with-url #"https://thesession.org" {the Session} website: \with-url #"https://thesession.org/tunes/1332#setting14675" {"https://thesession.org/tunes/1332#setting14675"}}}
	title = "Glenties, The"
}
voicedefault =  {
\set Score.defaultBarType = ""

\time 3/4 \key d \major   d''8    e''8  \repeat volta 2 {   fis''4    fis''8    
e''8    d''8    b'8  \bar "|"   a'16    fis'8.    a'4    fis'8    a'8  \bar "|" 
  b'16    g'8.    b'4    b'8    g'8  \bar "|"   a'16    fis'8.    a'4    d''8   
 e''8  \bar "|"   fis''4    fis''8    e''8    d''8    b'8  \bar "|"   a'16    
fis'8.    a'4    fis'8    a'8  \bar "|"   b'4    cis''4    a'4  \bar "|"   d''2 
   d''8    e''8  }   
}

\score{
    <<

	\context Staff="default"
	{
	    \voicedefault 
	}

    >>
	\layout {
	}
	\midi {}
}
