\version "2.19.49"
% clairnote-type = sn
\include "clairnote.ly"
\header {
	transcription = "Tate"
	crossRefNumber = "1"
	footnotes = ""
	meter = "Reel"
	source = "https://thesession.org/tunes/42#setting20812"
	arranger = "Setting 3"
	tagline = \markup { \vspace #1.8 \sans \abs-fontsize #7.5 \wordwrap {Sheet music in \with-url \clairnoteTypeUrl { \clairnoteTypeName music notation} published by Paul Morris using \with-url #"http://www.lilypond.org" {LilyPond.} Automatically converted to LilyPond format from an ABC source file from \with-url #"https://thesession.org" {the Session} website: \with-url #"https://thesession.org/tunes/42#setting20812" {"https://thesession.org/tunes/42#setting20812"}}}
	title = "Gravel Walks, The"
}
voicedefault =  {
\set Score.defaultBarType = ""

\time 4/4 \key a \dorian   \repeat volta 2 {   a'4    e''8    a'8    cis''16    
b'16    a'8    e''8    a'8  \bar "|"   a'4    e''8    a'8    b'8    a'8    g'8  
  b'8  \bar "|"   a'4    e''8    a'8    b'16    cis''16    d''8    e''8    
fis''8  \bar "|"   g''8    e''8    d''8    c''8    b'8    a'8    g'8    b'8  }  
   a'4    a''8    a'8    g''8    a'8    fis''8    a'8  \bar "|"   a'16    a'16  
  a'8    e''8    a'8    b'8    a'8    g'8    b'8  \bar "|"   a'16    a'16    
a'8    a''8    a'8    g''8    a'8    fis''8    a'8  \bar "|"   g''8    e''8    
d''8    c''8    b'8    a'8    g'8    b'8  \bar "|"     a'4    a''8    a'8    
g''8    a'8    fis''8    a'8  \bar "|"   a'16    a'16    a'8    e''8    a'8    
b'8    a'8    g'8    b'8  \bar "|"   a'8    b'8    c''8    d''8    e''8    
fis''8    g''8    a''8  \bar "|"   g''8    e''8    d''8    c''8    b'8    a'8   
 g'8    b'8  \bar "||"     \repeat volta 2 {   c''16    b'16    a'8    b'8    
g'8    a'4    a'8    b'8  \bar "|"   c''8    a'8    a'8    d''8    b'8    a'8   
 g'8    b'8  \bar "|"   c''16    b'16    a'8    b'8    g'8    a'8    b'8    
c''8    d''8  \bar "|"   e''8    fis''8    g''8    e''8    d''8    b'8    g'8   
 b'8  }     \repeat volta 2 {   c''4    g''8    c''8    a''8    c''8    g''8    
c''8  \bar "|"   c''16    c''16    c''8    g''8    c''8    b'8    a'8    g'8    
b'8  \bar "|"   c''4    g''8    c''8    a''8    c''8    g''8    a''8  \bar "|"  
 g''8    e''8    d''8    c''8    b'8    a'8    g'8    b'8  \bar "|"     c''4    
g''8    c''8    a''8    c''8    g''8    c''8  \bar "|"   c''16    c''16    c''8 
   g''8    c''8    b'8    a'8    g'8    b'8  \bar "|"   a'8    b'8    c''8    
d''8    e''8    fis''8    g''8    a''8  \bar "|"   g''8    e''8    d''8    c''8 
   b'8    a'8    g'8    b'8  \bar "|."   }
}

\score{
    <<

	\context Staff="default"
	{
	    \voicedefault 
	}

    >>
	\layout {
	}
	\midi {}
}
