\version "2.19.49"
% clairnote-type = sn
\include "clairnote.ly"
\header {
	transcription = "Dr. Dow"
	crossRefNumber = "1"
	footnotes = ""
	meter = "Reel"
	source = "https://thesession.org/tunes/671#setting13717"
	arranger = "Setting 3"
	tagline = \markup { \vspace #1.8 \sans \abs-fontsize #7.5 \wordwrap {Sheet music in \with-url \clairnoteTypeUrl { \clairnoteTypeName music notation} published by Paul Morris using \with-url #"http://www.lilypond.org" {LilyPond.} Automatically converted to LilyPond format from an ABC source file from \with-url #"https://thesession.org" {the Session} website: \with-url #"https://thesession.org/tunes/671#setting13717" {"https://thesession.org/tunes/671#setting13717"}}}
	title = "Green Fields Of Glentown, The"
}
voicedefault =  {
\set Score.defaultBarType = ""

\repeat volta 2 {
\time 4/4 \key a \dorian   d'8  \bar "|"   e'8    a8    a4 ^"~"    e'4 ^"~"    
d'8    b8  \bar "|"   g8    b8    b4 ^"~"    g8    a8    b8    d'8  \bar "|"   
e'8    a8    a4 ^"~"    e'4 ^"~"    d'8    e'8  \bar "|"   g'8    b'8    e''8   
 b'8    d''8    b'8    a'8    b'8  \bar "|"   e''8    b'8    b'4 ^"~"    e''8   
 b'8    d''8    b'8  \bar "|"   a'8    e'8    e'4 ^"~"    d'8    g8    b8    g8 
 \bar "|"   a8    e'8    e'4 ^"~"    e'4 ^"~"    d'8    e'8  \bar "|"   g'8    
e'8    d'8    b8    b8    a8    a8  }   \repeat volta 2 {   d'8  \bar "|"   a'4 
^"~"    e'8    a'8    c''8    a'8    fis'8    a'8  \bar "|"   fis'8    g'8    
d'8    b8    g8    a8    b8    d'8  \bar "|"   e'8    a'8    a'4 ^"~"    e'8    
a'8    b'8    d''8  \bar "|"   e''8    d''8    b'8    a'8    a''8    g''8    
e''8    d''8  \bar "|"   b''8    g''8    g''4 ^"~"    a''8    fis''8    g''8    
e''8  \bar "|"   d''8    b'8    b'4 ^"~"    a'8    e'8    d'8    b8  \bar "|"   
a8    e'8    e'4 ^"~"    e'4 ^"~"    d'8    e'8  \bar "|"   g'8    e'8    d'8   
 b8    b8    a8    a8  }   
}

\score{
    <<

	\context Staff="default"
	{
	    \voicedefault 
	}

    >>
	\layout {
	}
	\midi {}
}
