\version "2.19.49"
% clairnote-type = sn
\include "clairnote.ly"
\header {
	transcription = "JACKB"
	crossRefNumber = "1"
	footnotes = ""
	meter = "Reel"
	source = "https://thesession.org/tunes/322#setting29375"
	arranger = "Setting 8"
	tagline = \markup { \vspace #1.8 \sans \abs-fontsize #7.5 \wordwrap {Sheet music in \with-url \clairnoteTypeUrl { \clairnoteTypeName music notation} published by Paul Morris using \with-url #"http://www.lilypond.org" {LilyPond.} Automatically converted to LilyPond format from an ABC source file from \with-url #"https://thesession.org" {the Session} website: \with-url #"https://thesession.org/tunes/322#setting29375" {"https://thesession.org/tunes/322#setting29375"}}}
	title = "Green Fields Of Rossbeigh, The"
}
voicedefault =  {
\set Score.defaultBarType = ""

\time 4/4 \key e \dorian   \repeat volta 2 {   b'8    e'8    e'4    b'8    a'8  
  fis'8    b'8    \bar "|"   a'8    b'8    d''8    e''8    fis''8    d''8    
e''8    d''8    \bar "|"   b'8    e'8    e'4    b'8    a'8    fis'8    a'8    
\bar "|"   b'8    fis'8    a'8    fis'8    e'4    fis'8    a'8    \bar "|"     
b'4.    d''8    b'8    a'8    fis'8    b'8    \bar "|"   a'8    b'8    d''8    
e''8    fis''8    d''8    e''8    d''8    \bar "|"   b'8    e'8    e'4    b'8   
 a'8    fis'8    a'8    \bar "|"   b'8    fis'8    a'8    fis'8    e'4    fis'8 
   a'8    }     \repeat volta 2 {   \tuplet 3/2 {   b'8    cis''!8    d''8  }   
e''8    fis''8    g''8    fis''8    g''8    e''8    \bar "|"   d''8    b'8    
b'4    d''8    b'8    a'4    \bar "|"   \tuplet 3/2 {   b'8    cis''!8    d''8  
}   e''8    fis''8    g''8    fis''8    g''8    e''8    \bar "|"   d''8    b'8  
  a'8    fis'8    e'4.    fis''8    \bar "|"     g''4.    a''8    g''8    
fis''8    e''8    d''8    \bar "|"   fis''4.    g''8    fis''8    e''8    d''8  
  b'8    \bar "|"   a'8    b'8    d''8    e''8    fis''4.    e''8    \bar "|"   
d''8    b'8    a'8    fis'8    e'2    }   
}

\score{
    <<

	\context Staff="default"
	{
	    \voicedefault 
	}

    >>
	\layout {
	}
	\midi {}
}
