\version "2.19.49"
% clairnote-type = sn
\include "clairnote.ly"
\header {
	transcription = "SPeak"
	crossRefNumber = "1"
	footnotes = ""
	meter = "Reel"
	source = "https://thesession.org/tunes/1006#setting1006"
	arranger = "Setting 1"
	tagline = \markup { \vspace #1.8 \sans \abs-fontsize #7.5 \wordwrap {Sheet music in \with-url \clairnoteTypeUrl { \clairnoteTypeName music notation} published by Paul Morris using \with-url #"http://www.lilypond.org" {LilyPond.} Automatically converted to LilyPond format from an ABC source file from \with-url #"https://thesession.org" {the Session} website: \with-url #"https://thesession.org/tunes/1006#setting1006" {"https://thesession.org/tunes/1006#setting1006"}}}
	title = "Grumbling Old Man And Woman, The"
}
voicedefault =  {
\set Score.defaultBarType = ""

\time 4/4 \key a \dorian   c'8    a8    e'8    a8    c'8    a8    e'8    a8  
\bar "|"   b8    g8    d'8    g8    b8    g8    d'8    g8  \bar "|"   c'8    a8 
   e'8    a8    c'8    a8    e'8    a8  \bar "|"   b8    a8    g8    b8    a4   
 a8    b8  \bar ":|."   b8    a8    g8    b8    a4    r4 \bar "||"     e''4    
e''8    d''8    cis''8    d''8    e''8    fis''8  \bar "|"   g''4    g''8    
fis''8    e''8    d''8    cis''8    d''8  \bar "|"   e''8    fis''8    e''8    
d''8    cis''8    d''8    e''8    d''8  \bar "|"   e''8    a''8    a''8    
gis''8    a''4    e''8    fis''8  \bar "|"     g''!8    fis''8    e''8    d''8  
  cis''8    d''8    e''8    fis''8  \bar "|"   g''4    g''8    e''8    d''8    
b'8    g'8    b'8  \bar "|"   c''!4    b'8    c''8    a'8    g'8    e'8    
fis'8  \bar "|"   g'8    e'8    d'8    b8    a4    a8    b8  \bar "||"   
}

\score{
    <<

	\context Staff="default"
	{
	    \voicedefault 
	}

    >>
	\layout {
	}
	\midi {}
}
