\version "2.19.49"
% clairnote-type = sn
\include "clairnote.ly"
\header {
	transcription = "fidicen"
	crossRefNumber = "1"
	footnotes = ""
	meter = "Reel"
	source = "https://thesession.org/tunes/1045#setting1045"
	arranger = "Setting 1"
	tagline = \markup { \vspace #1.8 \sans \abs-fontsize #7.5 \wordwrap {Sheet music in \with-url \clairnoteTypeUrl { \clairnoteTypeName music notation} published by Paul Morris using \with-url #"http://www.lilypond.org" {LilyPond.} Automatically converted to LilyPond format from an ABC source file from \with-url #"https://thesession.org" {the Session} website: \with-url #"https://thesession.org/tunes/1045#setting1045" {"https://thesession.org/tunes/1045#setting1045"}}}
	title = "Gun In The Thatch, The"
}
voicedefault =  {
\set Score.defaultBarType = ""

\time 4/4 \key g \major   d''8    c''8  \bar "||"   b'8    g'8    a'8    fis'8  
  d'8    g'8    g'4  \bar "|"   g''8    fis''8    g''8    e''8    fis''8    
d''8    c''8    d''8  \bar "|"   b'8    g'8    \tuplet 3/2 {   g'8    g'8    g'8 
 }   d'8    g'8    fis'8    g'8  \bar "|"   fis'8    g'8    a'8    b'8    c''4  
  d''8    c''8  \bar "|"     b'8    g'8    a'8    fis'8    d'8    g'8    g'4  
\bar "|"   g''8    fis''8    g''8    e''8    fis''8    d''8    c''8    d''8  
\bar "|"   b'8    g'8    a'8    fis'8    d'8    g'8    \tuplet 3/2 {   g'8    
g'8    g'8  } \bar "|"   fis'8    g'8    a'8    b'8    c''4    b'8    c''8  
\bar "||"     \repeat volta 2 {   d''8    g''8  \grace {    a''8  }   g''8    
fis''8    \tuplet 3/2 {   g''8    g''8    g''8  }   b''8    g''8  \bar "|"   
d''8    g''8    b''8    g''8    fis''8    g''8    a''8    fis''8  \bar "|"   
d''8    g''8  \grace {    a''8  }   g''8    fis''8    \tuplet 3/2 {   g''8    
g''8    g''8  }   d''8    g''8  } \alternative{{   b''8    g''8    a''8    
fis''8    g''8    fis''8    e''8    fis''8  } {   b''8    g''8    a''8    
fis''8    g''8    e''8    d''8    c''8  \bar "||"   }}
}

\score{
    <<

	\context Staff="default"
	{
	    \voicedefault 
	}

    >>
	\layout {
	}
	\midi {}
}
