\version "2.19.49"
% clairnote-type = sn
\include "clairnote.ly"
\header {
	transcription = "Will Harmon"
	crossRefNumber = "1"
	footnotes = ""
	meter = "Jig"
	source = "https://thesession.org/tunes/926#setting14118"
	arranger = "Setting 2"
	tagline = \markup { \vspace #1.8 \sans \abs-fontsize #7.5 \wordwrap {Sheet music in \with-url \clairnoteTypeUrl { \clairnoteTypeName music notation} published by Paul Morris using \with-url #"http://www.lilypond.org" {LilyPond.} Automatically converted to LilyPond format from an ABC source file from \with-url #"https://thesession.org" {the Session} website: \with-url #"https://thesession.org/tunes/926#setting14118" {"https://thesession.org/tunes/926#setting14118"}}}
	title = "Hag's Purse, The"
}
voicedefault =  {
\set Score.defaultBarType = ""

\time 6/8 \key d \mixolydian   g'8    \repeat volta 2 {   a'4    d'8    fis'8   
 e'8    d'8    \bar "|"   a'4    b'8    c''8    a'8    fis'8    \bar "|"   g'4  
  e'8    e'8    d'8    e'8    \bar "|"   c''4    d''8    c''8    a'8    g'8    
\bar "|"   \bar "|"   a'16    a'16    a'8    d'8    fis'8    e'8    d'8    
\bar "|"   a'8    d''8    b'8    c''8    a'8    fis'8    \bar "|"   g'8    e'8  
  e'8    c''8    e'8    e'8    \bar "|"   d'8    e'8    d'8    d'8    c''8    
b'8    \bar "|"   \bar "|"   a'4    d'8    fis'8    e'8    d'8    \bar "|"   
a'8    d''8    b'8    c''8    a'8    fis'8    \bar "|"   g'8    e'8    e'8    
e'8    d'8    e'8    \bar "|"   c''8    e''8    d''8    c''8    a'8    g'8    
\bar "|"   \bar "|"   a'8    d'8    d'8    fis'8    e'8    d'8    \bar "|"   
a'8    d''8    b'8    c''8    a'8    fis'8    \bar "|"   g'4. ^"~"    c''8    
g'8    e'8    \bar "|"   d'8    e'8    d'8    d'4    a'8    \bar "||"   
\bar "|"   d''4    e''8    fis''8    e''8    d''8    \bar "|"   e''8    fis''8  
  d''8    c''8    a'8    fis'8    \bar "|"   g'4    e'8    e'8    d'8    e'8    
\bar "|"   c''4    d''8    c''8    a'8    g'8    \bar "|"   \bar "|"   a'8    
d''8    d''8    fis''8    e''8    d''8    \bar "|"   e''8    fis''8    d''8    
c''8    a'8    fis'8    \bar "|"   g'8    e'8    e'8    c''8    g'8    e'8    
\bar "|"   d'8    e'8    d'8    d'8    e'16    fis'16    g'8    \bar "|"   
\bar "|"   a'8    d''8    e''8    fis''8    e''8    d''8    \bar "|"   e''8    
fis''8    d''8    c''8    a'8    fis'8    \bar "|"   g'8    c''8    a'8    g'8  
  c''8    a'8    \bar "|"   c''8    e''8    d''8    c''8    a'8    g'8    
\bar "|"   \bar "|"   a'8    d''8    e''8    fis''8    e''8    d''8    \bar "|" 
  g''16    fis''16    e''8    d''8    c''8    a'8    fis'8    \bar "|"   g'8    
e'16    fis'16    g'8    c''8    g'8    e'8    \bar "|"   d'8    fis'8    e'8   
 d'8    c''8    b'8    \bar "||"   }
}

\score{
    <<

	\context Staff="default"
	{
	    \voicedefault 
	}

    >>
	\layout {
	}
	\midi {}
}
