\version "2.19.49"
% clairnote-type = sn
\include "clairnote.ly"
\header {
	transcription = "Will Harmon"
	crossRefNumber = "1"
	footnotes = ""
	meter = "Jig"
	source = "https://thesession.org/tunes/360#setting360"
	arranger = "Setting 1"
	tagline = \markup { \vspace #1.8 \sans \abs-fontsize #7.5 \wordwrap {Sheet music in \with-url \clairnoteTypeUrl { \clairnoteTypeName music notation} published by Paul Morris using \with-url #"http://www.lilypond.org" {LilyPond.} Automatically converted to LilyPond format from an ABC source file from \with-url #"https://thesession.org" {the Session} website: \with-url #"https://thesession.org/tunes/360#setting360" {"https://thesession.org/tunes/360#setting360"}}}
	title = "Happy Birthday"
}
voicedefault =  {
\set Score.defaultBarType = ""

\time 6/8 \key g \major   \bar "|"   d'8    e'8    d'8    g'4. ^"~"  \bar "|"   
g'8    a'8    g'8    fis'4. ^"~"  \bar "|"   d'8    e'8    d'8    a'8    g'8    
a'8  \bar "|"   c''8    a'8    fis'8    g'4    e'8  \bar "|"     \bar "|"   d'8 
   e'8    d'8    d''4. ^"~"  \bar "|"   b'8    a'8    g'8    fis'8    g'8    
e'8  \bar "|"   c''8    b'8    c''8    b'8    a'8    g'8  \bar "|"   a'8    g'8 
   fis'8    g'4.  \bar "|"   
}

\score{
    <<

	\context Staff="default"
	{
	    \voicedefault 
	}

    >>
	\layout {
	}
	\midi {}
}
