\version "2.19.49"
% clairnote-type = sn
\include "clairnote.ly"
\header {
	transcription = "Dr. Dow"
	crossRefNumber = "1"
	footnotes = ""
	meter = "Jig"
	source = "https://thesession.org/tunes/582#setting13575"
	arranger = "Setting 3"
	tagline = \markup { \vspace #1.8 \sans \abs-fontsize #7.5 \wordwrap {Sheet music in \with-url \clairnoteTypeUrl { \clairnoteTypeName music notation} published by Paul Morris using \with-url #"http://www.lilypond.org" {LilyPond.} Automatically converted to LilyPond format from an ABC source file from \with-url #"https://thesession.org" {the Session} website: \with-url #"https://thesession.org/tunes/582#setting13575" {"https://thesession.org/tunes/582#setting13575"}}}
	title = "Haste To The Wedding"
}
voicedefault =  {
\set Score.defaultBarType = ""

\repeat volta 2 {
\time 6/8 \key d \major   b'8    a'8    d'8    d'8    a'8    g'8  \bar "|"   
b'8    a'8    d'8    d'8    a'8    g'8  \bar "|"   b'8    a'8    d'8    d'8    
a'8    g'8  \bar "|"   b'8    a'8    d'8    d'8    a'8    g'8  \bar "|"   b'8   
 a'8    d'8    d'8    a'8    g'8  \bar "|"   b'8    a'8    d'8    d'8    a'8    
g'8  \bar "|"   b'8    a'8    d'8    d'8    a'8    g'8  \bar "|"   b'8    a'8   
 d'8    d'8    a'8    g'8  }   \repeat volta 2 {   b''8    a''8    d''8    d''8 
   a''8    g''8  \bar "|"   b''8    a''8    d''8    d''8    a''8    g''8  
\bar "|"   b''8    a''8    d''8    d''8    a''8    g''8  \bar "|"   b''8    
a''8    d''8    d''8    a''8    g''8  \bar "|"   b''8    a''8    d''8    d''8   
 a''8    g''8  \bar "|"   b''8    a''8    d''8    d''8    a''8    g''8  
\bar "|"   b''8    a''8    d''8    d''8    a''8    g''8  \bar "|"   b''8    
a''8    d''8    d''8    a''8    g''8  }   
}

\score{
    <<

	\context Staff="default"
	{
	    \voicedefault 
	}

    >>
	\layout {
	}
	\midi {}
}
