\version "2.19.49"
% clairnote-type = sn
\include "clairnote.ly"
\header {
	transcription = "CreadurMawnOrganig"
	crossRefNumber = "1"
	footnotes = ""
	meter = "Reel"
	source = "https://thesession.org/tunes/164#setting164"
	arranger = "Setting 1"
	tagline = \markup { \vspace #1.8 \sans \abs-fontsize #7.5 \wordwrap {Sheet music in \with-url \clairnoteTypeUrl { \clairnoteTypeName music notation} published by Paul Morris using \with-url #"http://www.lilypond.org" {LilyPond.} Automatically converted to LilyPond format from an ABC source file from \with-url #"https://thesession.org" {the Session} website: \with-url #"https://thesession.org/tunes/164#setting164" {"https://thesession.org/tunes/164#setting164"}}}
	title = "Hen And Her Brood, The"
}
voicedefault =  {
\set Score.defaultBarType = ""

\time 4/4 \key a \dorian   \bar "|"   a'4. ^"~"    c''8    b'4. ^"~"    g'8    
\bar "|"   a'8    r8   e''8    fis''8    g''8    e''8    d''8    b'8    
\bar "|"   b'4 ^"~"    a'8    b'8    b'8    e'8    e'4 ^"~"    \bar "|"   g'4. 
^"~"    a'8    b'8    c''8    d''8    b'8    \bar ":|."   g'4. ^"~"    a'8    
b'8    c''8    d''8    g''8  \bar "||"     \bar ".|:"   e''8    fis''8    g''8   
 e''8    a''4. ^"~"    r8   \bar "|"   e''8    fis''8    g''8    a''8    g''8   
 e''8    d''8    g''8    \bar "|"   e''8    fis''8    g''8    e''8    a''8    
b''8    b''8    a''8    \bar "|"   a''8    g''8    g''8    e''8    d''4    r8 
g''8    \bar ":|."   a''8    g''8    g''8    e''8    d''8    e''8    d''8    
b'8    \bar "||"   
}

\score{
    <<

	\context Staff="default"
	{
	    \voicedefault 
	}

    >>
	\layout {
	}
	\midi {}
}
