\version "2.19.49"
% clairnote-type = sn
\include "clairnote.ly"
\header {
	transcription = "fidicen"
	crossRefNumber = "1"
	footnotes = ""
	meter = "Polka"
	source = "https://thesession.org/tunes/1233#setting1233"
	arranger = "Setting 1"
	tagline = \markup { \vspace #1.8 \sans \abs-fontsize #7.5 \wordwrap {Sheet music in \with-url \clairnoteTypeUrl { \clairnoteTypeName music notation} published by Paul Morris using \with-url #"http://www.lilypond.org" {LilyPond.} Automatically converted to LilyPond format from an ABC source file from \with-url #"https://thesession.org" {the Session} website: \with-url #"https://thesession.org/tunes/1233#setting1233" {"https://thesession.org/tunes/1233#setting1233"}}}
	title = "Henry's"
}
voicedefault =  {
\set Score.defaultBarType = ""

\repeat volta 2 {
\time 2/4 \key d \major   fis'8    a'8    a'8    b'8  \bar "|"   d''8    e''8   
 fis''8    a''8  \bar "|"   g''8    a''16    g''16    fis''8    e''8  \bar "|"  
 d''8    b'8    b'8    a'8  \bar "|"   fis'8    a'8    a'8    b'8  \bar "|"   
d''8    e''8    fis''8    a''8  \bar "|"   g''8    a''16    g''16    fis''8    
e''8  \bar "|"   e''8    d''8    d''4  }     e''8    a''8    e''8    fis''8  
\bar "|"   g''8    a''16    g''16    fis''8    d''8  \bar "|"   e''8    a''8    
e''8    fis''8  \bar "|"   g''4    fis''4  \bar "|"   e''8    a''8    e''8    
fis''8  \bar "|"   g''8    a''16    g''16    fis''8    d''8  \bar "|"   e''8    
fis''16    e''16    d''8    b'8  \bar "|"   b'8    a'8    a'4  \bar ":|."   
e''8    fis''16    e''16    d''8    c''8  \bar "|"   b'8    c''16    b'16    
a'8    g'8  \bar "|"     \bar ".|:"   fis'8    a'8    a'8    b'8  \bar "|"   
d''8    e''8    fis''8    a''8  \bar "|"   g''8    a''16    g''16    fis''8    
e''8  \bar "|"   d''8    b'8    b'8    a'8  \bar "|"   fis'8    a'8    a'8    
b'8  \bar "|"   d''8    e''8    fis''8    a''8  \bar "|"   g''8    a''16    
g''16    fis''8    e''8  \bar "|"   e''8    d''8    d''4  \bar ":|."   
}

\score{
    <<

	\context Staff="default"
	{
	    \voicedefault 
	}

    >>
	\layout {
	}
	\midi {}
}
