\version "2.19.49"
% clairnote-type = sn
\include "clairnote.ly"
\header {
	transcription = "Kenny"
	crossRefNumber = "1"
	footnotes = ""
	meter = "Hornpipe"
	source = "https://thesession.org/tunes/1263#setting14572"
	arranger = "Setting 2"
	tagline = \markup { \vspace #1.8 \sans \abs-fontsize #7.5 \wordwrap {Sheet music in \with-url \clairnoteTypeUrl { \clairnoteTypeName music notation} published by Paul Morris using \with-url #"http://www.lilypond.org" {LilyPond.} Automatically converted to LilyPond format from an ABC source file from \with-url #"https://thesession.org" {the Session} website: \with-url #"https://thesession.org/tunes/1263#setting14572" {"https://thesession.org/tunes/1263#setting14572"}}}
	title = "Her Long Dark Hair Flowing Down Her Back"
}
voicedefault =  {
\set Score.defaultBarType = ""

\time 4/4 \key d \major   \bar "|"   g''4.    a''8    g''8    e''8    cis''8    
g'8    \bar "|"   cis''8    e''8    g''8    e''8    g''4    e''8    g''8    
\bar "|"   a''4.    b''8    a''8    g''8    e''8    g''8    \bar "|"   a''8    
g''8    e''8    g''8    a''4    b''8    a''8    \bar "|"   g''4    e''8    g''8 
   d''4    e''8    d''8    \bar "|"   cis''8    d''8    e''8    g''8    a''4    
g''8    e''8    \bar "|"   e''8    g''8    e''8    d''8    cis''8    a'8    
d''8    cis''8    \bar "|"   a'4    g'8    b'8    a'8    b'8    cis''8    e''8  
  \bar ":|."   a'4    a'8    g'8    a'8    e''8    e''8    d''8    \bar "|"   
\tuplet 3/2 {   cis''8    b'8    a'8  }   b'8    g'8    a'8    cis''8    b'8    
a'8    \bar "|"   g'8    e'8    d'8    e'8    g'4    e'8    g'8    \bar "|"   
\tuplet 3/2 {   cis''8    b'8    a'8  }   b'8    g'8    a'8    b'8    cis''8    
d''8    \bar "|"   e''8    g''8    g''4    a''8    g''8    e''8    d''8    
\bar "|"   \tuplet 3/2 {   cis''8    b'8    a'8  }   b'8    g'8    a'8    cis''8 
   b'8    a'8    \bar "|"   g'8    e'8    d'8    e'8    g'4    e'8    g'8    
\bar "|"   a'8    g'8    \tuplet 3/2 {   a'8    b'8    cis''8  }   b'8    a'8    
g'8    b'8    \bar "|"   a'4    a'8    g'8    a'8    e''8    e''8    d''8    
\bar ":|."   a'4    g'8    b'8    a'8    b'8    cis''8    e''8    \bar ":|."   
}

\score{
    <<

	\context Staff="default"
	{
	    \voicedefault 
	}

    >>
	\layout {
	}
	\midi {}
}
