\version "2.19.49"
% clairnote-type = sn
\include "clairnote.ly"
\header {
	transcription = "Kilcash"
	crossRefNumber = "1"
	footnotes = ""
	meter = "Hornpipe"
	source = "https://thesession.org/tunes/1263#setting14575"
	arranger = "Setting 5"
	tagline = \markup { \vspace #1.8 \sans \abs-fontsize #7.5 \wordwrap {Sheet music in \with-url \clairnoteTypeUrl { \clairnoteTypeName music notation} published by Paul Morris using \with-url #"http://www.lilypond.org" {LilyPond.} Automatically converted to LilyPond format from an ABC source file from \with-url #"https://thesession.org" {the Session} website: \with-url #"https://thesession.org/tunes/1263#setting14575" {"https://thesession.org/tunes/1263#setting14575"}}}
	title = "Her Long Dark Hair Flowing Down Her Back"
}
voicedefault =  {
\set Score.defaultBarType = ""

\time 4/4 \key d \major   \repeat volta 2 {   d''8    e''8  \bar "|"   fis''8   
 e''8    d''8    fis''8    e''8    fis''8    d''8    a'8  \bar "|"   b'8    a'8 
   fis'8    b'8    a'4    d''8    e''8  \bar "|"   fis''8    e''8    d''8    
fis''8    e''4    d''8    e''8  \bar "|"   fis''8    b''8    b''8    a''8    
b''4    a''8    g''8  \bar "|"   fis''8    e''8    d''8    fis''8    e''8    
fis''8    d''8    a'8  \bar "|"   b'8    a'8    fis'8    b'8    a'8    b'8    
d''8    e''8  \bar "|"   fis''8    e''8    d''8    fis''8    e''8    d''8    
b'8    a'8  \bar "|"   b'4    b'8    a'8    b'4  }   
}

\score{
    <<

	\context Staff="default"
	{
	    \voicedefault 
	}

    >>
	\layout {
	}
	\midi {}
}
