\version "2.19.49"
% clairnote-type = sn
\include "clairnote.ly"
\header {
	transcription = "Ian Varley"
	crossRefNumber = "1"
	footnotes = ""
	meter = "Reel"
	source = "https://thesession.org/tunes/44#setting26832"
	arranger = "Setting 5"
	tagline = \markup { \vspace #1.8 \sans \abs-fontsize #7.5 \wordwrap {Sheet music in \with-url \clairnoteTypeUrl { \clairnoteTypeName music notation} published by Paul Morris using \with-url #"http://www.lilypond.org" {LilyPond.} Automatically converted to LilyPond format from an ABC source file from \with-url #"https://thesession.org" {the Session} website: \with-url #"https://thesession.org/tunes/44#setting26832" {"https://thesession.org/tunes/44#setting26832"}}}
	title = "High, The"
}
voicedefault =  {
\set Score.defaultBarType = ""

\time 4/4 \key a \mixolydian   \repeat volta 2 {   a''4    fis''8    a''8    
e''8    cis''8    a'4  \bar "|"   cis''8    d''8    e''8    d''8    cis''8    
a'8    a'4  \bar "|"   a''4    fis''8    a''8    e''8    cis''8    a'4  
\bar "|"   b'8    cis''8    d''8    cis''8    b'8    g'8    g'4  \bar "|"     
a''4    fis''8    a''8    e''8    cis''8    a'4  \bar "|"   cis''8    d''8    
e''8    fis''8    g''4    fis''8    g''8  \bar "|"   a''8    fis''8    g''8    
e''8    fis''8    d''8    e''8    cis''8  \bar "|"   b'8    cis''8    d''8    
cis''8    b'8    g'8    g'4  }     \repeat volta 2 {   cis''8    a'8    e''8    
a'8    fis''8    a'8    e''8    a'8  \bar "|"   cis''8    a'8    a''8    fis''8 
   e''8    cis''8    b'8    a'8  \bar "|"   cis''8    a'8    e''8    a'8    
fis''8    a'8    e''8    a'8  \bar "|"   b'8    cis''8    d''8    cis''8    b'8 
   g'8    g'4  \bar "|"     cis''8    a'8    e''8    a'8    fis''8    a'8    
e''8    a'8  \bar "|"   cis''8    d''8    e''8    fis''8    g''4    fis''8    
g''8  \bar "|"   a''8    fis''8    g''8    e''8    fis''8    d''8    e''8    
cis''8  \bar "|"   b'8    cis''8    d''8    cis''8    b'8    g'8    g'4  }   
}

\score{
    <<

	\context Staff="default"
	{
	    \voicedefault 
	}

    >>
	\layout {
	}
	\midi {}
}
