\version "2.19.49"
% clairnote-type = sn
\include "clairnote.ly"
\header {
	transcription = "gian marco"
	crossRefNumber = "1"
	footnotes = ""
	meter = "Reel"
	source = "https://thesession.org/tunes/290#setting13038"
	arranger = "Setting 2"
	tagline = \markup { \vspace #1.8 \sans \abs-fontsize #7.5 \wordwrap {Sheet music in \with-url \clairnoteTypeUrl { \clairnoteTypeName music notation} published by Paul Morris using \with-url #"http://www.lilypond.org" {LilyPond.} Automatically converted to LilyPond format from an ABC source file from \with-url #"https://thesession.org" {the Session} website: \with-url #"https://thesession.org/tunes/290#setting13038" {"https://thesession.org/tunes/290#setting13038"}}}
	title = "Hogties"
}
voicedefault =  {
\set Score.defaultBarType = ""

\time 4/4 \key e \dorian   d''8  \repeat volta 2 {   b'8    a'8    b'8    d''8  
  e'4 ^"~"    e''8    d''8  \bar "|"   b'8    a'8    b'8    cis''8    d''8    
a'8    cis''8    d''8  \bar "|"   b'8    a'8    b'8    d''8    e'4 ^"~"    e''8 
   d''8  \bar "|"   b'8    a'8    b'8    d''8    fis'8    e'8    e'4 ^"~"  
\bar "|"   b'8    a'8    b'8    d''8    e'4 ^"~"    e''8    d''8  \bar "|"   
b'8    a'8    b'8    cis''8    d''8    a'8    cis''8    d''8  \bar "|"   e''4   
 d''8    b'8    a'8    b'8    d''8    a'8  \bar "|"   b'8    d''8    a'8    
d''8    fis'8    e'8    e'4 ^"~"  }   \repeat volta 2 {   e''8    b'8  
\tuplet 3/2 {   b'8    b'8    b'8  }   e''4    d''8    b'8  \bar "|"   b'8    
a'8    b'8    cis''8    d''4    cis''8    d''8  \bar "|"   e''8    b'8  
\tuplet 3/2 {   b'8    b'8    b'8  }   e''4    d''8    b'8  \bar "|"   b'8    
a'8    b'8    d''8    fis'8    e'8    e'4 ^"~"  \bar "|"   \bar "|"   e''8    
b'8  \tuplet 3/2 {   b'8    b'8    b'8  }   e''4    d''8    b'8  \bar "|"   b'8  
  a'8    b'8    cis''8    d''4    cis''8    d''8  \bar "|"   e''4    d''8    
b'8    a'8    b'8    d''8    a'8  \bar "|"   b'8    d''8    a'8    d''8    
fis'8    e'8    e'4 ^"~"  }   
}

\score{
    <<

	\context Staff="default"
	{
	    \voicedefault 
	}

    >>
	\layout {
	}
	\midi {}
}
