\version "2.19.49"
% clairnote-type = sn
\include "clairnote.ly"
\header {
	transcription = "ceolachan"
	crossRefNumber = "1"
	footnotes = ""
	meter = "Hornpipe"
	source = "https://thesession.org/tunes/310#setting23386"
	arranger = "Setting 4"
	tagline = \markup { \vspace #1.8 \sans \abs-fontsize #7.5 \wordwrap {Sheet music in \with-url \clairnoteTypeUrl { \clairnoteTypeName music notation} published by Paul Morris using \with-url #"http://www.lilypond.org" {LilyPond.} Automatically converted to LilyPond format from an ABC source file from \with-url #"https://thesession.org" {the Session} website: \with-url #"https://thesession.org/tunes/310#setting23386" {"https://thesession.org/tunes/310#setting23386"}}}
	title = "Home Ruler, The"
}
voicedefault =  {
\set Score.defaultBarType = ""

\time 4/4 \key d \major   \repeat volta 2 {   \tuplet 3/2 {   a'8    b'8    
cis''8  }   \bar "|"   d''4    d''4    d''4    d''4    \bar "|"   a''8    d''8  
  b''8    d''8    a''8    d''8    fis''8    d''8    \bar "|"   e''8    fis''8   
 e''8    d''8    b'8    a'8    d''8    e''8    \bar "|"   fis''8    d''8    
e''8    d''8    b'8    d''8    a'8    b'8    \bar "|"     d''4    d''4    d''4  
  d''4    \bar "|"   a''8    d''8    b''8    d''8    a''8    d''8    fis''8    
d''8    \bar "|"   e''8    fis''8    e''8    d''8    b'8    a'8    b'8    d''8  
  \bar "|"   a'8    fis'8    e'8    fis'8    d'4    }     \repeat volta 2 {   
a8    b8    \bar "|"   d'4    fis'8    a'8    d'8    a'8    fis'8    a'8    
\bar "|"   d''8    e''8    fis''8    d''8    b'4    d''8    b'8    \bar "|"   
a'4    a'8    b'8    a'8    fis'8    d'8    e'8    \bar "|"   fis'8    d'8    
e'8    d'8    b4    a8    b8    \bar "|"     d'4    fis'8    a'8    d'8    a'8  
  fis'8    a'8    \bar "|"   d''8    e''8    fis''8    d''8    b'4    d''8    
b'8    \bar "|"   a'4    a'8    b'8    a'8    fis'8    d'8    e'8    \bar "|"   
fis'4    d'4    d'4    }   
}

\score{
    <<

	\context Staff="default"
	{
	    \voicedefault 
	}

    >>
	\layout {
	}
	\midi {}
}
