\version "2.19.49"
% clairnote-type = sn
\include "clairnote.ly"
\header {
	transcription = "mutatis mutandis"
	crossRefNumber = "1"
	footnotes = ""
	meter = "Jig"
	source = "https://thesession.org/tunes/88#setting12620"
	arranger = "Setting 4"
	tagline = \markup { \vspace #1.8 \sans \abs-fontsize #7.5 \wordwrap {Sheet music in \with-url \clairnoteTypeUrl { \clairnoteTypeName music notation} published by Paul Morris using \with-url #"http://www.lilypond.org" {LilyPond.} Automatically converted to LilyPond format from an ABC source file from \with-url #"https://thesession.org" {the Session} website: \with-url #"https://thesession.org/tunes/88#setting12620" {"https://thesession.org/tunes/88#setting12620"}}}
	title = "Humours Of Trim, The"
}
voicedefault =  {
\set Score.defaultBarType = ""

\repeat volta 2 {
\time 6/8 \key g \major   d''8    c''8    \bar "|"   b'8    c''8    b'8    g'8  
  b'8    g'8    \bar "|"   g'8    b'8    g''8    fis''8    d''8    c''8    
\bar "|"   b'8    c''8    b'8    g'8    b'8    g'8    \bar "|"   d''8    g'8    
b'8    c''8    b'8    a'8    \bar "|"   b'4. ^"~"    g'8    b'8    g'8    
\bar "|"   g'8    b'8    g''8    fis''8    d''8    c''8    \bar "|"   b'4. 
^"~"    c''4. ^"~"    \bar "|"   d''8    d'8    b'8    c''8    b'8    a'8    }  
 \repeat volta 2 {   g'8    e''8    g''8    fis''8    d''8    g''8    \bar "|"  
 fis''8    d''8    g''8    fis''8    d''8    c''8    \bar "|"   b'8    d''8    
g''8    fis''8    d''8    c''8    \bar "|"   b'4. ^"~"    c''8    b'8    a'8    
\bar "|"   g'8    e''8    g''8    fis''8    d''8    a''8    \bar "|"   b''8    
a''8    g''8    fis''8    d''8    c''8    \bar "|"   b'4. ^"~"    c''4. ^"~"    
\bar "|"   d''8    g'8    b'8    c''8    b'8    a'8    }   
}

\score{
    <<

	\context Staff="default"
	{
	    \voicedefault 
	}

    >>
	\layout {
	}
	\midi {}
}
