\version "2.19.49"
% clairnote-type = sn
\include "clairnote.ly"
\header {
	transcription = "JACKB"
	crossRefNumber = "1"
	footnotes = ""
	meter = "Jig"
	source = "https://thesession.org/tunes/88#setting26362"
	arranger = "Setting 11"
	tagline = \markup { \vspace #1.8 \sans \abs-fontsize #7.5 \wordwrap {Sheet music in \with-url \clairnoteTypeUrl { \clairnoteTypeName music notation} published by Paul Morris using \with-url #"http://www.lilypond.org" {LilyPond.} Automatically converted to LilyPond format from an ABC source file from \with-url #"https://thesession.org" {the Session} website: \with-url #"https://thesession.org/tunes/88#setting26362" {"https://thesession.org/tunes/88#setting26362"}}}
	title = "Humours Of Trim, The"
}
voicedefault =  {
\set Score.defaultBarType = ""

\time 6/8 \key d \major   \repeat volta 2 {   fis'8    e'8    fis'8    d'4.  
\bar "|"   d'4    d''8    cis''8    a'8    g'8  \bar "|"   fis'4.    d'4.  
\bar "|"   a'4    fis'8    g'8    fis'8    e'8  \bar "|"     fis'4.    d'4.  
\bar "|"   d'4    d''8    cis''8    a'8    g'8  \bar "|"   fis'8    cis''16    
a'16    fis'8    g'8    cis''16    a'16    g'8  \bar "|"   a'4    fis'8    g'8  
  fis'8    e'8  }     \repeat volta 2 {   |
 d'4    d''8    cis''8    a'8    d''8  \bar "|"   cis''8    a'8    d''8    
cis''8    a'8    g'8  \bar "|"   fis'4    d''8    cis''8    a'8    g'8  
\bar "|"   fis'8    cis''16    a'16    fis'8    g'8    fis'8    e'8  \bar "|"   
  d'4    d''8    cis''8    a'8    d''8  \bar "|"   g''16    fis''16    e''8    
d''8    cis''8    a'8    g'8  \bar "|"   fis'8    cis''16    a'16    fis'8    
g'8    cis''16    a'16    g'8  \bar "|"   a'4    fis'8    g'8    fis'8    e'8  
\bar "|"     d'4    d''8    cis''8    a'8    d''8  \bar "|"   cis''8    a'8    
g'8    e'8    fis'8    g'8  \bar "|"   fis'4    d''8    cis''8    a'8    g'8  
\bar "|"   a'8    fis'16    g'16    a'8    g'8    fis'8    e'8  \bar "|"     
d'4    d''8    cis''8    a'8    d''8  \bar "|"   fis''8    e''8    d''8    
cis''8    a'8    g'8  \bar "|"   fis'8    cis''16    a'16    fis'8    g'8    
cis''16    a'16    g'8  \bar "|"   a'8    fis'16    g'16    a'8    g'8    fis'8 
   e'8  \bar "||"   }
}

\score{
    <<

	\context Staff="default"
	{
	    \voicedefault 
	}

    >>
	\layout {
	}
	\midi {}
}
