\version "2.19.49"
% clairnote-type = sn
\include "clairnote.ly"
\header {
	transcription = "Earl Adams"
	crossRefNumber = "1"
	footnotes = ""
	meter = "Jig"
	source = "https://thesession.org/tunes/88#setting12625"
	arranger = "Setting 9"
	tagline = \markup { \vspace #1.8 \sans \abs-fontsize #7.5 \wordwrap {Sheet music in \with-url \clairnoteTypeUrl { \clairnoteTypeName music notation} published by Paul Morris using \with-url #"http://www.lilypond.org" {LilyPond.} Automatically converted to LilyPond format from an ABC source file from \with-url #"https://thesession.org" {the Session} website: \with-url #"https://thesession.org/tunes/88#setting12625" {"https://thesession.org/tunes/88#setting12625"}}}
	title = "Humours Of Trim, The"
}
voicedefault =  {
\set Score.defaultBarType = ""

\repeat volta 2 {
\time 6/8 \key d \major   \repeat volta 2 {   fis'8    e'8    fis'8    d'8    
e'8    d'8  \bar "|"   d'4    d''8    cis''8    a'8    g'8  \bar "|"   fis'8    
fis'16    fis'16    fis'8    fis'8    e'8    d'8  \bar "|"   a'4    fis'8    
g'8    fis'8    e'8  \bar "|"   fis'8    e'8    fis'8    d'8    e'8    d'8  
\bar "|"   d'4    d''8    cis''8    a'8    g'8  \bar "|"   fis'8    fis'16    
fis'16    fis'8    g'8    fis'8    g'8  \bar "|"   a'4    fis'8    g'8    fis'8 
   e'8  }   d'4    d''8    cis''8    a'8    d''8  \bar "|"   cis''8    a'8    
d''8    cis''8    a'8    g'8  \bar "|"   fis'4    d''8    cis''8    a'8    g'8  
  \bar "|"   fis'8    fis'16    fis'16    fis'8    g'8    fis'8    e'8  
\bar "|"   d'4    d''8    cis''8    d''8    e''8  \bar "|"   fis''8    e''8    
d''8    cis''8    a'8    g'8  \bar "|"   fis'8    fis'16    fis'16    fis'8    
g'8    fis'8    g'8  \bar "|"   a'4    fis'8    g'8    fis'8    e'8  }   
}

\score{
    <<

	\context Staff="default"
	{
	    \voicedefault 
	}

    >>
	\layout {
	}
	\midi {}
}
