\version "2.19.49"
% clairnote-type = sn
\include "clairnote.ly"
\header {
	transcription = "Will Harmon"
	crossRefNumber = "1"
	footnotes = ""
	meter = "Slip Jig"
	source = "https://thesession.org/tunes/1023#setting14246"
	arranger = "Setting 2"
	tagline = \markup { \vspace #1.8 \sans \abs-fontsize #7.5 \wordwrap {Sheet music in \with-url \clairnoteTypeUrl { \clairnoteTypeName music notation} published by Paul Morris using \with-url #"http://www.lilypond.org" {LilyPond.} Automatically converted to LilyPond format from an ABC source file from \with-url #"https://thesession.org" {the Session} website: \with-url #"https://thesession.org/tunes/1023#setting14246" {"https://thesession.org/tunes/1023#setting14246"}}}
	title = "Humours Of Whiskey, The"
}
voicedefault =  {
\set Score.defaultBarType = ""

\time 9/8 \key g \major   \repeat volta 2 {   g'8    a'8    b'8    e'4. ^"~"    
e'4. ^"~"    \bar "|"   g'8    a'8    b'8    e'4. ^"~"    a'8    fis'8    d'8   
 \bar "|"   g'8    a'8    b'8    e'4. ^"~"    e'4. ^"~"    \bar "|"   fis'8    
e'8    d'8    a'8    d''8    b'8    a'8    fis'8    d'8    }   
\repeat volta 2 {   |
 g'8    a'8    b'8    b'8    d''8    b'8    b'8    d''8    b'8    \bar "|"   
g'4. ^"~"    b'8    d''8    b'8    a'8    fis'8    d'8    \bar "|"   g'8    a'8 
   b'8    b'8    d''8    b'8    b'4. ^"~"    \bar "|"   c''8    b'8    a'8    
a'8    d''8    b'8    a'8    fis'8    d'8    }   
}

\score{
    <<

	\context Staff="default"
	{
	    \voicedefault 
	}

    >>
	\layout {
	}
	\midi {}
}
