\version "2.19.49"
% clairnote-type = sn
\include "clairnote.ly"
\header {
	transcription = "gian marco"
	crossRefNumber = "1"
	footnotes = ""
	meter = "Jig"
	source = "https://thesession.org/tunes/1043#setting2893"
	arranger = "Setting 2"
	tagline = \markup { \vspace #1.8 \sans \abs-fontsize #7.5 \wordwrap {Sheet music in \with-url \clairnoteTypeUrl { \clairnoteTypeName music notation} published by Paul Morris using \with-url #"http://www.lilypond.org" {LilyPond.} Automatically converted to LilyPond format from an ABC source file from \with-url #"https://thesession.org" {the Session} website: \with-url #"https://thesession.org/tunes/1043#setting2893" {"https://thesession.org/tunes/1043#setting2893"}}}
	title = "Humours Of Kiltyclogher, The"
}
voicedefault =  {
\set Score.defaultBarType = ""

\repeat volta 2 {
\time 6/8 \key c \major   a'8    g'8    e'8    g'4    e'8  \bar "|"   c''4    
e'8   ~    e'8    g'8    e'8  \bar "|"   d'8    e'8    d'8    d'4    e'8  
\bar "|"   g'8    e'8    d'8    d'4    d'8  \bar "|"     a'8    g'8    e'8    
g'4    e'8  \bar "|"   c''4    e'8    d'8    e'8    g'8  \bar "|"   a'4    d''8 
   b'8    a'8    g'8  \bar "|"   a'4.    a'4    b'8  }     \repeat volta 2 {   
c''4    b'8    c''4    d''8  \bar "|"   e''8    c''8    a'8    a'8    b'8    
c''8  \bar "|"   b'8    a'8    g'8    g'8    a'8    b'8  \bar "|"   d''8    b'8 
   g'8    g'8    a'8    b'8  \bar "|"     c''4    b'8    c''4    d''8  \bar "|" 
  e''8    c''8    a'8    a'8    b'8    c''8  \bar "|"   b'8    a'8    g'8    
g'8    a'8    b'8  \bar "|"   a'4.    a'4    b'8  }   
}

\score{
    <<

	\context Staff="default"
	{
	    \voicedefault 
	}

    >>
	\layout {
	}
	\midi {}
}
