\version "2.19.49"
% clairnote-type = sn
\include "clairnote.ly"
\header {
	transcription = "JACKB"
	crossRefNumber = "1"
	footnotes = ""
	meter = "Jig"
	source = "https://thesession.org/tunes/88#setting26363"
	arranger = "Setting 12"
	tagline = \markup { \vspace #1.8 \sans \abs-fontsize #7.5 \wordwrap {Sheet music in \with-url \clairnoteTypeUrl { \clairnoteTypeName music notation} published by Paul Morris using \with-url #"http://www.lilypond.org" {LilyPond.} Automatically converted to LilyPond format from an ABC source file from \with-url #"https://thesession.org" {the Session} website: \with-url #"https://thesession.org/tunes/88#setting26363" {"https://thesession.org/tunes/88#setting26363"}}}
	title = "Humours Of Trim, The"
}
voicedefault =  {
\set Score.defaultBarType = ""

\time 6/8 \key g \major   \repeat volta 2 {   b'8    a'8    b'8    g'4.  
\bar "|"   g'4    g''8    fis''8    d''8    c''8  \bar "|"   b'8    fis'16    
g'16    b'8    g'4.  \bar "|"   d''4    b'8    c''8    b'8    a'8  \bar "|"     
b'8    fis'16    g'16    b'8    g'4.  \bar "|"   g'4    g''8    fis''8    d''8  
  c''8  \bar "|"   b'8    fis'16    g'16    b'8    c''8    b'8    c''8  
\bar "|"   d''4    b'8    c''8    b'8    a'8  }     \repeat volta 2 {   |
 g'4    g''8    fis''8    d''8    g''8  \bar "|"   fis''8    d''8    g''8    
fis''8    d''8    c''8  \bar "|"   b'4    g''8    fis''8    d''8    c''8  
\bar "|"   b'8    fis'16    g'16    b'8    c''8    b'8    a'8  \bar "|"     g'4 
   g''8    fis''8    d''8    g''8  \bar "|"   b''8    a''8    g''8    fis''8    
d''8    c''8  \bar "|"   b'8    fis'16    g'16    b'8    c''8    b'8    c''8  
\bar "|"   d''4    b'8    c''8    b'8    a'8  \bar "|"     g'4    g''8    
fis''8    d''8    g''8  \bar "|"   fis''8    d''8    c''8    a'8    b'8    c''8 
 \bar "|"   b'4    g''8    fis''8    d''8    c''8  \bar "|"   d''8    b'16    
c''16    d''8    c''8    b'8    a'8  \bar "|"     g'4    g''8    fis''8    d''8 
   g''8  \bar "|"   b''8    a''8    g''8    fis''8    d''8    c''8  \bar "|"   
b'8    fis'16    g'16    b'8    c''8    b'8    c''8  \bar "|"   d''8    b'16    
c''16    d''8    c''8    b'8    a'8  \bar "||"   }
}

\score{
    <<

	\context Staff="default"
	{
	    \voicedefault 
	}

    >>
	\layout {
	}
	\midi {}
}
