\version "2.19.49"
% clairnote-type = sn
\include "clairnote.ly"
\header {
	transcription = "ceolachan"
	crossRefNumber = "1"
	footnotes = ""
	meter = "Slip Jig"
	source = "https://thesession.org/tunes/279#setting13022"
	arranger = "Setting 2"
	tagline = \markup { \vspace #1.8 \sans \abs-fontsize #7.5 \wordwrap {Sheet music in \with-url \clairnoteTypeUrl { \clairnoteTypeName music notation} published by Paul Morris using \with-url #"http://www.lilypond.org" {LilyPond.} Automatically converted to LilyPond format from an ABC source file from \with-url #"https://thesession.org" {the Session} website: \with-url #"https://thesession.org/tunes/279#setting13022" {"https://thesession.org/tunes/279#setting13022"}}}
	title = "Humours Of Ballymanus, The"
}
voicedefault =  {
\set Score.defaultBarType = ""

\time 9/8 \key a \major   \repeat volta 2 {   gis'4    gis'8    gis'8    fis'8  
  e'8    gis'8    fis'8    e'8    \bar "|"   gis'4    gis'8    gis'8    fis'8   
 e'8    a'8    b'8    cis''8    \bar "|"   gis'4    gis'8    gis'8    fis'8    
e'8    gis'8    fis'8    e'8    \bar "|"   a'8    b'8    a'8    a'4    gis'!8   
 a'8    b'8    cis''8    }   \repeat volta 2 {   cis''4    d''8    e''8    
cis''8    a'8    d''8    b'8    gis'8    \bar "|"   cis''4    d''8    e''8    
cis''8    a'8    e''8    fis''8    gis''8    \bar "|"   cis''4    d''8    e''8  
  cis''8    a'8    d''8    b'8    gis'8    \bar "|"   a'8    b'8    a'8    a'4  
  gis'!8    a'8    b'8    cis''8    }   \repeat volta 2 {   e'8    gis'8    e'8 
   cis''8    gis'8    e'8    cis''8    gis'8    e'8    \bar "|"   e'8    gis'8  
  e'8    cis''8    gis'8    e'8    a'8    b'8    cis''8    \bar "|"   e'8    
gis'8    e'8    cis''8    gis'8    e'8    cis''8    gis'8    e'8    \bar "|"   
a'8    b'8    a'8    a'4    gis'!8    a'8    b'8    cis''8    }   
\repeat volta 2 {   e'4    e'8    e'8    d'8    cis'8    e'8    d'8    cis'8    
\bar "|"   e'4    e'8    e'8    d'8    cis'8    fis'8    gis'8    a'8    
\bar "|"   e'4    e'8    e'8    d'8    cis'8    e'8    d'8    cis'8    \bar "|" 
  fis'8    gis'8    fis'8    fis'4    eis'8    fis'8    gis'8    a'8    }   
\repeat volta 2 {   a'4    b'8    cis''8    a'8    fis'8    b'8    gis'8    e'8 
   \bar "|"   a'4    b'8    cis''8    a'8    fis'8    cis''8    d''8    e''8    
\bar "|"   a'4    b'8    cis''8    a'8    fis'8    b'8    gis'8    e'8    
\bar "|"   fis'8    gis'8    fis'8    fis'4    eis'8    fis'8    gis'8    a'8   
 }   \repeat volta 2 {   cis'8    e'8    cis'8    a'8    e'8    cis'8    a'8    
e'8    cis'8    \bar "|"   cis'8    e'8    cis'8    a'8    e'8    cis'8    
fis'8    gis'8    a'8    \bar "|"   cis'8    e'8    cis'8    a'8    e'8    
cis'8    a'8    e'8    cis'8    \bar "|"   fis'8    gis'8    fis'8    b'8    
gis'8    eis'8    fis'8    gis'8    a'8    }   
}

\score{
    <<

	\context Staff="default"
	{
	    \voicedefault 
	}

    >>
	\layout {
	}
	\midi {}
}
