\version "2.19.49"
% clairnote-type = sn
\include "clairnote.ly"
\header {
	transcription = "Mikethebook"
	crossRefNumber = "1"
	footnotes = ""
	meter = "Hornpipe"
	source = "https://thesession.org/tunes/980#setting24020"
	arranger = "Setting 5"
	tagline = \markup { \vspace #1.8 \sans \abs-fontsize #7.5 \wordwrap {Sheet music in \with-url \clairnoteTypeUrl { \clairnoteTypeName music notation} published by Paul Morris using \with-url #"http://www.lilypond.org" {LilyPond.} Automatically converted to LilyPond format from an ABC source file from \with-url #"https://thesession.org" {the Session} website: \with-url #"https://thesession.org/tunes/980#setting24020" {"https://thesession.org/tunes/980#setting24020"}}}
	title = "Humours Of Tullycrine, The"
}
voicedefault =  {
\set Score.defaultBarType = ""

\time 4/4 \key e \dorian   g'4    e'8    fis'8    g'4. ^"~"    a'8  \bar "|"   
b'8    e''8  \grace {    a''16  }   e''8    d''8    a'8    b'8  \grace {    
cis''16  }   a'8    fis'8  \bar "|"   g'4. ^"~"    e'8    fis'4 ^"~"    d'8    
e'8  \bar "|"   fis'8    a'8    a'8    b'8  \grace {    cis''16  }   a'8    
fis'8    d'8    fis'8  \bar "|"     e'8    d'8    e'8    fis'8    g'4. ^"~"    
a'8  \bar "|"   b'8    e''8  \grace {    a''16  }   e''8    d''8    a'8    b'8  
\grace {    cis''16  }   a'8    fis'8  \bar "|"   g'8    r8   a'8    b'8  
\grace {    cis''16  }   a'8    fis'8    d'8    e'8  \bar "|"   fis'8    e'8  
\grace {    a'16  }   e'8    d'8    e'4    b'8    a'8  \bar "|"     g'4 ^"~"    
e'8    fis'8    g'4. ^"~"    a'8  \bar "|"   b'8    e''8  \grace {    a''16  }  
 e''8    d''8    a'8    b'8  \grace {    cis''16  }   a'8    fis'8  \bar "|"   
g'4. ^"~"    e'8    fis'4 ^"~"    d'8    e'8  \bar "|"   fis'8    r8 a'8    b'8 
 \grace {    cis''16  }   a'8    fis'8    d'8    fis'8  \bar "|"     d'8    e'8 
 \grace {    a'16  }   e'8    d'8    g'4. ^"~"    a'8  \bar "|"   b'8    r8 
e''8    d''8    a'8    b'8  \grace {    cis''16  }   a'8    fis'8  \bar "|"   
g'4. ^"~"    b'8  \grace {    cis''16  }   a'8    fis'8    d'8    e'8  \bar "|" 
  fis'8    e'8  \grace {    a'16  }   e'8    d'8    e'4 ^"~"    fis'8    a'8  
\bar "|"     b'8    e''8    e''4 ^"~"  \grace {    a''16  }   e''8    d''8    
b'8    a'8  \bar "|"   b'8    r8 \grace {    a''16  }   e''8    d''8  \grace {  
  a''16  }   e''8    d''8    b'8    a'8  \bar "|"   b'8    d''8  \grace {    
a''16  }   d''8    e''8    d''8    b'8    a'4 ^"~"  \bar "|" \tuplet 3/2 {   b'8 
   cis''8    d''8  }   cis''8    e''8    d''8    b'8  \grace {    cis''16  }   
a'8    fis'8  \bar "|"     e'8    d'8    e'8    fis'8    g'4. ^"~"    a'8  
\bar "|"   b'8    r8 \grace {    a''16  }   e''8    d''8    a'8    b'8  
\grace {    cis''16  }   a'8    fis'8  \bar "|"   g'4. ^"~"    e'8  \grace {    
cis''16  }   a'8    fis'8    d'8    fis'8  \bar "|"   g'8    e'8  \grace {    
a'16  }   e'8    d'8    e'4 ^"~"    fis'8    a'8    \bar "|"     b'8    r8 
\grace {    a''16  }   e''8    d''8  \grace {    a''16  }   e''8    d''8    b'8 
   a'8  \bar "|"   b'8    r8 \grace {    a''16  }   g''8    fis''8  \grace {    
a''16  }   e''8    d''8    b'8    a'8  \bar "|"   b'8    d''8    d''8    e''8   
 d''8    b'8    a'4 ^"~"  \bar "|" \tuplet 3/2 {   b'8    cis''8    d''8  }   
cis''8    e''8    d''8    b'8  \grace {    cis''16  }   a'8    fis'8  \bar "|"  
   e'8    d'8    e'8    fis'8    g'4. ^"~"    a'8  \bar "|"   b'8    r8 
\grace {    a''16  }   e''8    d''8    a'8    b'8  \grace {    cis''16  }   a'8 
   fis'8  \bar "|"   g'4 ^"~"    fis'8    g'8  \grace {    cis''16  }   a'8    
fis'8    d'8    e'8  \bar "|"   fis'8    e'8  \grace {    a'8  }   e'8    d'8   
 e'4  \bar "|"   
}

\score{
    <<

	\context Staff="default"
	{
	    \voicedefault 
	}

    >>
	\layout {
	}
	\midi {}
}
