\version "2.19.49"
% clairnote-type = sn
\include "clairnote.ly"
\header {
	transcription = "Will Harmon"
	crossRefNumber = "1"
	footnotes = ""
	meter = "Reel"
	source = "https://thesession.org/tunes/1428#setting14805"
	arranger = "Setting 3"
	tagline = \markup { \vspace #1.8 \sans \abs-fontsize #7.5 \wordwrap {Sheet music in \with-url \clairnoteTypeUrl { \clairnoteTypeName music notation} published by Paul Morris using \with-url #"http://www.lilypond.org" {LilyPond.} Automatically converted to LilyPond format from an ABC source file from \with-url #"https://thesession.org" {the Session} website: \with-url #"https://thesession.org/tunes/1428#setting14805" {"https://thesession.org/tunes/1428#setting14805"}}}
	title = "Humours Of Ballyconnell, The"
}
voicedefault =  {
\set Score.defaultBarType = ""

\time 4/4 \key d \major   d''8    e''8    fis''8    e''8    d''8    b'8    a'8  
  fis'8  \bar "|"   b'8    fis'8    a'8    fis'8    e'4. ^"~"    a'8  \bar "|"  
 d''8    e''8    fis''8    e''8    d''8    b'8    a'8    fis'8  \bar "|"   b'8  
  fis'8    a'8    fis'8    d'4.    a'8  \bar "|"   d''8    e''8    fis''8    
e''8    d''8    b'8    a'8    fis'8  \bar "|"   b'8    fis'8    a'8    fis'8    
e'4. ^"~"    a'8  \bar "|"   d''8    e''8    fis''8    e''8    d''8    b'8    
a'8    fis'8  \bar "|"   b'8    fis'8    a'8    fis'8    d'4    d'8    e'8  
\bar "||"   fis'16    e'16    d'8    a'8    d'8    b'8    d'8    a'8    fis'8  
\bar "|"   g'16    fis'16    e'8    b'8    e'8    d''8    e'8    b'8    e'8  
\bar "|"   fis'16    e'16    d'8    a'8    d'8    b'8    d'8    a'8    fis'8  
\bar "|"   g'8    b'8    a'8    fis'8    d'4    d'8    e'8  \bar "|"   fis'16   
 e'16    d'8    a'8    d'8    b'8    d'8    a'8    fis'8  \bar "|"   g'16    
fis'16    e'8    b'8    e'8    d''8    e'8    b'8    e'8  \bar "|"   fis'16    
e'16    d'8    a'8    d'8    b'8    d'8    a'8    fis'8  \bar "|"   g'8    b'8  
  a'8    fis'8    d'4    e''16    fis''16    g''8  \bar "|"   a''4. ^"~"    
b''8    a''8    fis''8    d''8    fis''8  \bar "|"   g''8    e''8    cis''8    
e''8    g''8    e''8    cis''8    e''8  \bar "|"   a''4    a''8    fis''8    
a''8    b''8    a''8    g''8  \bar "|"   fis''8    g''8    fis''8    e''8    
d''8    e''8    fis''8    g''8  \bar "|"   a''4. ^"~"    b''8    a''8    fis''8 
   d''8    fis''8  \bar "|"   g''8    e''8    cis''8    e''8    g''8    e''8    
cis''8    e''8  \bar "|"   a''4    a''8    fis''8    a''8    b''8    a''8    
g''8  \bar "|"   fis''8    g''8    fis''8    e''8    d''4    a'16    b'16    
cis''8  \bar "||"   
}

\score{
    <<

	\context Staff="default"
	{
	    \voicedefault 
	}

    >>
	\layout {
	}
	\midi {}
}
