\version "2.19.49"
% clairnote-type = sn
\include "clairnote.ly"
\header {
	transcription = "ceolachan"
	crossRefNumber = "1"
	footnotes = ""
	meter = "Barndance"
	source = "https://thesession.org/tunes/1376#setting21628"
	arranger = "Setting 12"
	tagline = \markup { \vspace #1.8 \sans \abs-fontsize #7.5 \wordwrap {Sheet music in \with-url \clairnoteTypeUrl { \clairnoteTypeName music notation} published by Paul Morris using \with-url #"http://www.lilypond.org" {LilyPond.} Automatically converted to LilyPond format from an ABC source file from \with-url #"https://thesession.org" {the Session} website: \with-url #"https://thesession.org/tunes/1376#setting21628" {"https://thesession.org/tunes/1376#setting21628"}}}
	title = "If We Hadn't Any Women In The World"
}
voicedefault =  {
\set Score.defaultBarType = ""

\time 4/4 \key d \major   \repeat volta 2 {   fis'8.    g'16    \bar "|"   a'8. 
   b'16    a'8.    fis'16    d'8.    e'16    fis'8.    d'16    \bar "|"   b4    
g'8.    b16    a4    d'8.    e'16    \bar "|"   fis'4    a'8.    fis'16    b'8. 
   fis'16    a'8.    fis'16    \bar "|"   b4    e'4    e'4    fis'8.    g'16    
\bar "|"     a'8.    b'16    a'8.    fis'16    d'8.    e'16    fis'8.    d'16   
 \bar "|"   b4    g'8.    b16    a4    d'8.    e'16    \bar "|"   fis'4    a'8. 
   fis'16    e'8.    d'16    e'8.    fis'16    \bar "|"   d'4    d'4    d'4    
}     \repeat volta 2 {   d''8.    cis''16    \bar "|"   b'4   ~    b'8.    
cis''16    d''4    cis''4    \bar "|"   b'4    a'4    a'4    fis'8.    g'16    
\bar "|"   fis'4    a'8.    fis'16    b'8.    fis'16    a'8.    fis'16    
\bar "|"   b4    e'4    e'4    fis'8.    g'16    \bar "|"     a'8.    b'16    
a'8.    fis'16    d'8.    e'16    fis'8.    d'16    \bar "|"   b4    g'8.    
b16    a4    d'8.    e'16    \bar "|"   fis'4    a'8.    fis'16    e'8.    d'16 
   e'8.    fis'16    \bar "|"   d'4    d'4    d'4    }   
}

\score{
    <<

	\context Staff="default"
	{
	    \voicedefault 
	}

    >>
	\layout {
	}
	\midi {}
}
