\version "2.19.49"
% clairnote-type = sn
\include "clairnote.ly"
\header {
	transcription = "Fiddler3"
	crossRefNumber = "1"
	footnotes = ""
	meter = "Barndance"
	source = "https://thesession.org/tunes/1376#setting27373"
	arranger = "Setting 13"
	tagline = \markup { \vspace #1.8 \sans \abs-fontsize #7.5 \wordwrap {Sheet music in \with-url \clairnoteTypeUrl { \clairnoteTypeName music notation} published by Paul Morris using \with-url #"http://www.lilypond.org" {LilyPond.} Automatically converted to LilyPond format from an ABC source file from \with-url #"https://thesession.org" {the Session} website: \with-url #"https://thesession.org/tunes/1376#setting27373" {"https://thesession.org/tunes/1376#setting27373"}}}
	title = "If We Hadn't Any Women In The World"
}
voicedefault =  {
\set Score.defaultBarType = ""

\time 4/4 \key g \major   \repeat volta 2 {   b'8.    c''16  \bar "|"   d''8.   
 e''16    d''8.    b'16    g'8.    a'16    b'8.    g'16  \bar "|"   e'4    
ees'4    d'4    g'8.    a'16  \bar "|"   b'8.    d''16    cis''8.    d''16    
e''8.    d''16    b'8.    g'16  \bar "|"   a'4    a'8    b'8    a'4    b'8.    
c''16    \bar "|"     d''8.    e''16    d''8.    b'16    g'8.    a'16    b'8.   
 g'16  \bar "|"   e'4    ees'4    d'4    g'8.    a'16  \bar "|"   b'8.    d''16 
   d''8.    b'16    a'8.    g'16    b'8.    a'16  \bar "|"   g'4    g'8    
fis'8    g'4  }     \repeat volta 2 { \tuplet 3/2 {   |
 b'8    c''8    d''8  } \bar "|"   e''4    e''8.    fis''16    g''4    g''8.    
fis''16  \bar "|"   e''8.    d''16    d''8.    b'16    d''4    \tuplet 3/2 {   
b'8    c''8    d''8  } \bar "|"   e''8.    d''16    b'8.    d''16    g''8.    
e''16    d''8.    b'16  \bar "|"   a'4    a'8    b'8    a'4    b'8.    c''16  
\bar "|"     d''8.    e''16    d''8.    b'16    g'8.    a'16    b'8.    g'16  
\bar "|"   e'4    ees'4    d'4    g'8.    a'16  \bar "|"   b'8.    d''16    
d''8.    b'16    a'8.    g'16    b'8.    a'16  \bar "|"   g'4    g'8    fis'8   
 g'4  }   
}

\score{
    <<

	\context Staff="default"
	{
	    \voicedefault 
	}

    >>
	\layout {
	}
	\midi {}
}
