\version "2.19.49"
% clairnote-type = sn
\include "clairnote.ly"
\header {
	transcription = "crannog"
	crossRefNumber = "1"
	footnotes = ""
	meter = "Reel"
	source = "https://thesession.org/tunes/619#setting619"
	arranger = "Setting 1"
	tagline = \markup { \vspace #1.8 \sans \abs-fontsize #7.5 \wordwrap {Sheet music in \with-url \clairnoteTypeUrl { \clairnoteTypeName music notation} published by Paul Morris using \with-url #"http://www.lilypond.org" {LilyPond.} Automatically converted to LilyPond format from an ABC source file from \with-url #"https://thesession.org" {the Session} website: \with-url #"https://thesession.org/tunes/619#setting619" {"https://thesession.org/tunes/619#setting619"}}}
	title = "In Memory Of Coleman"
}
voicedefault =  {
\set Score.defaultBarType = ""

\time 4/4 \key g \minor   f'4    \repeat volta 2 {   d'8    c''8    bes'8    
d''8    c''8    bes'8    g'8    f'8  \bar "|"   d'8    f'8    f'8    f'8    g'8 
   f'8    d'8    f'8  \bar "|"   g'8    a'8    bes'8    c''8    d''8    f''8    
g''8    a''8  \bar "|" \tuplet 3/2 {   bes''8    a''8    g''8  }   g''8    f''8  
  d''8    g''8    g''8    a''8  \bar "|"     \tuplet 3/2 {   bes''8    a''8    
g''8  }   g''8    f''8    g''8    f''8    d''8    c''8    \bar "|" \tuplet 3/2 { 
  bes'8    c''8    d''8  }   bes'8    g'8    f'8    d'8    c'8    d'8  \bar "|" 
  f'8    g'8    a'8    bes'8    c''4    c''4  \bar "|"   bes'8    c''8    bes'8 
   c''8    a'8    bes'8    g'8    g'8    }     \repeat volta 2 {   bes'8    
f''8    f''4    a''4    f''4  \bar "|"   bes'8    bes'8    c''8    bes'8    a'8 
   f'8    f'4  \bar "|"   bes'4    \tuplet 3/2 {   d''8    c''8    bes'8  }   
f''4    a''4  \bar "|"   f'8    g'8    a'8    d''8    bes'8    g'8    g'4  
\bar "|"     f''8    bes'8    f''8    bes'8    bes'8    bes'8    f''8    bes'8  
\bar "|"   bes'8    bes'8    c''8    bes'8    a'8    f'8    f'4  \bar "|"   g'8 
   a'8    bes'8    c''8    d''8    bes''8    a''8    g''8  \bar "|"   f''8    
d''8    \tuplet 3/2 {   c''8    bes'8    a'8  }   bes'8    g'8    g'4    }   
}

\score{
    <<

	\context Staff="default"
	{
	    \voicedefault 
	}

    >>
	\layout {
	}
	\midi {}
}
