\version "2.19.49"
% clairnote-type = sn
\include "clairnote.ly"
\header {
	transcription = "JACKB"
	crossRefNumber = "1"
	footnotes = ""
	meter = "Jig"
	source = "https://thesession.org/tunes/92#setting25137"
	arranger = "Setting 13"
	tagline = \markup { \vspace #1.8 \sans \abs-fontsize #7.5 \wordwrap {Sheet music in \with-url \clairnoteTypeUrl { \clairnoteTypeName music notation} published by Paul Morris using \with-url #"http://www.lilypond.org" {LilyPond.} Automatically converted to LilyPond format from an ABC source file from \with-url #"https://thesession.org" {the Session} website: \with-url #"https://thesession.org/tunes/92#setting25137" {"https://thesession.org/tunes/92#setting25137"}}}
	title = "Irish Washerwoman, The"
}
voicedefault =  {
\set Score.defaultBarType = ""

\time 6/8 \key d \major   \repeat volta 2 {   fis'8    d'8    d'8    a'8    d'8 
   d'8  \bar "|"   fis'8    d'8    fis'8    a'8    g'8    fis'8  \bar "|"   g'8 
   e'8    e'8    b'8    e'8    e'8  \bar "|"   g'8    e'8    g'8    b'8    a'8  
  g'8  \bar "|"     fis'8    d'8    d'8    a'8    d'8    d'8  \bar "|"   fis'8  
  d'8    fis'8    a'8    g'8    fis'8  \bar "|"   g'8    fis'8    g'8    e'8    
a'8    g'8  \bar "|"   fis'8    d'8    d'8    d'4.  }     \repeat volta 2 {   
d''8    a'8    d''8    d''8    a'8    d''8  \bar "|"   d''8    a'8    d''8    
fis''8    e''8    d''8  \bar "|"   cis''8    a'8    cis''8    cis''8    a'8    
cis''8  \bar "|"   cis''8    a'8    cis''8    e''8    d''8    cis''8  \bar "|"  
   b'8    d''8    d''8    a'8    d''8    d''8  \bar "|"   g'8    d''8    d''8   
 fis'4    fis'8  \bar "|"   g'8    fis'8    g'8    e'8    a'8    g'8  
} \alternative{{   fis'8    d'8    d'8    d'4    a'8  } {   fis'8    d'8    d'8 
   d'4    e'8  \bar "||"   }}
}

\score{
    <<

	\context Staff="default"
	{
	    \voicedefault 
	}

    >>
	\layout {
	}
	\midi {}
}
