\version "2.19.49"
% clairnote-type = sn
\include "clairnote.ly"
\header {
	transcription = "Dr. Dow"
	crossRefNumber = "1"
	footnotes = ""
	meter = "Reel"
	source = "https://thesession.org/tunes/1112#setting22767"
	arranger = "Setting 5"
	tagline = \markup { \vspace #1.8 \sans \abs-fontsize #7.5 \wordwrap {Sheet music in \with-url \clairnoteTypeUrl { \clairnoteTypeName music notation} published by Paul Morris using \with-url #"http://www.lilypond.org" {LilyPond.} Automatically converted to LilyPond format from an ABC source file from \with-url #"https://thesession.org" {the Session} website: \with-url #"https://thesession.org/tunes/1112#setting22767" {"https://thesession.org/tunes/1112#setting22767"}}}
	title = "Ivy Leaf, The"
}
voicedefault =  {
\set Score.defaultBarType = ""

\time 4/4 \key a \mixolydian   a'8    e'8    a'8    e''8    cis''8    a'8    
e''8    cis''8  \bar "|"   a'8    e''8    cis''8    e''8    d''8    b'8    g'8  
  r8 \bar "|"   a'8    e'8    a'8    e''8    cis''8    a'8    e''8    cis''8  
\bar "|"   a'8    g'8    e'8    fis'8    g'8    r8 b'8    g'8  \bar "|"     a'8 
   e''8    e''4 ^"~"    cis''8    e''8    e''4 ^"~"  \bar "|"   a'8    e''8    
cis''8    e''8    d''8    b'8    g'8    b'8  \bar "|"   a'8    e'8    a'8    
e''8    cis''8    a'8    e''8    cis''8  \bar "|"   a'8    g'8    e'8    fis'8  
  g'8    r8 b'8    d''8  \bar "||"     e''8    a''8    a''8    g''8    e''8    
a'8    b'8    d''8  \bar "|"   e''8    g''8    g''4 ^"~"    d''8    r8 
\tuplet 3/2 {   b'8    cis''8    d''8  } \bar "|"   e''8    a''8    a''8    g''8 
   e''8    d''8    cis''8    a'8  \bar "|"   g'8    b'8    e'8    fis'8    g'8  
  r8 b'8    d''8  \bar "|"     e''8    a''8    a''8    g''8    e''8    a'8    
b'8    d''8  \bar "|"   e''8    g''8    g''4 ^"~"    e''8    g''8    d''8    
b'8  \bar "|"   a'8    g'8    a'8    b'8    c''8    b'8    c''8    d''8  
\bar "|"   e''8    r8 fis''4 ^"~"    g''8    e''8    d''8    b'8  \bar "||"     
a'4    a'4 ^"~"    \tuplet 3/2 {   b'8    cis''8    d''8  }   e''8    cis''8  
\bar "|"   a'8    e''8    cis''8    e''8    d''8    b'8    g'8    r8 \bar "|"   
a'8    e'8    a'8    e''8    cis''8    a'8    e''8    cis''8  \bar "|"   a'8    
g'8    e'8    fis'8    g'8    r8 b'8    g'8  \bar "|"     a'8    e''8    e''4 
^"~"    cis''8    e''8    e''4 ^"~"  \bar "|"   a'8    e''8    cis''8    e''8   
 d''8    b'8    g'8    r8 \bar "|"   a'8    e'8    a'8    e''8    cis''8    a'8 
   e''8    cis''8  \bar "|"   a'8    g'8    e'8    fis'8    g'8    r8 b'8    
d''8  \bar "||"     e''8    a''8    a''8    g''8    e''8    a'8    b'8    d''8  
\bar "|"   e''8    g''8    g''4 ^"~"    d''8    g'8    \tuplet 3/2 {   b'8    
cis''8    d''8  } \bar "|"   e''8    r8 a''8    g''8    e''8    d''8    cis''8  
  a'8  \bar "|"   g'8    b'8    e'8    fis'8    g'8    a'8    b'8    d''8  
\bar "|"     e''8    r8 a''8    g''8    e''8    a''8    fis''8    a''8  
\bar "|"   g''4. ^"~"    e''8    d''8    b'8    g'8    b'8  \bar "|"   a'8    
g'8    a'8    b'8    c''4. ^"~"    d''8  \bar "|"   e''8    r8 fis''8    a''8   
 g''8    e''8    d''8    b'8  \bar "||"   
}

\score{
    <<

	\context Staff="default"
	{
	    \voicedefault 
	}

    >>
	\layout {
	}
	\midi {}
}
