\version "2.19.49"
% clairnote-type = sn
\include "clairnote.ly"
\header {
	transcription = "Dr. Dow"
	crossRefNumber = "1"
	footnotes = ""
	meter = "Hornpipe"
	source = "https://thesession.org/tunes/1097#setting14341"
	arranger = "Setting 4"
	tagline = \markup { \vspace #1.8 \sans \abs-fontsize #7.5 \wordwrap {Sheet music in \with-url \clairnoteTypeUrl { \clairnoteTypeName music notation} published by Paul Morris using \with-url #"http://www.lilypond.org" {LilyPond.} Automatically converted to LilyPond format from an ABC source file from \with-url #"https://thesession.org" {the Session} website: \with-url #"https://thesession.org/tunes/1097#setting14341" {"https://thesession.org/tunes/1097#setting14341"}}}
	title = "Jack's The Lad"
}
voicedefault =  {
\set Score.defaultBarType = ""

\repeat volta 2 {
\time 4/4 \key g \major   g'8    fis'8  \bar "|"   g'4    g4    g4    d'8    
c'8  \bar "|"   b8    d'8    g'8    fis'8    g'8    b'8    a'8    g'8  \bar "|" 
  a'4    a4    a4    a'8    g'8  \bar "|"   fis'8    a'8    d''4    d''4    
e''8    fis''8  \bar "|"   g''8    fis''8    e''8    d''8    e''8    d''8    
c''8    b'8  \bar "|"   c''8    b'8    a'8    g'8    g'8    fis'8    e'8    d'8 
 \bar "|"   e'8    g'8    fis'8    a'8    g'8    b'8    a'8    c''8  \bar "|"   
b'4    g'4    g'4  }   \repeat volta 2 {   d'8    c'8  \bar "|"   b8    d'8    
g'8    d'8    b8    d'8    g'8    d'8  \bar "|"   e'4    c'4    c'4    e'8    
d'8  \bar "|"   cis'8    e'8    a'8    e'8    cis'8    e'8    a'8    e'8  
\bar "|"   fis'4    d'4    d'4    a'8    b'8  \bar "|"   c''8    b'8    c''8    
d''8    e''8    d''8    c''8    b'8  \bar "|"   c''8    b'8    a'8    g'8    
g'8    fis'8    e'8    d'8  \bar "|"   e'8    g'8    fis'8    a'8    g'8    b'8 
   a'8    c''8  \bar "|"   b'4    g'4    g'4  }   
}

\score{
    <<

	\context Staff="default"
	{
	    \voicedefault 
	}

    >>
	\layout {
	}
	\midi {}
}
