\version "2.19.49"
% clairnote-type = sn
\include "clairnote.ly"
\header {
	transcription = "Dr. Dow"
	crossRefNumber = "1"
	footnotes = ""
	meter = "Barndance"
	source = "https://thesession.org/tunes/246#setting12952"
	arranger = "Setting 3"
	tagline = \markup { \vspace #1.8 \sans \abs-fontsize #7.5 \wordwrap {Sheet music in \with-url \clairnoteTypeUrl { \clairnoteTypeName music notation} published by Paul Morris using \with-url #"http://www.lilypond.org" {LilyPond.} Automatically converted to LilyPond format from an ABC source file from \with-url #"https://thesession.org" {the Session} website: \with-url #"https://thesession.org/tunes/246#setting12952" {"https://thesession.org/tunes/246#setting12952"}}}
	title = "James Gannon's"
}
voicedefault =  {
\set Score.defaultBarType = ""

\time 4/4 \key g \major   b'4    ais'8    b'8    e''4    d''8    b'8  \bar "|"  
 d''4    c''8    a'8    e'4    fis'8    g'8    a'8    gis'8    a'8    b'8    
c''8    a'8    fis'8    a'8  \bar "|"   g'8    a'8    b'8    g'8    d'4    b4  
\bar "|"   b'4    ais'8    b'8    e''4    d''8    b'8  \bar "|"   d''4    c''8  
  a'8    e'4    fis'8    g'8  \bar "|"   a'8    gis'8    a'8    b'8    c''8    
a'8    fis'8    a'8  \bar "|"   g'4    g'8    fis'8    g'2  \bar ":|."   g'4    
g''4    g''4.    fis''8  \bar "||"   \bar ".|:"   e''8    dis''8    e''8    
fis''8    g''8    fis''8    g''8    a''8  \bar "|"   b''4    d''4    d''4.    
b'8  \bar "|"   c''8    b'8    a'8    b'8    c''8    d''8    e''8    fis''8  
\bar "|"   g''4    b'4    g''8    a''8    g''8    fis''8  \bar "|"   e''8    
dis''8    e''8    fis''8    g''8    fis''8    g''8    a''8  \bar "|"   b''4    
d''4    d''4.    b'8  \bar "|"   c''8    b'8    a'8    b'8    c''8    a'8    
fis'8    a'8  \bar "|"   g'4    g''4    g''4.    fis''8  \bar ":|."   g'4    
g'8    fis'8    g'2  \bar "||"   
}

\score{
    <<

	\context Staff="default"
	{
	    \voicedefault 
	}

    >>
	\layout {
	}
	\midi {}
}
