\version "2.19.49"
% clairnote-type = sn
\include "clairnote.ly"
\header {
	transcription = "JD"
	crossRefNumber = "1"
	footnotes = ""
	meter = "Slip Jig"
	source = "https://thesession.org/tunes/266#setting266"
	arranger = "Setting 1"
	tagline = \markup { \vspace #1.8 \sans \abs-fontsize #7.5 \wordwrap {Sheet music in \with-url \clairnoteTypeUrl { \clairnoteTypeName music notation} published by Paul Morris using \with-url #"http://www.lilypond.org" {LilyPond.} Automatically converted to LilyPond format from an ABC source file from \with-url #"https://thesession.org" {the Session} website: \with-url #"https://thesession.org/tunes/266#setting266" {"https://thesession.org/tunes/266#setting266"}}}
	title = "James Byrne's"
}
voicedefault =  {
\set Score.defaultBarType = ""

\time 9/8 \key d \major   d''8    fis''8    a''8    a''8    fis''8    d''8    
d''8    cis''8    d''8  \bar "|"   b'8    cis''8    d''8    e''16    fis''16    
e''8    d''8    cis''8    b'8    a'8  \bar "|"   d''8    fis''8    a''8    a''8 
   fis''8    d''8    d''8    cis''8    d''8  \bar "|"   b'8    cis''8    d''8   
 e''8    cis''8    a'8    d''4    a'8  \bar ":|."   b'8    cis''8    d''8    
e''8    cis''8    a'8    d''8    e''8    fis''8  \bar "||"     \bar ".|:"   e''8 
   cis''8    a'8    a'4. ^"~"    e''8    cis''8    a'8  \bar "|"   d''4    e''8 
   fis''8    d''8    fis''8    a''8    g''8    fis''8  \bar "|"   e''8    
cis''8    a'8    a'4. ^"~"    e''8    cis''8    a'8  \bar "|"   d''4    e''8    
fis''8    d''8    cis''8    d''8    e''8    fis''8  \bar ":|."   d''4    e''8   
 fis''8    d''8    cis''8    d''4    a'8  \bar "||"   
}

\score{
    <<

	\context Staff="default"
	{
	    \voicedefault 
	}

    >>
	\layout {
	}
	\midi {}
}
