\version "2.19.49"
% clairnote-type = sn
\include "clairnote.ly"
\header {
	transcription = "Dr. Dow"
	crossRefNumber = "1"
	footnotes = ""
	meter = "Slip Jig"
	source = "https://thesession.org/tunes/266#setting23206"
	arranger = "Setting 3"
	tagline = \markup { \vspace #1.8 \sans \abs-fontsize #7.5 \wordwrap {Sheet music in \with-url \clairnoteTypeUrl { \clairnoteTypeName music notation} published by Paul Morris using \with-url #"http://www.lilypond.org" {LilyPond.} Automatically converted to LilyPond format from an ABC source file from \with-url #"https://thesession.org" {the Session} website: \with-url #"https://thesession.org/tunes/266#setting23206" {"https://thesession.org/tunes/266#setting23206"}}}
	title = "James Byrne's"
}
voicedefault =  {
\set Score.defaultBarType = ""

\repeat volta 2 {
\time 9/8 \key g \major   d'8  \bar "|"   g'4    g''8    d''8    b'8    g'8    
g'8    fis'8    g'8  \bar "|"   e'8    fis'8    g'8    a'8    b'8    g'8    
fis'8    e'8    d'8  \bar "|"   g'4    g''8    d''8    b'8    g'8    g'8    
fis'8    g'8  \bar "|"   e'8    fis'8    g'8    a'8    fis'8    d'8    g'4  }   
  \repeat volta 2 {   b'8  \bar "|"   a'8    fis'8    d'8    a'8    fis'8    
d'8    d'8    e'8    fis'8  \bar "|"   g'8    a'8    b'8    c''8    b'8    a'8  
  b'8    a'8    g'8  \bar "|"   a'8    fis'8    d'8    a'8    fis'8    d'8    
d'8    e'8    fis'8  \bar "|"   g'8    a'8    b'8    c''8    a'8    fis'8    
g'4  }   
}

\score{
    <<

	\context Staff="default"
	{
	    \voicedefault 
	}

    >>
	\layout {
	}
	\midi {}
}
