\version "2.19.49"
% clairnote-type = sn
\include "clairnote.ly"
\header {
	transcription = "Ger the Rigger"
	crossRefNumber = "1"
	footnotes = ""
	meter = "Reel"
	source = "https://thesession.org/tunes/370#setting13181"
	arranger = "Setting 4"
	tagline = \markup { \vspace #1.8 \sans \abs-fontsize #7.5 \wordwrap {Sheet music in \with-url \clairnoteTypeUrl { \clairnoteTypeName music notation} published by Paul Morris using \with-url #"http://www.lilypond.org" {LilyPond.} Automatically converted to LilyPond format from an ABC source file from \with-url #"https://thesession.org" {the Session} website: \with-url #"https://thesession.org/tunes/370#setting13181" {"https://thesession.org/tunes/370#setting13181"}}}
	title = "Jenny's Welcome To Charlie"
}
voicedefault =  {
\set Score.defaultBarType = ""

\time 4/4 \key d \dorian   \repeat volta 2 {   e''8    a''4. ^"~"  \grace {    
b''8  }   a''8    g''8    e''8    fis''8  \bar "|"   g''4 ^"~"    a''8    g''8  
\grace {    b''8  }   g''8    e''8    d''8    g''8  \bar "|"   e''8    a''4. 
^"~"  \grace {    b''8  }   a''8    g''8    e''8    d''8  \bar "|"   e''8    
a''8  \grace {    b''8  }   a''8    g''8    e''8    d''8    d''8    g''8  
\bar "|"   \bar "|" \tuplet 3/2 {   a''8    g''8    a''8  }   e''8    a''8  
\grace {    b''8  }   a''8    g''8    e''8    fis''8  \bar "|"   g''4 ^"~"    
a''8    g''8    g''8    e''8    d''8    b'8  \bar "|"   g'8    a'8  
\tuplet 3/2 {   b'8    c''8    d''8  }   e''8    c''8    d''8    c''8  
} \alternative{{   a'8    g'8    c''8    g'8    e'8    g'8    g'8    g''8  } {  
 a'8    g'8    c''8    g'8    e'8    g'8    g'8    c''8  \bar "|"   }}
}

\score{
    <<

	\context Staff="default"
	{
	    \voicedefault 
	}

    >>
	\layout {
	}
	\midi {}
}
