\version "2.19.49"
% clairnote-type = sn
\include "clairnote.ly"
\header {
	transcription = "gian marco"
	crossRefNumber = "1"
	footnotes = ""
	meter = "Reel"
	source = "https://thesession.org/tunes/756#setting13868"
	arranger = "Setting 2"
	tagline = \markup { \vspace #1.8 \sans \abs-fontsize #7.5 \wordwrap {Sheet music in \with-url \clairnoteTypeUrl { \clairnoteTypeName music notation} published by Paul Morris using \with-url #"http://www.lilypond.org" {LilyPond.} Automatically converted to LilyPond format from an ABC source file from \with-url #"https://thesession.org" {the Session} website: \with-url #"https://thesession.org/tunes/756#setting13868" {"https://thesession.org/tunes/756#setting13868"}}}
	title = "Jenny's Chickens"
}
voicedefault =  {
\set Score.defaultBarType = ""

\time 4/4 \key b \minor   \bar "|"   fis''4. ^"~"    e''8    fis''8    e''8    
cis''8    e''8    \bar "|"   fis''4. ^"~"    a''8    e''8    a'8    cis''8    
e''8    \bar "|"   fis''4. ^"~"    a''8    fis''8    e''8    cis''8    e''8    
\bar "|"   fis''4 ^"~"    a''8    fis''8    e''8    a'8    cis''8    e''8    
\bar "|"   fis''4. ^"~"    a''8    fis''8    e''8    cis''8    e''8    \bar "|" 
  fis''4. ^"~"    e''8    e''4 ^"~"    cis''8    e''8    \bar "|"   fis''4. 
^"~"    a''8    fis''8    e''8    cis''8    e''8    \bar "|"   fis''4 ^"~"    
a''8    fis''8    e''8    a'8    cis''8    e''8    \bar "|"   \repeat volta 2 { 
  fis''8    b'8    b'8    a'8    b'4. ^"~"    e''8    \bar "|"   fis''8    b'8  
  b'4 ^"~"    a'8    b'8    cis''8    e''8    \bar "|"   fis''8    b'8    b'8   
 a'8    b'4. ^"~"    e''8    \bar "|"   fis''4 ^"~"    a''8    fis''8    e''8   
 a'8    cis''8    e''8    \bar "|"   fis''8    b'8    b'4 ^"~"    fis''8    b'8 
   b'4 ^"~"    \bar "|"   fis''8    b'8    b'4 ^"~"    a'8    b'8    cis''8    
e''8    \bar "|"   fis''8    b'8    b'8    a'8    b'4. ^"~"    e''8    \bar "|" 
  fis''4 ^"~"    a''8    fis''8    e''8    a'8    cis''8    a'8    }   
\repeat volta 2 {   b'4 ^"~"    b''4 ^"~"    a'8    b'8    g''8    b'8    
\bar "|"   b'4 ^"~"    a'8    b'8    e''8    a'8    cis''8    a'8    \bar "|"   
b'4    b''4 ^"~"    a'8    b'8    g''8    e''8    } \alternative{{   fis''4 
^"~"    a''8    fis''8    e''8    a'8    cis''8    a'8    } {   fis''4 ^"~"    
a''8    fis''8    e''8    a'8    cis''8    e''8    \bar "||"   }}
}

\score{
    <<

	\context Staff="default"
	{
	    \voicedefault 
	}

    >>
	\layout {
	}
	\midi {}
}
