\version "2.19.49"
% clairnote-type = sn
\include "clairnote.ly"
\header {
	transcription = "Dr. Dow"
	crossRefNumber = "1"
	footnotes = ""
	meter = "Reel"
	source = "https://thesession.org/tunes/1252#setting1252"
	arranger = "Setting 1"
	tagline = \markup { \vspace #1.8 \sans \abs-fontsize #7.5 \wordwrap {Sheet music in \with-url \clairnoteTypeUrl { \clairnoteTypeName music notation} published by Paul Morris using \with-url #"http://www.lilypond.org" {LilyPond.} Automatically converted to LilyPond format from an ABC source file from \with-url #"https://thesession.org" {the Session} website: \with-url #"https://thesession.org/tunes/1252#setting1252" {"https://thesession.org/tunes/1252#setting1252"}}}
	title = "Jigging The Donkey"
}
voicedefault =  {
\set Score.defaultBarType = ""

\repeat volta 2 {
\time 4/4 \key a \dorian   a'4. ^"~"    g'8    a'8    b'8    c''8    b'8  
\bar "|" \tuplet 3/2 {   a'8    b'8    a'8  }   g'8    e'8    d'4    
\tuplet 3/2 {   e'8    fis'8    g'8  } \bar "|"   a'4. ^"~"    g'8    a'8    b'8 
   c''8    b'8  \bar "|" \tuplet 3/2 {   a'8    b'8    a'8  }   g'8    e'8    
a'8    d'8    d'4 ^"~"  }     e''8    a''8  \grace {    b''8  }   a''8    g''8  
  e''4. ^"~"    d''8  \bar "|"   c''8    d''8    e''8    g''8  \grace {    a''8 
 }   g''8    e''8    d''8    g''8  \bar "|"   e''8    a''8  \grace {    b''8  } 
  a''8    g''8    d''8    e''8  \grace {    g''8  }   e''8    d''8  \bar "|"   
c''8    a'8    b'8    g'8    a'4    \tuplet 3/2 {   b'8    c''8    d''8  } 
\bar "|"     e''8    a''8  \grace {    b''8  }   a''8    g''8    e''4. ^"~"    
d''8  \bar "|"   c''8    d''8    e''8    g''8  \grace {    a''8  }   g''8    
e''8    d''8    b'8  \bar "|" \grace {    d''8  }   c''4    a'8    b'8    c''8  
  d''8    e''8    fis''8  \bar "|"   g''8    e''8    d''8    b'8    
\tuplet 3/2 {   c''8    d''8    c''8  }   b'8    c''8  \bar "||"   
}

\score{
    <<

	\context Staff="default"
	{
	    \voicedefault 
	}

    >>
	\layout {
	}
	\midi {}
}
