\version "2.19.49"
% clairnote-type = sn
\include "clairnote.ly"
\header {
	transcription = "Earl Adams"
	crossRefNumber = "1"
	footnotes = ""
	meter = "Reel"
	source = "https://thesession.org/tunes/1299#setting14610"
	arranger = "Setting 4"
	tagline = \markup { \vspace #1.8 \sans \abs-fontsize #7.5 \wordwrap {Sheet music in \with-url \clairnoteTypeUrl { \clairnoteTypeName music notation} published by Paul Morris using \with-url #"http://www.lilypond.org" {LilyPond.} Automatically converted to LilyPond format from an ABC source file from \with-url #"https://thesession.org" {the Session} website: \with-url #"https://thesession.org/tunes/1299#setting14610" {"https://thesession.org/tunes/1299#setting14610"}}}
	title = "Jimmy's Return"
}
voicedefault =  {
\set Score.defaultBarType = ""

\time 4/4 \key b \minor   \repeat volta 2 {   fis''4    b'8    cis''8    d''8   
 fis''8    e''8    d''8    \bar "|"   cis''8    a'8    e''8    a'8    a''8    
e''8    cis''8    e''8    \bar "|"   fis''4    b'8    cis''8    d''8    fis''8  
  e''8    d''8    \bar "|"   cis''8    a''8    e''8    cis''8    d''8    b'8    
b'4    \bar "|"   \bar "|"   fis''4    b'8    cis''8    d''8    fis''8    e''8  
  d''8    \bar "|"   cis''8    a'8    cis''8    e''8    a''8    e''8    cis''8  
  a'8    \bar "|"   b'8    cis''8    d''8    b'8    cis''8    d''8    e''8    
g''8    \bar "|"   fis''8    a''8    e''8    cis''8    d''8    b'8    b'8    
a'8    }   \repeat volta 2 {   b'4    b''8    a''8    fis''8    a''8    e''8    
d''8    \bar "|"   cis''8    a'8    e''8    a'8    a''8    e''8    cis''8    
a'8    \bar "|"   b'4    b''8    a''8    fis''8    a''8    e''8    d''8    
\bar "|"   cis''8    a''8    e''8    cis''8    d''8    b'8    b'8    a'8    
\bar "|"   \bar "|"   b'4    b''8    a''8    fis''8    a''8    e''8    d''8    
\bar "|"   cis''8    a'8    e''8    a'8    a''8    e''8    cis''8    a'8    
\bar "|"   b'8    cis''8    d''8    b'8    cis''8    d''8    e''8    g''8    
\bar "|"   fis''8    a''8    e''8    cis''8    d''8    b'8    b'4    }   
}

\score{
    <<

	\context Staff="default"
	{
	    \voicedefault 
	}

    >>
	\layout {
	}
	\midi {}
}
