\version "2.19.49"
% clairnote-type = sn
\include "clairnote.ly"
\header {
	transcription = "Dr. Dow"
	crossRefNumber = "1"
	footnotes = ""
	meter = "Slip Jig"
	source = "https://thesession.org/tunes/1470#setting1470"
	arranger = "Setting 1"
	tagline = \markup { \vspace #1.8 \sans \abs-fontsize #7.5 \wordwrap {Sheet music in \with-url \clairnoteTypeUrl { \clairnoteTypeName music notation} published by Paul Morris using \with-url #"http://www.lilypond.org" {LilyPond.} Automatically converted to LilyPond format from an ABC source file from \with-url #"https://thesession.org" {the Session} website: \with-url #"https://thesession.org/tunes/1470#setting1470" {"https://thesession.org/tunes/1470#setting1470"}}}
	title = "Jockey Lay Up In The Hay Loft"
}
voicedefault =  {
\set Score.defaultBarType = ""

\repeat volta 2 {
\time 9/8 \key g \major   g'8    b'8    a'8    g'8    b'8    g'8    fis'4    
d'8  \bar "|"   g'8    b'8    a'8    g'4    b'8    c''8    a'8    fis'8  
\bar "|"   g'8    b'8    a'8    g'8    b'8    g'8    fis'4    d'8  \bar "|"   
f'8    g'8    a'8  \grace {    g''8  }   f''4    d''8  \grace {    f''8  }   
e''8    c''8    a'8  }     \repeat volta 2 {   b'16    c''16    d''8    b'8    
a'8    c''8    a'8  \grace {    c''8  }   b'4    g'8  \bar "|"   b'16    c''16  
  d''8    b'8    a'8    d''8    c''8    a'8    g'8    fis'!8  \bar "|"   g'8    
g''8    e''8  \grace {    g''8  }   fis''8    d''8    c''8    b'4    g'8  
\bar "|"   f'8    g'8    a'8  \grace {    g''8  }   f''4    d''8  \grace {    
f''8  }   e''8    c''8    a'8  }   
}

\score{
    <<

	\context Staff="default"
	{
	    \voicedefault 
	}

    >>
	\layout {
	}
	\midi {}
}
