\version "2.19.49"
% clairnote-type = sn
\include "clairnote.ly"
\header {
	transcription = "J. A. Cerro"
	crossRefNumber = "1"
	footnotes = ""
	meter = "Reel"
	source = "https://thesession.org/tunes/594#setting27870"
	arranger = "Setting 4"
	tagline = \markup { \vspace #1.8 \sans \abs-fontsize #7.5 \wordwrap {Sheet music in \with-url \clairnoteTypeUrl { \clairnoteTypeName music notation} published by Paul Morris using \with-url #"http://www.lilypond.org" {LilyPond.} Automatically converted to LilyPond format from an ABC source file from \with-url #"https://thesession.org" {the Session} website: \with-url #"https://thesession.org/tunes/594#setting27870" {"https://thesession.org/tunes/594#setting27870"}}}
	title = "Jug Of Punch, The"
}
voicedefault =  {
\set Score.defaultBarType = ""

\time 4/4 \key e \dorian   b8    e'8  \grace {    g'8  }   e'8    d'8    e'8    
fis'8    g'8    a'8  \bar "|"   b'4  \grace {    d''8  }   b'8    a'8    
\tuplet 3/2 {   b'8    cis''8    d''8  }   a'8    g'8  \bar "|"   fis'8    b8    
b4 ^"~"    d'8    e'8    fis'8    g'8  \bar "|"   a'8    b'8  \grace {    d''8  
}   b'8    a'8    g'8    e'8    fis'8    d'8  \bar "|"     b8    d'8    e'8    
fis'8    g'4    e'8    fis'8  \bar "|"   g'8    e'8    e'4 ^"~"    d'8    e'8   
 fis'8    a'8  \bar "|"   d''8    e''8    fis''8    e''8    d''8    b'8    a'8  
  fis'8  \bar "|"   g'8    e'8  \grace {    fis'8  }   e'8    d'8    d'8    e'8 
 \grace {    fis'8  }   e'8    d'8  \bar ":|."   g'8    e'8  \grace {    fis'8  
}   e'8    d'8    e'4.    a'8  \bar "|"     \bar ".|:"   b'4    e''8    fis''8   
 g''8    a''8    g''8    e''8  \bar "|"   fis''8    a''8    fis''8    e''8    
d''8    b'8    b'4 ^"~"  \bar "|"   a'8    fis'8    a'8    b'8    d''8    
cis''8    d''8    e''8  \bar "|" \tuplet 3/2 {   fis''8    g''8    a''8  }   
b''8    a''8    fis''8    e''8    d''8    e''8  \bar "|"     b'4    e''8    
fis''8    g''8 (   g''4 ^"~"  -)   e''8  \bar "|"   fis''8    a''8    fis''8    
e''8    d''8    b'8    b'8    cis''8  \bar "|"   d''8    cis''8    d''8    b'8  
\grace {    b'8  }   c''4  \grace {    c''8  }   b'8    a'8  \bar "|"   g'8    
e'8  \grace {    fis'8  }   e'8    d'8    e'4.    a'8  \bar ":|."   g'8    e'8  
\grace {    fis'8  }   e'8    d'8    e'8    fis'8    e'8    d'8  \bar "|."   
}

\score{
    <<

	\context Staff="default"
	{
	    \voicedefault 
	}

    >>
	\layout {
	}
	\midi {}
}
