\version "2.19.49"
% clairnote-type = sn
\include "clairnote.ly"
\header {
	transcription = "Jemtheflute"
	crossRefNumber = "1"
	footnotes = ""
	meter = "Reel"
	source = "https://thesession.org/tunes/589#setting28265"
	arranger = "Setting 8"
	tagline = \markup { \vspace #1.8 \sans \abs-fontsize #7.5 \wordwrap {Sheet music in \with-url \clairnoteTypeUrl { \clairnoteTypeName music notation} published by Paul Morris using \with-url #"http://www.lilypond.org" {LilyPond.} Automatically converted to LilyPond format from an ABC source file from \with-url #"https://thesession.org" {the Session} website: \with-url #"https://thesession.org/tunes/589#setting28265" {"https://thesession.org/tunes/589#setting28265"}}}
	title = "Julia Delaney's"
}
voicedefault =  {
\set Score.defaultBarType = ""

\time 4/4 \key d \dorian   d''8    c''8    a'8    g'8    f'4    d'8    f'8  
\bar "|"   e'4    c'8    e'8    f'4    d'4  \bar "|"   d''8    c''8    a'8    
g'8    f'4    d'8    f'8  \bar "|"   a'8    d''8  \grace {    e''8  }   d''8    
cis''8    d''8    e''8    f''8    e''8  \bar "|"     d''8    c''8    a'8    g'8 
   f'4    d'8    f'8  \bar "|"   e'4    c'8    e'8    f'4    d'4  \bar "|"   
d''8    c''8    a'8    g'8    f'4    d'8    f'8  \bar "|"   a'8    d''8  
\grace {    e''16  }   d''8    cis''8    d''2  \bar ":|."   a'8    d''8  
\grace {    e''16  }   d''8    cis''8    d''4.    e''8  \bar "|."     \bar ".|:" 
  f''8    e''8    d''8    e''8    f''8    a''8    g''8    f''8  \bar "|"   
e''16    d''16    c''8    g''8    c''8    a''8    c''8    g''8    c''8  
\bar "|"   f''8    e''8    d''8    e''8    f''8    a''8    g''8    f''8  
\bar "|"   e''8    d''8    c''8    b'8    a'8    d''8  \grace {    e''8  }   
d''8    e''8  \bar "|"     f''8    e''8    d''8    e''8    f''8    a''8    g''8 
   f''8  \bar "|"   e''16    d''16    c''8    g''8    c''8    a''8    c''8    
g''8    c''8  \bar "|"   f''8    e''8    d''8    e''8    e''8    d''8    c''8   
 b'8  \bar "|"   a'8    d''8    d''8    cis''8    d''4.    e''8  \bar ":|."   
a'8    d''8  \grace {    e''16  }   d''8    cis''8    d''2  \bar "|."   
}

\score{
    <<

	\context Staff="default"
	{
	    \voicedefault 
	}

    >>
	\layout {
	}
	\midi {}
}
