\version "2.19.49"
% clairnote-type = sn
\include "clairnote.ly"
\header {
	transcription = "ceolachan"
	crossRefNumber = "1"
	footnotes = ""
	meter = "Jig"
	source = "https://thesession.org/tunes/736#setting13816"
	arranger = "Setting 8"
	tagline = \markup { \vspace #1.8 \sans \abs-fontsize #7.5 \wordwrap {Sheet music in \with-url \clairnoteTypeUrl { \clairnoteTypeName music notation} published by Paul Morris using \with-url #"http://www.lilypond.org" {LilyPond.} Automatically converted to LilyPond format from an ABC source file from \with-url #"https://thesession.org" {the Session} website: \with-url #"https://thesession.org/tunes/736#setting13816" {"https://thesession.org/tunes/736#setting13816"}}}
	title = "Jump At The Sun"
}
voicedefault =  {
\set Score.defaultBarType = ""

\time 6/8 \key e \minor   \repeat volta 2 {   e'8    g'8    b'8    ais'4    b'8 
   \bar "|"   e'8    g'8    b'8    ais'4    b'8    \bar "|"   e''8    b'8    
b'8    e''8    b'8    b'8    \bar "|"   b'8    c''8    a'8    g'4    fis'8    
\bar "|"   e'8    g'8    b'8    ais'4    b'8    \bar "|"   e'8    g'8    b'8    
ais'4    b'8    \bar "|"   e''8    b'8    b'8    e''8    b'8    b'8    \bar "|" 
  g'4    fis'8    e'4.    }   \repeat volta 2 {   e''8    b'8    e''8    g''8   
 fis''8    e''8    \bar "|"   fis''8    d''8    fis''8    a''8    g''8    
fis''8    \bar "|"   e''8    b'8    e''8    g''8    fis''8    e''8    \bar "|"  
 fis''8    b'8    b'8    c''4    b'8    \bar "|"   e''8    b'8    e''8    g''8  
  fis''8    e''8    \bar "|"   fis''8    d''8    fis''8    a''8    g''8    
fis''8    \bar "|"   b'8    e''8    b'8    c''8    b'8    a'8    \bar "|"   g'4 
   fis'8    e'4.    }   
}

\score{
    <<

	\context Staff="default"
	{
	    \voicedefault 
	}

    >>
	\layout {
	}
	\midi {}
}
