\version "2.19.49"
% clairnote-type = sn
\include "clairnote.ly"
\header {
	transcription = "Josh Kane"
	crossRefNumber = "1"
	footnotes = ""
	meter = "Reel"
	source = "https://thesession.org/tunes/431#setting431"
	arranger = "Setting 1"
	tagline = \markup { \vspace #1.8 \sans \abs-fontsize #7.5 \wordwrap {Sheet music in \with-url \clairnoteTypeUrl { \clairnoteTypeName music notation} published by Paul Morris using \with-url #"http://www.lilypond.org" {LilyPond.} Automatically converted to LilyPond format from an ABC source file from \with-url #"https://thesession.org" {the Session} website: \with-url #"https://thesession.org/tunes/431#setting431" {"https://thesession.org/tunes/431#setting431"}}}
	title = "Kane's"
}
voicedefault =  {
\set Score.defaultBarType = ""

\time 4/4 \key d \mixolydian   \repeat volta 2 {   e''8    a'8    a'8    a'8    
e''8    a'8    a'8    a'8    \bar "|"   g'8    e'8    d'8    e'8    g'4.    g'8 
   \bar "|"   a'4    a'8    b'8    c''8    b'8    c''8    d''8    \bar "|"   
e''8    fis''8    g''8    e''8    d''8    g''8    fis''8    g''8    \bar "|"    
 e''8    a'8    a'8    a'8    e''8    a'8    a'8    a'8    \bar "|"   g'8    
e'8    d'8    e'8    g'4.    g'8    \bar "|"   a'4    a'8    b'8    c''8    b'8 
   c''8    d''8    \bar "|"   e''8    fis''8    g''8    e''8    d''8    c''8    
b'8    c''8    \bar "||"     d''8    g''8    g''8    g''8    d''8    g''8    
g''8    g''8    \bar "|"   e''8    a''8    a''8    a''8    e''8    a''8    a''8 
   a''8    \bar "|"   d''8    g''8    g''8    g''8    g''8    e''8    fis''8    
g''8    \bar "|"   a''8    fis''8    g''8    e''8    d''8    c''8    b'8    
c''8    \bar "|"     d''8    g''8    g''8    g''8    d''8    g''8    g''8    
g''8    \bar "|"   e''8    a''8    a''8    a''8    e''8    a''8    a''8    a''8 
   \bar "|"   d''8    g''8    g''8    g''8    g''8    e''8    fis''8    g''8    
\bar "|"   a''8    fis''8    g''8    e''8    d''4.    d''8    }   
}

\score{
    <<

	\context Staff="default"
	{
	    \voicedefault 
	}

    >>
	\layout {
	}
	\midi {}
}
