\version "2.19.49"
% clairnote-type = sn
\include "clairnote.ly"
\header {
	transcription = "The Merry Highlander"
	crossRefNumber = "1"
	footnotes = ""
	meter = "Slide"
	source = "https://thesession.org/tunes/882#setting14064"
	arranger = "Setting 3"
	tagline = \markup { \vspace #1.8 \sans \abs-fontsize #7.5 \wordwrap {Sheet music in \with-url \clairnoteTypeUrl { \clairnoteTypeName music notation} published by Paul Morris using \with-url #"http://www.lilypond.org" {LilyPond.} Automatically converted to LilyPond format from an ABC source file from \with-url #"https://thesession.org" {the Session} website: \with-url #"https://thesession.org/tunes/882#setting14064" {"https://thesession.org/tunes/882#setting14064"}}}
	title = "Kerry, The"
}
voicedefault =  {
\set Score.defaultBarType = ""

\time 12/8 \key d \major   \bar "|"   d'4    fis'8    a'4    a'8    \bar "|"   
b'8    d''8    b'8    a'8    fis'8    e'8    \bar "|"   d'4    fis'8    a'8    
fis'8    a'8    \bar "|"   b'4    cis''8    d''4    d''8    \bar "|"   \bar "|" 
  d'4    fis'8    a'4    a'8    \bar "|"   b'8    d''8    b'8    a'8    fis'8   
 a'8    \bar "|"   fis''8    e''8    d''8    cis''8    b'8    a'8    \bar "|"   
b'4    cis''8    d''4    e''8    \bar "|"   \bar "|"   fis''8    e''8    d''8   
 cis''8    b'8    a'8    \bar "|"   b'8    d''8    b'8    a'8    fis'8    a'8   
 \bar "|"   fis''8    e''8    d''8    cis''8    b'8    a'8    \bar "|"   b'4    
cis''8    d''4    e''8    \bar "|"   \bar "|"   fis''8    e''8    d''8    
cis''8    b'8    a'8    \bar "|"   b'8    d''8    b'8    a'8    fis'8    e'8    
\bar "|"   d'4    fis'8    a'4    a'8    \bar "|"   b'4    cis''8    d''4.    
\bar "|"   
}

\score{
    <<

	\context Staff="default"
	{
	    \voicedefault 
	}

    >>
	\layout {
	}
	\midi {}
}
