\version "2.19.49"
% clairnote-type = sn
\include "clairnote.ly"
\header {
	transcription = "Will Harmon"
	crossRefNumber = "1"
	footnotes = ""
	meter = "Slide"
	source = "https://thesession.org/tunes/882#setting14063"
	arranger = "Setting 2"
	tagline = \markup { \vspace #1.8 \sans \abs-fontsize #7.5 \wordwrap {Sheet music in \with-url \clairnoteTypeUrl { \clairnoteTypeName music notation} published by Paul Morris using \with-url #"http://www.lilypond.org" {LilyPond.} Automatically converted to LilyPond format from an ABC source file from \with-url #"https://thesession.org" {the Session} website: \with-url #"https://thesession.org/tunes/882#setting14063" {"https://thesession.org/tunes/882#setting14063"}}}
	title = "Kerry, The"
}
voicedefault =  {
\set Score.defaultBarType = ""

\time 12/8 \key g \major   \bar "|"   g8    b8    d'8    e'8    b8    d'8    
e'8    fis'8    g'8    d'8    b8    d'8  \bar "|"   g8    b8    d'8    e'8    
b8    d'8    e'4    fis'8    g'4.  \bar "|"   \bar "|"   g8    b8    d'8    e'8 
   b8    d'8    e'8    fis'8    g'8    d'8    b8    d'8  \bar "|"   b'8    a'8  
  g'8    a'8    g'8    fis'8    e'4    fis'8    g'4.  \bar ":|."   \bar "|"   
b'8    a'8    g'8    a'8    g'8    fis'8    e'4    fis'8    g'4    a'8  
\bar "||"   \bar "|"   b'8    a'8    g'8    a'8    g'8    fis'8    e'8    fis'8 
   g'8    d'8    b8    d'8  \bar "|"   b'8    a'8    g'8    a'8    g'8    fis'8 
   e'4    a'8    a'4    a'8  \bar "|"   \bar "|"   b'8    a'8    g'8    a'8    
g'8    fis'8    e'8    fis'8    g'8    d'8    b8    d'8  \bar "|"   g8    b8    
d'8    e'8    b8    d'8    e'4    fis'8    g'4    a'8  \bar ":|."   
}

\score{
    <<

	\context Staff="default"
	{
	    \voicedefault 
	}

    >>
	\layout {
	}
	\midi {}
}
