\version "2.19.49"
% clairnote-type = sn
\include "clairnote.ly"
\header {
	transcription = "Kevin Rietmann"
	crossRefNumber = "1"
	footnotes = ""
	meter = "Jig"
	source = "https://thesession.org/tunes/55#setting24888"
	arranger = "Setting 7"
	tagline = \markup { \vspace #1.8 \sans \abs-fontsize #7.5 \wordwrap {Sheet music in \with-url \clairnoteTypeUrl { \clairnoteTypeName music notation} published by Paul Morris using \with-url #"http://www.lilypond.org" {LilyPond.} Automatically converted to LilyPond format from an ABC source file from \with-url #"https://thesession.org" {the Session} website: \with-url #"https://thesession.org/tunes/55#setting24888" {"https://thesession.org/tunes/55#setting24888"}}}
	title = "Kesh, The"
}
voicedefault =  {
\set Score.defaultBarType = ""

\time 6/8 \key g \major   \repeat volta 2 {   g'4    d'8    g'8    a'8    b'8   
 \bar "|"   a'4    g'8    a'8    b'8    d''8    \bar "|"   e''8    d''8    e''8 
   g''8    d''8    b'8    \bar "|"   b'4    g'8    g'4    d'8    \bar "|"     
g'4    d'8    g'8    a'8    b'8    \bar "|"   a'4    g'8    a'8    b'8    d''8  
  \bar "|"   e''8    d''8    e''8    g''8    d''8    b'8    \bar "|"   b'4    
a'8    g'4.    }     \repeat volta 2 {   b'8    g''8    g''8    d''8    g''8    
g''8    \bar "|"   b'8    g''8    g''8    d''8    g''8    g''8    \bar "|"   
b'8    g''8    g''8    d''8    g''8    g''8    \bar "|"   b'4    g'8    a'8    
g'8    e'8    \bar "|"     b'8    g''8    g''8    d''8    g''8    g''8    
\bar "|"   g''4 ^"~"    e''8    d''4.    \bar "|"   g''4.    a''4.    
} \alternative{{   b''8    g''8    g''8    g''4.    } {   b''8    g''8    g''8  
  b'4    a'8    \bar "|"   }}
}

\score{
    <<

	\context Staff="default"
	{
	    \voicedefault 
	}

    >>
	\layout {
	}
	\midi {}
}
