\version "2.19.49"
% clairnote-type = sn
\include "clairnote.ly"
\header {
	transcription = "Moxhe"
	crossRefNumber = "1"
	footnotes = "\\\\The next part is the first part played an octave higher\\\\The next part is the second part played an octave highter"
	meter = "Slip Jig"
	source = "https://thesession.org/tunes/52#setting27534"
	arranger = "Setting 9"
	tagline = \markup { \vspace #1.8 \sans \abs-fontsize #7.5 \wordwrap {Sheet music in \with-url \clairnoteTypeUrl { \clairnoteTypeName music notation} published by Paul Morris using \with-url #"http://www.lilypond.org" {LilyPond.} Automatically converted to LilyPond format from an ABC source file from \with-url #"https://thesession.org" {the Session} website: \with-url #"https://thesession.org/tunes/52#setting27534" {"https://thesession.org/tunes/52#setting27534"}}}
	title = "Kid On The Mountain, The"
}
voicedefault =  {
\set Score.defaultBarType = ""

\repeat volta 2 {
\time 9/8 \key e \minor   e'8    e'8    e'8    e'4    fis'8    g'4    b'8  
\bar "|"   e'8    e'8    e'8    g'4    b'8    a'8    fis'8    d'8  \bar "|"   
e'8    e'8    e'8    e'4    fis'8    g'4    b'8  \bar "|"   a'8    b'8    a'8   
 a'8    fis'8    d'8    fis'8    g'8    a'8  }     \repeat volta 2 {   b'8    
c''8    b'8    a'8    b'8    a'8    g'4    a'8  \bar "|"   b'8    c''8    b'8   
 b'8    g'8    e'8    fis'8    g'8    a'8  \bar "|"   b'8    c''8    b'8    a'8 
   b'8    a'8    g'4    b'8  \bar "|"   a'8    b'8    a'8    a'8    fis'8    
d'8    fis'8    g'8    a'8  }     \repeat volta 2 {   b'8    c''8    b'8    
e''8    b'8    a'8    g'4    a'8  \bar "|"   b'8    c''8    b'8    b'8    g'8   
 e'8    fis'8    g'8    a'8  \bar "|"   b'8    c''8    b'8    e''8    b'8    
a'8    g'4    b'8  \bar "|"   a'8    b'8    a'8    a'8    fis'8    d'8    fis'8 
   g'8    a'8  }     \repeat volta 2 {   e''8    e''8    e''8    e''4    fis''8 
   g''4    b''8  \bar "|"   e''8    e''8    e''8    g''4    b''8    a''8    
fis''8    d''8  \bar "|"   e''8    e''8    e''8    e''4    fis''8    g''4    
b''8  \bar "|"   a''8    b''8    a''8    a''8    fis''8    d''8    fis''8    
g''8    a''8  }     \repeat volta 2 {   b''8    c'''8    b''8    a''8    b''8   
 a''8    g''4    a''8  \bar "|"   b''8    c'''8    b''8    b''8    g''8    e''8 
   fis''8    g''8    a''8  \bar "|"   b''8    c'''8    b''8    a''8    b''8    
a''8    g''4    b''8    \bar "|"   a''8    b''8    a''8    a''8    fis''8    
d''8    fis''8    g''8    a''8  }     \repeat volta 2 {   d''8    d''8    b'8   
 d''8    b'8    a'8    g'4    a'8  \bar "|"   b'8    c''8    b'8    b'8    g'8  
  e'8    g'8    a'8    b'8  \bar "|"   e''8    d''8    b'8    d''8    b'8    
a'8    g'4    b'8  \bar "|"   a'8    b'8    a'8    a'8    fis'8    d'8    fis'8 
   g'8    a'8  }     \repeat volta 2 {   g''8    fis''8    e''8    e''8    
fis''8    e''8    g''4    e''8  \bar "|"   g''8    fis''8    e''8    e''8    
g''8    e''8    b''8    g''8    e''8  \bar "|"   g''8    fis''8    e''8    e''8 
   fis''8    e''8    g''4    b''8  \bar "|"   a''8    b''8    a''8    a''8    
fis''8    d''8    fis''8    g''8    a''8  }     \repeat volta 2 {   g''8    
fis''8    e''8    fis''8    e''8    d''8    e''8    d''8    b'8  \bar "|"   
d''8    b'8    a'8    b'8    g'8    e'8    g'8    a'8    b'8  \bar "|"   g''8   
 fis''8    e''8    fis''8    e''8    d''8    e''8    d''8    b'8  \bar "|"   
a'8    b'8    a'8    a'8    fis'8    d'8    fis'8    g'8    a'8  }     
\repeat volta 2 {   b8    e'8    e'8    b8    fis'8    fis'8    b8    g'8    
g'8  \bar "|"   b8    fis'8    fis'8    g'4    b'8    a'8    fis'8    d'8  
\bar "|"   b8    e'8    e'8    b8    fis'8    fis'8    b8    g'8    b'8  
\bar "|"   a'8    b'8    a'8    a'8    fis'8    d'8    fis'8    g'8    a'8  }   
  \repeat volta 2 {   g''8    fis''8    e''8    fis''8    e''8    d''8    e''4  
  fis''8  \bar "|"   g''8    fis''8    e''8    g''4    a''8    b''8    g''8    
e''8  \bar "|"   g''8    fis''8    e''8    fis''8    e''8    d''8    e''8    
d''8    b'8  \bar "|"   a'8    b'8    a'8    a'8    fis'8    d'8    fis'8    
g'8    a'8  }   
}

\score{
    <<

	\context Staff="default"
	{
	    \voicedefault 
	}

    >>
	\layout {
	}
	\midi {}
}
