\version "2.19.49"
% clairnote-type = sn
\include "clairnote.ly"
\header {
	transcription = "JACKB"
	crossRefNumber = "1"
	footnotes = ""
	meter = "Barndance"
	source = "https://thesession.org/tunes/163#setting12794"
	arranger = "Setting 8"
	tagline = \markup { \vspace #1.8 \sans \abs-fontsize #7.5 \wordwrap {Sheet music in \with-url \clairnoteTypeUrl { \clairnoteTypeName music notation} published by Paul Morris using \with-url #"http://www.lilypond.org" {LilyPond.} Automatically converted to LilyPond format from an ABC source file from \with-url #"https://thesession.org" {the Session} website: \with-url #"https://thesession.org/tunes/163#setting12794" {"https://thesession.org/tunes/163#setting12794"}}}
	title = "Kilnamona"
}
voicedefault =  {
\set Score.defaultBarType = ""

\time 4/4 \key d \major   \repeat volta 2 {   a'8    d'8    fis'8    a'8    d'8 
   e'8    fis'8    a'8  \bar "|"   a'4    g'4    e'4.    fis'8  \bar "|"   g'4  
  e'4    b'4.    b'8  \bar "|"   b'4    a'4    fis'2  \bar "|"   a'8    d'8    
fis'8    a'8    d'8    e'8    fis'8    a'8  \bar "|"   a'4    g'4    e'4.    
fis'8  \bar "|"   g'4    e'4    b'4    a'4  \bar "|"   d'2    d'2  }   
\repeat volta 2 {   |
 fis''2    fis''8    e''8    d''8    fis''8  \bar "|"   e''4.    e''8    e''8   
 d''8    b'8    cis''8  \bar "|"   d''8    e''8    d''8    b'8    a'4    fis'8  
  a'8  \bar "|"   b'4    e''4    e''4    d''8    e''8  \bar "|"   fis''2    
fis''8    e''8    d''8    fis''8  \bar "|"   e''4.    e''8    e''8    d''8    
b'8    cis''8  \bar "|"   d''8    e''8    d''8    b'8    a'4    \tuplet 3/2 {   
fis'8    g'8    a'8  } \bar "|"   b'4    d''4    d''2  \bar "|"   fis''8    a'8 
   fis''8    fis''8    fis''8    a'8    d''8    fis''8  \bar "|"   e''8    g'8  
  e''8    e''8    e''8    d''8    b'8    cis''8  \bar "|"   d''8    e''8    
d''8    b'8    a'4    fis'8    a'8  \bar "|"   b'4    e''4    e''4    d''8    
e''8  \bar "|"   fis''8    a'8    fis''8    fis''8    fis''8    a'8    d''8    
fis''8  \bar "|"   e''8    g'8    e''8    e''8    e''8    d''8    b'8    cis''8 
 \bar "|"   d''8    e''8    d''8    b'8    a'4    \tuplet 3/2 {   fis'8    g'8   
 a'8  } \bar "|"   b'4    d''4    d''2  \bar "||"   }
}

\score{
    <<

	\context Staff="default"
	{
	    \voicedefault 
	}

    >>
	\layout {
	}
	\midi {}
}
