\version "2.19.49"
% clairnote-type = sn
\include "clairnote.ly"
\header {
	transcription = "Ian Varley"
	crossRefNumber = "1"
	footnotes = ""
	meter = "Reel"
	source = "https://thesession.org/tunes/361#setting28888"
	arranger = "Setting 7"
	tagline = \markup { \vspace #1.8 \sans \abs-fontsize #7.5 \wordwrap {Sheet music in \with-url \clairnoteTypeUrl { \clairnoteTypeName music notation} published by Paul Morris using \with-url #"http://www.lilypond.org" {LilyPond.} Automatically converted to LilyPond format from an ABC source file from \with-url #"https://thesession.org" {the Session} website: \with-url #"https://thesession.org/tunes/361#setting28888" {"https://thesession.org/tunes/361#setting28888"}}}
	title = "Kylebrack Rambler, The"
}
voicedefault =  {
\set Score.defaultBarType = ""

\time 4/4 \key d \mixolydian   d'8    a8    a4 ^"~"    d'8    a8    f'8    a8  
\bar "|"   d'8    a8    a4 ^"~"    c'8    a8    g8    a8  \bar "|"   d'8    a8  
  a4 ^"~"    d'4.    e'8  \bar "|"   fis'8    g'8    a'8    fis'8    g'4    
fis'8    g'8  \bar "|"     a'8    d''8    d''8    e''8    d''8    c''8    a'8   
 b'8  \bar "|"   c''8    g'8    a'8    c''8    g'8    e'8    c'8    e'8  
\bar "|"   d'8    c'8    a8    g8    a8    d'8    d'4 ^"~"  \bar "|"   fis'8    
a'8    g'8    e'8    d'4    d'8    e'8  \bar ":|."   fis'8    a'8    g'8    e'8 
   d'4    fis'8    g'8  \bar ":|."     |
 a'8    fis'8    g'8    a'8    fis'8    d'8    d'4 ^"~"  \bar "|"   d''4.    
c''8    a'8    g'8    a'8    b'8  \bar "|"   c''4    g'8    c''8    e'8    c''8 
   g'8    c''8  \bar "|"   c''8    d''8    e''8    d''8    c''8    a'8    g'8   
 a'8  \bar "|"     d''4    fis''8    d''8    d''8    a'8    a'4 ^"~"  \bar "|"  
 cis''8    a'8    a'4 ^"~"    e'8    a'8    a'4 ^"~"  \bar "|"   g'8    e'8    
e'4 ^"~"    c'8    d'8    e'8    g'8  \bar "|"   c''8    a'8    g'8    e'8    
d'4    fis'8    g'8  \bar ":|."     |
 a'8    d'8    d'4 ^"~"    a8    d'8    d'4 ^"~"  \bar "|"   d''8    a'8    a'4 
^"~"    d''8    c''8    a'8    b'8  \bar "|"   c''4    b'8    d''8    c''8    
a'8    g'8    e'8  \bar "|"   c'8    c''8    b'8    d''8    c''8    a'8    g'8  
  e'8  \bar "|"     fis'8    d'8    d'4 ^"~"    a8    d'8    d'4 ^"~"  \bar "|" 
  d''8    a'8    a'4 ^"~"    d''8    c''8    a'8    b'8  \bar "|"   c''4    b'8 
   d''8    c''8    a'8    g'8    e'8  \bar "|"   c'8    e'8    g'8    e'8    
d'4    d'8    e'8  \bar ":|."   
}

\score{
    <<

	\context Staff="default"
	{
	    \voicedefault 
	}

    >>
	\layout {
	}
	\midi {}
}
