\version "2.19.49"
% clairnote-type = sn
\include "clairnote.ly"
\header {
	transcription = "Nigel Gatherer"
	crossRefNumber = "1"
	footnotes = ""
	meter = "Reel"
	source = "https://thesession.org/tunes/58#setting12497"
	arranger = "Setting 4"
	tagline = \markup { \vspace #1.8 \sans \abs-fontsize #7.5 \wordwrap {Sheet music in \with-url \clairnoteTypeUrl { \clairnoteTypeName music notation} published by Paul Morris using \with-url #"http://www.lilypond.org" {LilyPond.} Automatically converted to LilyPond format from an ABC source file from \with-url #"https://thesession.org" {the Session} website: \with-url #"https://thesession.org/tunes/58#setting12497" {"https://thesession.org/tunes/58#setting12497"}}}
	title = "Lads Of Laois, The"
}
voicedefault =  {
\set Score.defaultBarType = ""

\repeat volta 2 {
\time 4/4 \key e \minor   b8    e'8    e'8    fis'8    e'16    fis'16    g'8    
fis'8    e'8    \bar "|"   a8    d'8    d'8    e'8    d'16    e'16    fis'8    
e'8    d'8    \bar "|"   g'8    fis'8    e'8    d'8    e'8    fis'8    g'8    
a'8    \bar "|"   b'8    e''8    d''8    c''8    b'4    e'4    }   e''8    b'8  
  b'8    a'16    b'16    g''8    fis''8    e''8    d''8    \bar "|"   a'8    
d''8    fis''8    a''8    g''8    fis''8    e''8    d''8    \bar "|"   e''8    
b'8    b'8    a'16    b'16    g''8    fis''8    e''8    d''8    \bar "|"   
g''8.    b''16    a''8    g''8    fis''4    e''8    d''8    \bar "|"   e''8    
b'8    b'8    a'16    b'16    g''8    fis''8    e''8    d''8    \bar "|"   a'8  
  d''8    fis''8    a''8    g''8    fis''8    e''8    d''8    \bar "|"   g''8.  
  b''16    g''8    e''8    fis''8    a''8    fis''8    d''8    \bar "|"   g''8  
  fis''8    e''8    d''8    e''4    e'4    \bar "||"   
}

\score{
    <<

	\context Staff="default"
	{
	    \voicedefault 
	}

    >>
	\layout {
	}
	\midi {}
}
