\version "2.19.49"
% clairnote-type = sn
\include "clairnote.ly"
\header {
	transcription = "gian marco"
	crossRefNumber = "1"
	footnotes = ""
	meter = "Reel"
	source = "https://thesession.org/tunes/59#setting12500"
	arranger = "Setting 2"
	tagline = \markup { \vspace #1.8 \sans \abs-fontsize #7.5 \wordwrap {Sheet music in \with-url \clairnoteTypeUrl { \clairnoteTypeName music notation} published by Paul Morris using \with-url #"http://www.lilypond.org" {LilyPond.} Automatically converted to LilyPond format from an ABC source file from \with-url #"https://thesession.org" {the Session} website: \with-url #"https://thesession.org/tunes/59#setting12500" {"https://thesession.org/tunes/59#setting12500"}}}
	title = "Lady Anne Montgomery"
}
voicedefault =  {
\set Score.defaultBarType = ""

\repeat volta 2 {
\time 4/4 \key d \major   a'8    g'8  \bar "|"   fis'8    a'8    d'8    a'8    
fis'8    a'8    d'8    a'8  \bar "|"   fis'8    a'8    d'8    a'8    b'8    a'8 
   d''8    a'8  \bar "|"   fis'8    a'8    d'8    fis'8    e'8    d'8    e'8    
fis'8  \bar "|"   d'8    b'8    a'8    b'8    d'4    a'8    g'8  \bar "|"   
fis'8    a'8    d'8    fis'8    a'8    d'8    fis'8    a'8  \bar "|"   d'8    
e'8    e'8    d'8    b'8    a'8    b'8    cis''8  \bar "|"   d''4    a'8    
fis'8    e'8    d'8    e'8    fis'8  \bar "|"   d'8    b'8    a'8    b'8    
d''4  }   |
 r8 e''8  \repeat volta 2 {   fis''4.    a''8    fis''8    e''8    d''8    e''8 
 \bar "|"   fis''8    e''8    d''8    b'8    a'8    b'8    d''8    e''8  
\bar "|"   fis''8    a''8    fis''8    a''8    fis''8    e''8    d''8    e''8  
\bar "|"   fis''4    a''8    fis''8    fis''8    e''8    d''8    e''8  \bar "|" 
  fis''4.    a''8    fis''8    e''8    d''8    e''8  \bar "|"   fis''8    e''8  
  d''8    b'8    a'8    b'8    d''8    e''8  \bar "|"   fis''8    d''8    e''8  
  d''8    b'8    d''8    a'8    b'8  } \alternative{{   d''8    e''8    e''8    
d''8    d''4    a''8    g''8  } {   d''8    e''8    e''8    d''8    d''4  
\bar "||"   }}
}

\score{
    <<

	\context Staff="default"
	{
	    \voicedefault 
	}

    >>
	\layout {
	}
	\midi {}
}
