\version "2.19.49"
% clairnote-type = sn
\include "clairnote.ly"
\header {
	transcription = "fidicen"
	crossRefNumber = "1"
	footnotes = ""
	meter = "Reel"
	source = "https://thesession.org/tunes/1195#setting1195"
	arranger = "Setting 1"
	tagline = \markup { \vspace #1.8 \sans \abs-fontsize #7.5 \wordwrap {Sheet music in \with-url \clairnoteTypeUrl { \clairnoteTypeName music notation} published by Paul Morris using \with-url #"http://www.lilypond.org" {LilyPond.} Automatically converted to LilyPond format from an ABC source file from \with-url #"https://thesession.org" {the Session} website: \with-url #"https://thesession.org/tunes/1195#setting1195" {"https://thesession.org/tunes/1195#setting1195"}}}
	title = "La Grondeuse"
}
voicedefault =  {
\set Score.defaultBarType = ""

\repeat volta 2 {
\time 4/4 \key d \major   d'4    fis'8    e'8    d'4    fis'8    a'8  \bar "|"  
 d''8    cis''8    d''8    e''8    fis''8    d''8    a'8    fis'8  \bar "|"   
g'4    b'8    g'8    fis'4    a'8    fis'8  \bar "|"   e'8    fis'8    g'8    
e'8    d'8    cis'8    b8    a8  \bar "|"     d'4    fis'8    e'8    d'4    
fis'8    a'8  \bar "|"   d''8    cis''8    d''8    e''8    fis''8    d''8    
a'8    fis'8  \bar "|"   g'4    b'8    g'8    fis'4    a'8    fis'8  \bar "|"   
e'8    cis'8    a8    cis'8    d'2  }     \repeat volta 2 {   a8    b8    cis'8 
   d'8    e'8    fis'8    g'8    fis'8  \bar "|"   e'8    d'8    e'8    fis'8   
 g'8    a'8    b'8    cis''8  \bar "|"   d''8    cis''8    d''8    b'8    a'8   
 b'8    cis''8    d''8  \bar "|"   fis''8    a''8    g''8    fis''8    e''4    
a'4  \bar "|"     d''4    fis''8    d''8    cis''4    e''8    cis''8  \bar "|"  
 b'8    cis''8    d''8    b'8    a'8    fis'8    d'8    fis'8  \bar "|"   g'4   
 b'8    g'8    fis'4    a'8    fis'8  \bar "|"   e'8    cis'8    a8    cis'8    
d'2  }   
}

\score{
    <<

	\context Staff="default"
	{
	    \voicedefault 
	}

    >>
	\layout {
	}
	\midi {}
}
