\version "2.19.49"
% clairnote-type = sn
\include "clairnote.ly"
\header {
	transcription = "Manu Novo"
	crossRefNumber = "1"
	footnotes = ""
	meter = "Jig"
	source = "https://thesession.org/tunes/62#setting12508"
	arranger = "Setting 4"
	tagline = \markup { \vspace #1.8 \sans \abs-fontsize #7.5 \wordwrap {Sheet music in \with-url \clairnoteTypeUrl { \clairnoteTypeName music notation} published by Paul Morris using \with-url #"http://www.lilypond.org" {LilyPond.} Automatically converted to LilyPond format from an ABC source file from \with-url #"https://thesession.org" {the Session} website: \with-url #"https://thesession.org/tunes/62#setting12508" {"https://thesession.org/tunes/62#setting12508"}}}
	title = "Lark In The Morning, The"
}
voicedefault =  {
\set Score.defaultBarType = ""

\time 6/8 \key d \major   \bar "||"   a'4.    a'8    fis'8    a'8  \bar "|"   
b'8    g'8    b'8    b'8    d''8    b'8  \bar "|"   a'8    fis'8    a'8    a'8  
  b'8    d''8  \bar "|"   fis''8    e''8    d''8    e''8    d''8    b'8  
\bar "|"   a'8    fis'8    a'8    a'8    fis'8    a'8  \bar "|"   b'8    g'8    
b'8    b'8    a'8    b'8  \bar "|"   d''8    e''8    fis''8    a''8    fis''8   
 e''8  \bar "|"   fis''8    d''8    b'8    b'8    d''8    b'8  \bar "|"   
\bar "|"   a'4.    d''8    c''8    a'8  \bar "|"   b'8    b'8    b'8    b'8    
d''8    b'8  \bar "|"   a'8    a'8    a'8    a'8    fis'8    a'8  \bar "|"   
fis''8    e''8    d''8    e''8    d''8    b'8  \bar "|"   a'8    fis'8    a'8   
 a'8    d''8    c''8  \bar "|"   b'8    g'8    b'8    b'8    a'8    b'8  
\bar "|"   d''8    e''8    fis''8    a''8    fis''8    e''8  \bar "|"   fis''8  
  d''8    b'8    b'8    a'8    b'8  \bar "||"   \bar "||"   d''8    e''8    
fis''8    a''4.  \bar "|"   b''8    a''8    a''8    a''8    fis''8    e''8  
\bar "|"   d''8    a''8    a''8    a''8    fis''8    e''8  \bar "|"   fis''8    
d''8    b'8    b'8    a'8    b'8  \bar "|"   d''8    e''8    fis''8    a''4.  
\bar "|"   b''8    a''8    b''8    a''4    fis''8  \bar "|"   g''4.    fis''8   
 e''8    d''8  \bar "|"   e''8    d''8    b'8    b'8    a'8    b'8  \bar "|"   
\bar "|"   d''8    e''8    fis''8    a''4.  \bar "|"   b''8    a''8    b''8    
a''8    fis''8    e''8  \bar "|"   d''8    a''8    a''8    a''8    fis''8    
e''8  \bar "|"   fis''8    d''8    b'8    b'8    a'8    b'8  \bar "|"   d''8    
e''8    fis''8    a''4.  \bar "|"   b''8    b''8    b''8    a''8    fis''8    
d''8  \bar "|"   g''4    e''8    fis''8    e''8    d''8  \bar "|"   e''8    
d''8    b'8    b'8    a'8    b'8  \bar "||"   \bar "||"   d''4    fis''8    
fis''8    e''8    fis''8  \bar "|"   fis''8    e''8    fis''8    fis''8    e''8 
   fis''8  \bar "|"   fis''8    e''8    fis''8    fis''8    e''8    fis''8  
\bar "|"   e''8    d''8    b'8    b'8    a'8    b'8  \bar "|"   d''4    fis''8  
  fis''8    d''8    fis''8  \bar "|"   fis''8    d''8    fis''8    fis''8    
e''8    fis''8  \bar "|"   g''4    e''8    fis''8    e''8    d''8  \bar "|"   
e''8    d''8    b'8    b'8    a'8    b'8  \bar "|"   \bar "|"   d''4    fis''8  
  fis''8    d''8    fis''8  \bar "|"   fis''8    e''8    fis''8    fis''8    
e''8    fis''8  \bar "|"   d''4    fis''8    fis''8    d''8    fis''8  \bar "|" 
  e''8    d''8    b'8    b'8    a'8    b'8  \bar "|"   d''4    fis''8    fis''8 
   d''8    fis''8  \bar "|"   fis''8    d''8    fis''8    fis''8    d''8    
fis''8  \bar "|"   g''4.    fis''8    e''8    d''8  \bar "|"   e''8    d''8    
b'8    b'8    a'8    b'8  \bar "||"   \repeat volta 2 {   a'4    d''8    fis''8 
   d''8    d''8  \bar "|"   e''8    d''8    e''8    fis''8    d''8    d''8  
\bar "|"   a'4    d''8    fis''8    d''8    d''8  \bar "|"   e''8    d''8    
b'8    b'8    a'8    g'8  \bar "|"   a'4    d''8    fis''8    d''8    d''8  
\bar "|"   e''8    d''8    e''8    fis''8    d''8    b'8  \bar "|"   g''4    
e''8    fis''8    e''8    d''8  \bar "|"   e''8    d''8    b'8    b'8    d''8   
 b'8  }   
}

\score{
    <<

	\context Staff="default"
	{
	    \voicedefault 
	}

    >>
	\layout {
	}
	\midi {}
}
