\version "2.19.49"
% clairnote-type = sn
\include "clairnote.ly"
\header {
	transcription = "JACKB"
	crossRefNumber = "1"
	footnotes = ""
	meter = "Hornpipe"
	source = "https://thesession.org/tunes/223#setting25184"
	arranger = "Setting 5"
	tagline = \markup { \vspace #1.8 \sans \abs-fontsize #7.5 \wordwrap {Sheet music in \with-url \clairnoteTypeUrl { \clairnoteTypeName music notation} published by Paul Morris using \with-url #"http://www.lilypond.org" {LilyPond.} Automatically converted to LilyPond format from an ABC source file from \with-url #"https://thesession.org" {the Session} website: \with-url #"https://thesession.org/tunes/223#setting25184" {"https://thesession.org/tunes/223#setting25184"}}}
	title = "Last Pint, The"
}
voicedefault =  {
\set Score.defaultBarType = ""

\time 4/4 \key g \major   \repeat volta 2 {   g'4.    e'8    d'8    e'8    g'8  
  a'8  \bar "|"   b'8    g'8    a'8    b'8    a'8    g'8    e'8    d'8  
\bar "|"   g'4.    e'8    d'8    e'8    g'8    a'8  \bar "|"   b'8    g'8    
a'8    b'8    a'4.    r8 \bar "|"     g'4.    e'8    d'8    e'8    g'8    a'8  
\bar "|"   b'8    g'8    a'8    b'8    a'8    g'8    e'8    d'8  \bar "|"   g'8 
   a'8    b'8    g'8    b'8    c''8    a'8    g'8  \bar "|"   fis'8    d'8    
e'8    fis'8    a'8    g'8    g'8    fis'8  }     \repeat volta 2 {   |
 g'8    b'8    d''8    g'8    b'8    d''8    g'8    b'8  \bar "|"   c''8    b'8 
   a'8    g'8    b'8    g'8    g'8    fis'8  \bar "|"   g'8    b'8    d''8    
g'8    b'8    d''8    g'8    b'8  \bar "|"   c''8    b'8    a'8    g'8    fis'8 
   d'8    e'8    fis'8  \bar "|"     g'8    b'8    d''8    g'8    b'8    d''8   
 g'8    b'8  \bar "|"   c''8    b'8    a'8    g'8    b'8    g'8    g'8    fis'8 
 \bar "|"   g'4.    e'8    d'8    e'8    g'8    a'8  \bar "|"   b'8    g'8    
a'8    b'8    a'2  }         \bar "|"   |
 b'8 ^"Variation"   c''8    b'8    g'8    c''8    d''8    c''8    g'8  \bar "|" 
  b'8    c''8    b'8    g'8    d''8    e''8    d''4  \bar "|"   b'8    c''8    
b'8    g'8    c''8    d''8    c''8    g'8  \bar "|"   b'8    c''8    b'8    g'8 
   a'8    g'8    e'4  \bar "|"     b'8    c''8    b'8    g'8    c''8    d''8    
c''8    g'8  \bar "|"   b'8    c''8    b'8    g'8    d''8    e''8    d''8.    
g''16  \bar "|"   e''4    g''4    d''4    g''4    \bar "|"   e''4    g''4    
d''8    c''8    b'8    a'8  \bar "||"   
}

\score{
    <<

	\context Staff="default"
	{
	    \voicedefault 
	}

    >>
	\layout {
	}
	\midi {}
}
