\version "2.19.49"
% clairnote-type = sn
\include "clairnote.ly"
\header {
	transcription = "fer"
	crossRefNumber = "1"
	footnotes = ""
	meter = "Hornpipe"
	source = "https://thesession.org/tunes/223#setting12909"
	arranger = "Setting 2"
	tagline = \markup { \vspace #1.8 \sans \abs-fontsize #7.5 \wordwrap {Sheet music in \with-url \clairnoteTypeUrl { \clairnoteTypeName music notation} published by Paul Morris using \with-url #"http://www.lilypond.org" {LilyPond.} Automatically converted to LilyPond format from an ABC source file from \with-url #"https://thesession.org" {the Session} website: \with-url #"https://thesession.org/tunes/223#setting12909" {"https://thesession.org/tunes/223#setting12909"}}}
	title = "Last Pint, The"
}
voicedefault =  {
\set Score.defaultBarType = ""

\time 4/4 \key a \major   \repeat volta 2 {   a'4. ^"~"    fis'8    e'8    
fis'8    a'8    b'8  \bar "|"   cis''8    a'8    b'8    cis''8    b'8    a'8    
fis'8    e'8  \bar "|"   a'4. ^"~"    fis'8    e'8    fis'8    a'8    b'8  
\bar "|"   cis''8    a'8    b'8    cis''8    b'4.    r8 \bar "|"   a'4. ^"~"    
fis'8    e'8    fis'8    a'8    b'8  \bar "|"   cis''8    a'8    b'8    cis''8  
  b'8    a'8    fis'8    e'8  \bar "|"   a'8    b'8    cis''8    a'8    cis''8  
  d''8    b'8    a'8  \bar "|"   gis'8    e'8    fis'8    gis'8    b'8    a'8   
 a'8    gis'8  }   |
 a'4    e''8    a'8    \tuplet 3/2 {   cis''8    d''8    e''8  }   a'8    e''8  
\bar "|"   d''8    cis''8    b'8    a'8    cis''8    a'8    a'8    gis'8  
\bar "|"   a'4    e''8    a'8    \tuplet 3/2 {   cis''8    d''8    e''8  }   a'8 
   e''8  \bar "|"   d''8    cis''8    b'8    a'8    gis'8    e'8    fis'8    
gis'8  \bar "|"   a'4    e''8    a'8    \tuplet 3/2 {   cis''8    d''8    e''8  
}   a'8    e''8  \bar "|"   d''8    cis''8    b'8    a'8    cis''8    a'8    
a'8    gis'8  \bar "|"   a'4. ^"~"    fis'8    e'8    fis'8    a'8    b'8  
\bar "|"   cis''8    a'8    b'8    cis''8    b'2  \bar "|"   \bar "|"   cis''8  
  d''8    cis''8    a'8    d''8    e''8    d''8    a'8  \bar "|"   cis''8    
d''8    cis''8    a'8    e''8    fis''8    e''4  \bar "|"   cis''8    d''8    
cis''8    a'8    d''8    e''8    d''8    a'8  \bar "|"   cis''8    d''8    
cis''8    a'8    b'8    a'8    fis'4  \bar "|"   \bar "|"   cis''8    d''8    
cis''8    a'8    d''8    e''8    d''8    a'8  \bar "|"   cis''8    d''8    
cis''8    a'8    e''8    fis''8    e''4  \bar "|"   cis''8    d''8    cis''8    
a'8    d''8    e''8    d''8    a'8  \bar "|"   cis''8    d''8    cis''8    a'8  
  b'8    a'8    fis'4  \bar "|"   
}

\score{
    <<

	\context Staff="default"
	{
	    \voicedefault 
	}

    >>
	\layout {
	}
	\midi {}
}
