\version "2.19.49"
% clairnote-type = sn
\include "clairnote.ly"
\header {
	transcription = "Mix O'Lydian"
	crossRefNumber = "1"
	footnotes = ""
	meter = "Jig"
	source = "https://thesession.org/tunes/1069#setting26477"
	arranger = "Setting 2"
	tagline = \markup { \vspace #1.8 \sans \abs-fontsize #7.5 \wordwrap {Sheet music in \with-url \clairnoteTypeUrl { \clairnoteTypeName music notation} published by Paul Morris using \with-url #"http://www.lilypond.org" {LilyPond.} Automatically converted to LilyPond format from an ABC source file from \with-url #"https://thesession.org" {the Session} website: \with-url #"https://thesession.org/tunes/1069#setting26477" {"https://thesession.org/tunes/1069#setting26477"}}}
	title = "Lillibullero"
}
voicedefault =  {
\set Score.defaultBarType = ""

\time 6/8 \key g \major   g'8    a'8    g'8    b'4    b'8    \bar "|"   a'8    
b'8    a'8    c''4.    \bar "|"   b'8    d''8    g'8    c''4    b'8    \bar "|" 
  a'8    g'8    fis'8    g'4    d'8    \bar "|"     g'8    a'8    g'8    b'4    
b'8  \bar "|"   a'8    b'8    a'8    c''4.    \bar "|"   b'8    d''8    g'8    
c''4    b'8    \bar "|"   a'8    g'8    fis'8    g'4.    \bar "|."     g''4    
fis''8    g''4    d''8    \bar "|"   d''8    e''8    f''8    e''4    d''8    
\bar "|"   d''8    e''8    fis''8    g''8    d''8    e''8    \bar "|"   d''8    
c''8    b'8    a'4    d''8    \bar "|"     e''8    d''8    c''8    b'8    c''8  
  d''8    \bar "|"   e''8    d''8    c''8    b'8    c''8    d''8    \bar "|"   
e''8    g''8    g'8    c''4    b'8    \bar "|"   a'8    g'8    fis'8    g'4.    
\bar "|."   
}

\score{
    <<

	\context Staff="default"
	{
	    \voicedefault 
	}

    >>
	\layout {
	}
	\midi {}
}
