\version "2.19.49"
% clairnote-type = sn
\include "clairnote.ly"
\header {
	transcription = "gian marco"
	crossRefNumber = "1"
	footnotes = ""
	meter = "Reel"
	source = "https://thesession.org/tunes/345#setting28528"
	arranger = "Setting 9"
	tagline = \markup { \vspace #1.8 \sans \abs-fontsize #7.5 \wordwrap {Sheet music in \with-url \clairnoteTypeUrl { \clairnoteTypeName music notation} published by Paul Morris using \with-url #"http://www.lilypond.org" {LilyPond.} Automatically converted to LilyPond format from an ABC source file from \with-url #"https://thesession.org" {the Session} website: \with-url #"https://thesession.org/tunes/345#setting28528" {"https://thesession.org/tunes/345#setting28528"}}}
	title = "Lilting Fisherman, The"
}
voicedefault =  {
\set Score.defaultBarType = ""

\time 4/4 \key c \major   \bar "|"   g'8    e'4. ^"~"    g'8    a'8    c''8    
d''8  \bar "|"   e''8    g''8    d''8    b'8    c''8    a'8    a'8    c''8  
\bar "|"   g'8    e'4. ^"~"    g'8    a'8    c''8    d''8  \bar "|"   e''8    
g''8    d''8    b'8    c''4    a'8    c''8  \bar "|"     \bar "|"   g'8    e'4. 
^"~"    g'8    a'8    c''8    d''8  \bar "|"   e''4    d''8    b'8    c''8    
a'8    a'8    c''8  \bar "|"   g'8    e'4. ^"~"    g'8    a'8    c''8    d''8  
\bar "|"   e''8    g''8    d''8    b'8    c''4.    d''8  \bar "|"     \bar "|"  
 e''8    g''4. ^"~"    e''8    a''8    a''8    e''8  \bar "|"   g''8    e''8    
d''8    b'8    c''8    a'8    a'8    c''8  \bar "|"   e''8    g''4. ^"~"    
e''8    a''4. ^"~"  \bar "|"   b''8    a''8    g''8    b''8    a''4.    g''8  
\bar "|"     \bar "|"   e''8    g''8    g''8    e''8    a''8    g''8    e''8    
a''8  \bar "|"   g''8    e''8    d''8    b'8    c''8    a'8    a'8    c''8  
\bar "|"   g'8    e'4. ^"~"    g'8    a'8    c''8    d''8  \bar "|"   e''4    
d''8    b'8    c''8    a'8    a'8    c''8  \bar "|"   
}

\score{
    <<

	\context Staff="default"
	{
	    \voicedefault 
	}

    >>
	\layout {
	}
	\midi {}
}
