\version "2.19.49"
% clairnote-type = sn
\include "clairnote.ly"
\header {
	transcription = "fidicen"
	crossRefNumber = "1"
	footnotes = ""
	meter = "Polka"
	source = "https://thesession.org/tunes/604#setting13620"
	arranger = "Setting 3"
	tagline = \markup { \vspace #1.8 \sans \abs-fontsize #7.5 \wordwrap {Sheet music in \with-url \clairnoteTypeUrl { \clairnoteTypeName music notation} published by Paul Morris using \with-url #"http://www.lilypond.org" {LilyPond.} Automatically converted to LilyPond format from an ABC source file from \with-url #"https://thesession.org" {the Session} website: \with-url #"https://thesession.org/tunes/604#setting13620" {"https://thesession.org/tunes/604#setting13620"}}}
	title = "Little Diamond, The"
}
voicedefault =  {
\set Score.defaultBarType = ""

\repeat volta 2 {
\time 2/4 \key g \major   d''8.    e''16    d''8    b'8    \bar "|"   g'8.    
fis'16    g'8    b'8    \bar "|"   d''8.    e''16    d''8.    b'16    \bar "|"  
 c''8    b'8    a'4    \bar "|"   g'8    a'8    b'8    c''8    \bar "|"   d''8  
  e''8    fis''8    g''8    \bar "|"   a''8    g''8    fis''8    a''8    
\bar "|"   g''4    g''4    }   \repeat volta 2 {   g''4    g''8.    a''16    
\bar "|"   b''8    g''8    c'''8    a''8    \bar "|"   b''8    g''8    fis''8   
 g''8    \bar "|"   b''8    a''8    a''4    \bar "|"   b''8    g''8    c'''8    
a''8    \bar "|"   b''8    g''8    fis''8    e''8    \bar "|"   d''8    c'''8   
 a''8    fis''8    \bar "|"   g''4    g''4    }   \repeat volta 2 {   |
 g''4    g''8.    a''16    \bar "|"   b''8    g''8    fis''8    a''8    
\bar "|"   b''8    g''8    fis''8    g''8    \bar "|"   b''8    a''8    a''4    
\bar "|"   b''8    g''8    fis''8    a''8    \bar "|"   b''8    g''8    fis''8  
  e''8    \bar "|"   d''8    g''8    a''8    fis''8    \bar "|"   g''4    g''4  
  }   
}

\score{
    <<

	\context Staff="default"
	{
	    \voicedefault 
	}

    >>
	\layout {
	}
	\midi {}
}
