\version "2.19.49"
% clairnote-type = sn
\include "clairnote.ly"
\header {
	transcription = "Kuddel"
	crossRefNumber = "1"
	footnotes = ""
	meter = "Hornpipe"
	source = "https://thesession.org/tunes/1032#setting1032"
	arranger = "Setting 1"
	tagline = \markup { \vspace #1.8 \sans \abs-fontsize #7.5 \wordwrap {Sheet music in \with-url \clairnoteTypeUrl { \clairnoteTypeName music notation} published by Paul Morris using \with-url #"http://www.lilypond.org" {LilyPond.} Automatically converted to LilyPond format from an ABC source file from \with-url #"https://thesession.org" {the Session} website: \with-url #"https://thesession.org/tunes/1032#setting1032" {"https://thesession.org/tunes/1032#setting1032"}}}
	title = "Little Heathy Hill, The"
}
voicedefault =  {
\set Score.defaultBarType = ""

\time 4/4 \key a \minor   \repeat volta 2 {   c''8    d''8  \bar "|"   e''8    
f''8    e''8    d''8    c''4    \tuplet 3/2 {   b'8    c''8    b'8  } \bar "|"   
a'8    c''8    b'8    a'8    \tuplet 3/2 {   g'8    a'8    g'8  }   e'4  
\bar "|"   a'8    b'8    a'8    g'8    e'8    d'8    e'8    g'8  \bar "|"   a'4 
^"~"    a'8    b'8    c''4 ^"~"    c''8    d''8  \bar "|"     e''8    f''8    
e''8    d''8    c''4    \tuplet 3/2 {   b'8    c''8    b'8  } \bar "|"   a'8    
c''8    b'8    a'8    \tuplet 3/2 {   g'8    a'8    g'8  }   e'4  \bar "|"   a'8 
   b'8    a'8    g'8    e'8    d'8    e'8    g'8  \bar "|"   a'4    
\tuplet 3/2 {   b'8    a'8    g'8  }   a'4  }     |
 e'4  \bar "|"   a'8    b'8    c''8    d''8    e''4    e''8    fis''8  \bar "|" 
  g''8    a''8    \tuplet 3/2 {   g''8    fis''8    e''8  }   d''8    b'8    g'8 
   b'8  \bar "|"   e''8    f''8    e''8    d''8    c''4    \tuplet 3/2 {   b'8   
 c''8    b'8  } \bar "|"   a'8    g'8    e'8    fis'8    g'4    c''8    d''8  
\bar "|"     e''8    f''8    e''8    d''8    c''4    \tuplet 3/2 {   b'8    c''8 
   b'8  } \bar "|"   a'8    c''8    b'8    a'8    \tuplet 3/2 {   g'8    a'8    
g'8  }   e'4  \bar "|"   a'8    b'8    a'8    g'8    e'8    d'8    e'8    g'8  
\bar "|"   a'4    a'8    b'8    c''4    c''8    d''8  \bar "|"     e''8    f''8 
   e''8    d''8    c''4    \tuplet 3/2 {   b'8    c''8    b'8  } \bar "|"   a'8  
  c''8    b'8    a'8    \tuplet 3/2 {   g'8    a'8    g'8  }   e'4  \bar "|"   
a'8    b'8    a'8    g'8    e'8    d'8    e'8    g'8  \bar "|"   a'4    
\tuplet 3/2 {   b'8    a'8    g'8  }   a'4  \bar "||"   
}

\score{
    <<

	\context Staff="default"
	{
	    \voicedefault 
	}

    >>
	\layout {
	}
	\midi {}
}
