\version "2.19.49"
% clairnote-type = sn
\include "clairnote.ly"
\header {
	transcription = "Dr. Dow"
	crossRefNumber = "1"
	footnotes = ""
	meter = "Three-Two"
	source = "https://thesession.org/tunes/1259#setting1259"
	arranger = "Setting 1"
	tagline = \markup { \vspace #1.8 \sans \abs-fontsize #7.5 \wordwrap {Sheet music in \with-url \clairnoteTypeUrl { \clairnoteTypeName music notation} published by Paul Morris using \with-url #"http://www.lilypond.org" {LilyPond.} Automatically converted to LilyPond format from an ABC source file from \with-url #"https://thesession.org" {the Session} website: \with-url #"https://thesession.org/tunes/1259#setting1259" {"https://thesession.org/tunes/1259#setting1259"}}}
	title = "Little Fishie"
}
voicedefault =  {
\set Score.defaultBarType = ""

\repeat volta 2 {
\time 3/2 \key g \major   d'4 (   g'4    g'4  -) \grace {    a'8  }   g'4    
fis'4    a'4  \bar "|"   g'4    b'4  \grace {    c''8  }   b'4    b'4    c''4   
 a'4  \bar "|" \tuplet 3/2 {   d''8    e''8    d''8  }   b'4  \grace {    c''8  
}   b'4    g'4    fis'4    g'4  \bar "|"   a'4    b'4    c''4    e'4    fis'2  
\bar "|"     d'4 (   g'4    g'4  -) \grace {    a'8  }   g'4    fis'4    a'4  
\bar "|"   g'4    b'4  \grace {    c''8  }   b'4    b'4    c''4    e''4  
\bar "|"   d''4 -.   b'4  \grace {    c''8  }   b'4    g'4    a'8    c''8    
b'8    d''8  \bar "|"   c''4 -.   e'4 (   e'4    fis'4    g'2  -) }     
\repeat volta 2 {   d''4    g''4    fis''4    g''4    \tuplet 3/2 {   d''8    
e''8    d''8  }   b'4  \bar "|"   a'4. (   b'8    c''4  -)   d''4    b'2  
\bar "|"   d''4    g''4    fis''4    g''4    fis''4    g''4  \bar "|"   e''4    
b''4    a''4    cis''4    d''2  \bar "|"     d''4    f''4    \tuplet 3/2 {   
e''8    f''8    e''8  }   d''4    c''!4    b'4  \bar "|"   c''4 (   e''8    
d''8    a'4  -)   g'4    fis'4  \bar "|" \grace {    e''8  }   d''4    b'4    
b'4    g'4    a'8    c''8    b'8    d''8  \bar "|"   c''4 -.   e'4 (   e'4    
fis'4    g'2  -) }   
}

\score{
    <<

	\context Staff="default"
	{
	    \voicedefault 
	}

    >>
	\layout {
	}
	\midi {}
}
