\version "2.19.49"
% clairnote-type = sn
\include "clairnote.ly"
\header {
	transcription = "Dr. Dow"
	crossRefNumber = "1"
	footnotes = ""
	meter = "Jig"
	source = "https://thesession.org/tunes/1160#setting1160"
	arranger = "Setting 1"
	tagline = \markup { \vspace #1.8 \sans \abs-fontsize #7.5 \wordwrap {Sheet music in \with-url \clairnoteTypeUrl { \clairnoteTypeName music notation} published by Paul Morris using \with-url #"http://www.lilypond.org" {LilyPond.} Automatically converted to LilyPond format from an ABC source file from \with-url #"https://thesession.org" {the Session} website: \with-url #"https://thesession.org/tunes/1160#setting1160" {"https://thesession.org/tunes/1160#setting1160"}}}
	title = "Lost And Found"
}
voicedefault =  {
\set Score.defaultBarType = ""

\time 6/8 \key g \major   \repeat volta 2 {   g'4. ^"~"    d''8    g'8    g'8  
\bar "|"   e''8    d''8    b'8    d''8    b'8    a'8  \bar "|"   g'4. ^"~"    
d''8    e''8    g''8  \bar "|"   e''8    d''8    b'8    d''8    b'8    a'8  
\bar "|"     g'4. ^"~"    d''8    g'8    g'8  \bar "|"   e''8    d''8    b'8    
d''8    e''8    fis''8  \bar "|"   g''8    fis''8    e''8    d''8    b'8    a'8 
 \bar "|"   b'8    e''8    e''8    d''8    b'8    a'8  }     \repeat volta 2 {  
 g''4. ^"~"    b''8    g''8    e''8  \bar "|"   fis''4. ^"~"    a''8    fis''8  
  d''8  \bar "|"   g''4. ^"~"    b''8    g''8    e''8  \bar "|"   e''8    d''8  
  b'8    g'8    b'8    d''8  \bar "|"     g''4. ^"~"    b''8    g''8    e''8  
\bar "|"   fis''4. ^"~"    a''8    g''8    a''8  \bar "|"   b''8    a''8    
g''8    a''8    g''8    fis''8  \bar "|"   e''8    fis''8    g''8    e''8    
d''8    b'8  }   
}

\score{
    <<

	\context Staff="default"
	{
	    \voicedefault 
	}

    >>
	\layout {
	}
	\midi {}
}
