\version "2.19.49"
% clairnote-type = sn
\include "clairnote.ly"
\header {
	transcription = "gian marco"
	crossRefNumber = "1"
	footnotes = ""
	meter = "Reel"
	source = "https://thesession.org/tunes/120#setting12722"
	arranger = "Setting 2"
	tagline = \markup { \vspace #1.8 \sans \abs-fontsize #7.5 \wordwrap {Sheet music in \with-url \clairnoteTypeUrl { \clairnoteTypeName music notation} published by Paul Morris using \with-url #"http://www.lilypond.org" {LilyPond.} Automatically converted to LilyPond format from an ABC source file from \with-url #"https://thesession.org" {the Session} website: \with-url #"https://thesession.org/tunes/120#setting12722" {"https://thesession.org/tunes/120#setting12722"}}}
	title = "Maids Of Mitchelstown, The"
}
voicedefault =  {
\set Score.defaultBarType = ""

\time 4/4 \key d \minor   \repeat volta 2 {   d'4    a'8    g'8    e'8    g'8   
 g'4 ^"~"  \bar "|"   a'4    g'8    a'8    c''8    a'8    g'8    e'8  \bar "|"  
 d'4    a'8    g'8    e'8    g'8    g'4 ^"~"  } \alternative{{   a'4    g'8    
e'8    e'8    d'8    c'8    e'8  } {   a'4    g'8    e'8    e'8    d'8    d'4  
\bar "|"   \bar "|"   e'8    g'8    a'8    b'8    c''4    b'8    g'8  \bar "|"  
 a'8    d''8    d''8    e''8    f''4    e''8    d''8  \bar "|"   c''8    a'8    
g'8    e'8    f'4.    g'8  \bar "|"   a'8    c''8    g'8    e'8    e'8    d'8   
 d'4  \bar "|"   \bar "|"   e'8    g'8    a'8    b'8    c''8    e'8    g'8    
c''8  \bar "|"   fis'8    a'8    d''8    e''8    f''!4    e''8    d''8  
\bar "|"   c''8    a'8    g'8    e'8    f'4.    g'8  \bar "|"   a'16    bes'16  
  c''8    b'16    c''16    d''8    c''8    a'8    g'8    e'8  \bar "|"   }}
}

\score{
    <<

	\context Staff="default"
	{
	    \voicedefault 
	}

    >>
	\layout {
	}
	\midi {}
}
