\version "2.19.49"
% clairnote-type = sn
\include "clairnote.ly"
\header {
	transcription = "Ediot"
	crossRefNumber = "1"
	footnotes = ""
	meter = "Reel"
	source = "https://thesession.org/tunes/64#setting27111"
	arranger = "Setting 7"
	tagline = \markup { \vspace #1.8 \sans \abs-fontsize #7.5 \wordwrap {Sheet music in \with-url \clairnoteTypeUrl { \clairnoteTypeName music notation} published by Paul Morris using \with-url #"http://www.lilypond.org" {LilyPond.} Automatically converted to LilyPond format from an ABC source file from \with-url #"https://thesession.org" {the Session} website: \with-url #"https://thesession.org/tunes/64#setting27111" {"https://thesession.org/tunes/64#setting27111"}}}
	title = "Maid Behind The Bar, The"
}
voicedefault =  {
\set Score.defaultBarType = ""

\time 4/4 \key d \major   fis'4. ^"~"    b'8    a'8    fis'8  \grace {    g'8  
}   fis'8    e'8  \bar "|"   d'8    fis'8    a'8    d''8    b'8    cis''8    
d''8    e''8  \bar "|"   fis''8    b'8  \grace {    d''8  }   b'8    a'8    b'4 
   d''8    e''8  \bar "|"   fis''4    a''8    fis''8  \grace {    a''8  }   
fis''8    e''8    d''8    b'8  \bar "|"     \tuplet 3/2 {   a'8    b'8    a'8  } 
  fis'8    b'8    a'8    d'8    fis'8    e'8  \bar "|"   d'8    fis'8    
\tuplet 3/2 {   fis'8    fis'8    fis'8  }   a'8    b'8    d''8    e''8  
\bar "|"   fis''8    b'8  \grace {    d''8  }   b'8    a'8    b'8    cis''8    
d''8    b'8  \bar "|"   a'8    fis'8    e'8    fis'8    d'2  \bar "||"     d'8  
  fis'8    fis'8    b'8    a'8    d'8    fis'8    e'8  \bar "|"   d'8    fis'8  
  \tuplet 3/2 {   fis'8    fis'8    fis'8  } <<   a'4.    fis'4.   >>   a''8  
\bar "|"   fis''8    b'8  \grace {    d''8  }   b'8    a'8    b'4    d''8    
e''8  \bar "|"   fis''4.    a''8    fis''8    e''8    d''8    b'8  \bar "|"     
\tuplet 3/2 {   a'8    b'8    a'8  }   fis'8    b'8    a'8    d'8    fis'8    
e'8  \bar "|"   d'8    fis'8    \tuplet 3/2 {   fis'8    fis'8    fis'8  }   
fis'8    a'8    d''8    e''8  \bar "|"   fis''8    b'8  \grace {    d''8  }   
b'8    a'8    b'8    cis''8    d''8    b'8  \bar "|"   a'8    fis'8    e'8    
fis'8    d'2  \bar "||"     fis''8    a''8    a''8    g''8    fis''8    d''4. 
^"~"  \bar "|"   a'4.    a''8    fis''8    e''8    d''8    fis''8  \bar "|" <<  
 e''4.    cis''4.   >>   fis''8    g''4. ^"~"    b'8  \bar "|"   g''4. ^"~"    
a''8  \grace {    a''8  }   b''4    e''8    g''8  \bar "|"     fis''8    a''8   
 \tuplet 3/2 {   a''8    a''8    a''8  }   b''8    a''8  \grace {    b''8  }   
a''8    fis''8  \bar "|" \tuplet 3/2 {   b'8    cis''8    d''8  }   fis''8    
d''8    e''8    fis''8    d''8    e''8  \bar "|"   fis''8    b'8  \grace {    
d''8  }   b'8    a'8    b'8    cis''8    d''8    b'8  \bar "|"   a'8    fis'8   
 e'8    fis'8    d'2  \bar "||"     a''4. ^"~"    g''8    fis''8    d''4. ^"~"  
\bar "|"   a'4.    a''8    fis''8    e''8    d''8    fis''8  \bar "|"   e''4.   
 fis''8    g''4    b'8    g''8  \bar "|" \tuplet 3/2 {   g''8    g''8    g''8  } 
  b''8    fis''8    g''8    fis''8    e''8    g''8  \bar "|"     fis''8    a''8 
   \tuplet 3/2 {   a''8    a''8    a''8  }   b''4    a''8    fis''8  \bar "|"   
g''4. ^"~"    fis''8    e''8    fis''8    d''8    e''8  \bar "|"   fis''8    
b'8  \grace {    d''8  }   b'8    a'8    b'8    cis''8    d''8    b'8  \bar "|" 
  a'8    fis'8    e'8    fis'8    d'2  \bar "||"   
}

\score{
    <<

	\context Staff="default"
	{
	    \voicedefault 
	}

    >>
	\layout {
	}
	\midi {}
}
