\version "2.19.49"
% clairnote-type = sn
\include "clairnote.ly"
\header {
	transcription = "ceolachan"
	crossRefNumber = "1"
	footnotes = ""
	meter = "Polka"
	source = "https://thesession.org/tunes/706#setting23562"
	arranger = "Setting 4"
	tagline = \markup { \vspace #1.8 \sans \abs-fontsize #7.5 \wordwrap {Sheet music in \with-url \clairnoteTypeUrl { \clairnoteTypeName music notation} published by Paul Morris using \with-url #"http://www.lilypond.org" {LilyPond.} Automatically converted to LilyPond format from an ABC source file from \with-url #"https://thesession.org" {the Session} website: \with-url #"https://thesession.org/tunes/706#setting23562" {"https://thesession.org/tunes/706#setting23562"}}}
	title = "Mairi's Wedding"
}
voicedefault =  {
\set Score.defaultBarType = ""

\time 2/4 \key d \dorian   g'16    e'16    \bar "|"   d'8.    d'16    d'8    
e'8    \bar "|"   g'8    a'8    b'4    \bar "|"   a'8    g'8    e'8    g'8    
\bar "|"   b'8    a'8    b'4    \bar "|"     d'8.    d'16    d'8    e'8    
\bar "|"   g'8    a'8    b'4    \bar "|"   a'8    g'8    e'8  <<   c'8    g'8   
>>   \bar "|"   d'4    d'8    \bar "||"     b'16    c''16    \bar "|"   d''8.   
 d''16    d''8    e''8    \bar "|"   d''8    c''8    b'4    \bar "|"   a'8    
g'8    e'8    g'8    \bar "|"   b'8    a'8    b'16    d''8.    \bar "|"     
d''8.    d''16    d''8    e''8    \bar "|"   d''8    c''8    b'4    \bar "|"   
a'8    g'8    e'8  <<   c'8    g'8   >>   \bar "|"   d'4   ~    d'8    
\bar "|."   
}

\score{
    <<

	\context Staff="default"
	{
	    \voicedefault 
	}

    >>
	\layout {
	}
	\midi {}
}
