\version "2.19.49"
% clairnote-type = sn
\include "clairnote.ly"
\header {
	transcription = "ceolachan"
	crossRefNumber = "1"
	footnotes = ""
	meter = "Reel"
	source = "https://thesession.org/tunes/215#setting12890"
	arranger = "Setting 3"
	tagline = \markup { \vspace #1.8 \sans \abs-fontsize #7.5 \wordwrap {Sheet music in \with-url \clairnoteTypeUrl { \clairnoteTypeName music notation} published by Paul Morris using \with-url #"http://www.lilypond.org" {LilyPond.} Automatically converted to LilyPond format from an ABC source file from \with-url #"https://thesession.org" {the Session} website: \with-url #"https://thesession.org/tunes/215#setting12890" {"https://thesession.org/tunes/215#setting12890"}}}
	title = "Mairtin O'Connor's Flying Clog"
}
voicedefault =  {
\set Score.defaultBarType = ""

\time 4/4 \key d \major   \repeat volta 2 {   d'4    d'16    d'16    d'8    a'8 
   d'8    fis'8    a'8    \bar "|"   b'8    d'8    g'8    b'8    a'8    fis'8   
 e'8    fis'8    \bar "|"   d'4    d'16    d'16    d'8    fis'8    d'8    e'8   
 fis'8    \bar "|"     g'8 ^"A"   b8 ^"U"     b16 ^"A"   b16    b8    d'8    b8 
   a8    b8    \bar "|"   d'4    d'16    d'16    d'8    a'8    d'8    fis'8    
a'8    \bar "|"   b'8    d'8    g'8    b'8    a'8    fis'8    e'8    fis'8    
\bar "|"     g'8 ^"U"   b8 ^"A"     b16 ^"A"   b16    b8    d'8    b8    a8    
b8    } \alternative{{   a8    cis'8    e'8    a'8    fis'8    a'8    e'8    
fis'8    } }    \repeat volta 2 {   fis'8    a'8    a'16    a'16    a'8    b'8  
  a'8    d''8    a'8    \bar "|"   b'8    a'8    d''8    a'8    b'8    d''8    
a'8    g'8    \bar "|"   fis'8    a'8    a'16    a'16    a'8    b'8    a'8    
d''8    a'8    \bar "|"   b'8    e''8    e''8    d''8    cis''8    b'8    a'8   
 g'8    \bar "|"   fis'8    g'8    a'8    fis'8    fis'8    g'8    g'8    b8    
\bar "|"   b16    b16    b8    g'8    b8    a8    a8    fis'8    a8    \bar "|" 
  g'8    b8    b16    b16    b8    d'8    b8    a8    b8    } \alternative{{   
a8    cis'8    e'8    a'8    fis'8    d'8    d'8    e'8    } }    
}

\score{
    <<

	\context Staff="default"
	{
	    \voicedefault 
	}

    >>
	\layout {
	}
	\midi {}
}
