\version "2.19.49"
% clairnote-type = sn
\include "clairnote.ly"
\header {
	transcription = "birlibirdie"
	crossRefNumber = "1"
	footnotes = ""
	meter = "Reel"
	source = "https://thesession.org/tunes/973#setting14171"
	arranger = "Setting 3"
	tagline = \markup { \vspace #1.8 \sans \abs-fontsize #7.5 \wordwrap {Sheet music in \with-url \clairnoteTypeUrl { \clairnoteTypeName music notation} published by Paul Morris using \with-url #"http://www.lilypond.org" {LilyPond.} Automatically converted to LilyPond format from an ABC source file from \with-url #"https://thesession.org" {the Session} website: \with-url #"https://thesession.org/tunes/973#setting14171" {"https://thesession.org/tunes/973#setting14171"}}}
	title = "Man Of Aran"
}
voicedefault =  {
\set Score.defaultBarType = ""

\time 4/4 \key b \minor   fis'8    b'8    fis''8    e''8    d''8    b'8    b'8  
  b'8  \bar "|"   a'8    cis''8    e''8    d''8    cis''8    a'8    b'8    g'8  
\bar "|"   fis'8    b'8    fis''8    e''8    d''8    b'8    b'8    b'8  
\bar "|"   a'8    b'8    b'8    d''8    fis'8    g'8    g'8    g'8  \bar "|"   
fis'8    b'8    fis''8    e''8    d''8    b'8    b'8    b'8  \bar "|"   a'8    
cis''8    e''8    d''8    cis''8    a'8    \tuplet 3/2 {   b'16    cis''16    
d''16  }   r8 \bar "|"   fis''4.    e''8    d''8    b'8    b'8    b'8  \bar "|" 
  cis''8    e''8    d''8    cis''8    d''8    b'8    a'8    g'8  \bar "|"   
fis'8    b'8    fis''8    e''8    d''8    b'8    b'8    b'8  \bar "|"   a'8    
cis''8    e''8    d''8    cis''8    a'8    a'8    g'8  \bar "|"   fis'8    b'8  
  fis''8    e''8    d''8    b'8    b'8    b'8  \bar "|"   a'8    b'8    b'8    
b'8    fis'8    g'8    g'8    g'8  \bar "|"   fis'8    b'8    fis''8    e''8    
d''8    b'8    b'8    b'8  \bar "|"   a'8    cis''8    e''8    d''8    cis''8   
 a'8    b'16    cis''16    d''8  \bar "|"   fis''8    a''8    fis''8    e''8    
d''8    b'8    b'8    b'8  \bar "|"   cis''8    e''8    d''8    cis''8    d''8  
  b'8    b'8    cis''8  \bar "||"   d''8    fis''8    fis''8    fis''8    
cis''16    d''16    fis''8    e''8    d''8  \bar "|"   cis''8    e''8    e''8   
 cis''8    g''8    e''8    e''8    cis''8  \bar "|"   d''8    fis''8    fis''8  
  fis''8    d''8    fis''8    e''8    d''8  \bar "|"   cis''8    e''8    d''8   
 cis''8    d''8    b'8    b'8    b'8  \bar "|"   d''8    fis''8    fis''8    
fis''8    d''8    fis''8    fis''8    d''8  \bar "|"   cis''8    e''8    e''8   
 cis''8    g''8    fis''8    e''8    cis''8  \bar "|"   d''8    r8 e''16    
fis''16    g''8    fis''8    b'8    b'8    b'8  \bar "|"   fis''4.    e''8    
fis''8    e''8    d''8    cis''8  \bar "|"   d''8    fis''8    a''8    r8   
d''8    fis''8    e''8    d''8  \bar "|"   cis''8    e''8    e''8    e''8    
g''8    e''8    e''8    cis''8  \bar "|"   d''8    fis''8    fis''4    d''8    
fis''8    e''8    d''8  \bar "|"   cis''8    e''8    d''8    cis''8    d''8    
b'8    b'8    b'8  \bar "|"   d''8    fis''8    fis''8    a''8    d''8    
fis''8    a''8    d''8  \bar "|"   cis''8    e''8    e''8    cis''8    g''4    
fis''8    e''8  \bar "|"   d''4    e''16    fis''16    g''8    fis''8    b'8    
b'4  \bar "|"   fis''8    r8   fis''4 (   fis''8  -)   e''8    d''8    b'8  
\bar "||"   
}

\score{
    <<

	\context Staff="default"
	{
	    \voicedefault 
	}

    >>
	\layout {
	}
	\midi {}
}
