\version "2.19.49"
% clairnote-type = sn
\include "clairnote.ly"
\header {
	transcription = "Mark Cordova"
	crossRefNumber = "1"
	footnotes = ""
	meter = "Reel"
	source = "https://thesession.org/tunes/973#setting973"
	arranger = "Setting 1"
	tagline = \markup { \vspace #1.8 \sans \abs-fontsize #7.5 \wordwrap {Sheet music in \with-url \clairnoteTypeUrl { \clairnoteTypeName music notation} published by Paul Morris using \with-url #"http://www.lilypond.org" {LilyPond.} Automatically converted to LilyPond format from an ABC source file from \with-url #"https://thesession.org" {the Session} website: \with-url #"https://thesession.org/tunes/973#setting973" {"https://thesession.org/tunes/973#setting973"}}}
	title = "Man Of Aran"
}
voicedefault =  {
\set Score.defaultBarType = ""

\time 4/4 \key b \minor   \repeat volta 2 {   fis'8    b'8    fis''8    e''8    
d''8    b'8    \tuplet 3/2 {   b'8    b'8    b'8  } \bar "|"   a'8    cis''8    
e''8    d''8    cis''8    a'8    a'4  \bar "|"   fis'8    b'8    fis''8    e''8 
   d''8    b'8    b'4  \bar "|"   fis'8    b'8    b'4    cis''8    b'8    b'4  
\bar "|"     fis'8    b'8    fis''8    e''8    d''8    b'8    b'4  \bar "|"   
cis''8    e''8    e''4    cis''8    e''8    e''4  \bar "|"   fis''4.    e''8    
d''8    b'8    b'4  \bar "|"   cis''8    e''8    d''8    cis''8    d''8    b'8  
  b'4  }     \repeat volta 2 {   d''8    fis''8    fis''4    d''8    fis''8    
fis''4  \bar "|"   cis''8    e''8    e''4    cis''8    e''8    e''4  \bar "|"   
d''8    fis''8    fis''4    d''8    fis''8    fis''4  \bar "|"   cis''4    e''8 
   cis''8    d''8    b'8    b'4  \bar "|"     d''8    fis''8    a''8    fis''8  
  d''8    fis''8    a''8    fis''8  \bar "|"   cis''8    e''8    g''8    e''8   
 cis''8    e''8    g''8    e''8  \bar "|"   d''8    fis''8    e''8    g''8    
fis''8    b'8    b'4  \bar "|"   fis''4.    e''8    fis''8    e''8    d''8    
cis''8  }   
}

\score{
    <<

	\context Staff="default"
	{
	    \voicedefault 
	}

    >>
	\layout {
	}
	\midi {}
}
