\version "2.19.49"
% clairnote-type = sn
\include "clairnote.ly"
\header {
	transcription = "CreadurMawnOrganig"
	crossRefNumber = "1"
	footnotes = ""
	meter = "Reel"
	source = "https://thesession.org/tunes/1062#setting14288"
	arranger = "Setting 3"
	tagline = \markup { \vspace #1.8 \sans \abs-fontsize #7.5 \wordwrap {Sheet music in \with-url \clairnoteTypeUrl { \clairnoteTypeName music notation} published by Paul Morris using \with-url #"http://www.lilypond.org" {LilyPond.} Automatically converted to LilyPond format from an ABC source file from \with-url #"https://thesession.org" {the Session} website: \with-url #"https://thesession.org/tunes/1062#setting14288" {"https://thesession.org/tunes/1062#setting14288"}}}
	title = "Martin Rochford's"
}
voicedefault =  {
\set Score.defaultBarType = ""

\time 4/4 \key c \major   f'4    c'8    d'8    f'8    g'8    a'8    c''8  
\bar "|"   c''8    a'8    g'8    c''8    a'8    d''8    d''4  \bar "|"   f'8    
d'8    c'8    d'8    f'8    a'8    d''8    a'8  \bar "|"   c''8    a'8    g'8   
 c''8    a'8    d'8    d'8    e'8  \bar ":|."   c''8    a'8    g'8    c''8    
a'8    d'8    d'4    \bar ".|:"   f''4    d''8    f''8    e''8    d''8    c''8   
 g'8  \bar "|"   a'8    d''8    \tuplet 3/2 {   d''8    d''8    d''8  }   a'8    
d''8    d''8    e''8  \bar "|"   f''4    a''8    f''8    e''8    d''8    c''8   
 a'8  \bar "|"   d''8    a'8    g'8    d''8    a'8    d'8    d'4  \bar ":|."   
f''4    a''8    f''8    e''8    c''8    c''4 ^"~"  \bar "|"   c''8    a'8    
g'8    c''8    a'8    d'8    d'4  \bar "||"   
}

\score{
    <<

	\context Staff="default"
	{
	    \voicedefault 
	}

    >>
	\layout {
	}
	\midi {}
}
