\version "2.19.49"
% clairnote-type = sn
\include "clairnote.ly"
\header {
	transcription = "flutes_and_boots"
	crossRefNumber = "1"
	footnotes = ""
	meter = "Reel"
	source = "https://thesession.org/tunes/461#setting27212"
	arranger = "Setting 6"
	tagline = \markup { \vspace #1.8 \sans \abs-fontsize #7.5 \wordwrap {Sheet music in \with-url \clairnoteTypeUrl { \clairnoteTypeName music notation} published by Paul Morris using \with-url #"http://www.lilypond.org" {LilyPond.} Automatically converted to LilyPond format from an ABC source file from \with-url #"https://thesession.org" {the Session} website: \with-url #"https://thesession.org/tunes/461#setting27212" {"https://thesession.org/tunes/461#setting27212"}}}
	title = "Martin Wynne's"
}
voicedefault =  {
\set Score.defaultBarType = ""

\time 4/4 \key g \major   \bar "|"   d''8    g''8    e''8    d''8    b'4    a'8 
   c''8    \bar "|"   b'8    g'8    a'8    g'8    e'8    a'8    a'8    c''8    
\bar "|"   b'8    g'8    b'8    d''8    c''8    d''8    e''8    g''8    
\bar "|"   fis''8    g''8    a''8    fis''8    g''4    fis''8    e''8    
\bar "|"     d''8    g''8    e''8    d''8    b'4    a'8    c''8    \bar "|"   
b'8    g'8    a'8    g'8    e'8    a'8    a'8    c''8    \bar "|"   b'8    g'8  
  b'8    d''8    c''8    d''8    e''8    g''8    \bar "|"   fis''8    g''8    
a''8    fis''8    g''4    g''8    e''8  \bar "|"   fis''8    g''8    a''8    
fis''8    g''8    d''8    e''8    fis''8    \bar "||"     \bar "|"   g''4.    
a''8    g''8    fis''8    e''8    fis''8    \bar "|"   d''8    g''8    e''8    
d''8    b'8    g'8    b'8    c''8    \bar "|"   d''8    g''8    g''8    a''8    
g''8    fis''8    e''8    fis''8  \bar "|"   d''8    e''8    g''8    a''8    
b''4    a''8    fis''8    \bar "|"     g''4.    a''8    g''8    fis''8    e''8  
  fis''8    \bar "|"   d''8    g''8    e''8    d''8    b'4.    c''8    \bar "|" 
  d''8    g''8    g''8    a''8    g''8    fis''8    e''8    d''8    \bar "|"   
fis''8    g''8    a''8    fis''8    g''8    d''8    e''8    fis''8  \bar "|"   
fis''8    g''8    a''8    fis''8    g''4    g''8    e''8  \bar "||"   
}

\score{
    <<

	\context Staff="default"
	{
	    \voicedefault 
	}

    >>
	\layout {
	}
	\midi {}
}
