\version "2.19.49"
% clairnote-type = sn
\include "clairnote.ly"
\header {
	transcription = "birlibirdie"
	crossRefNumber = "1"
	footnotes = ""
	meter = "Reel"
	source = "https://thesession.org/tunes/954#setting14153"
	arranger = "Setting 3"
	tagline = \markup { \vspace #1.8 \sans \abs-fontsize #7.5 \wordwrap {Sheet music in \with-url \clairnoteTypeUrl { \clairnoteTypeName music notation} published by Paul Morris using \with-url #"http://www.lilypond.org" {LilyPond.} Automatically converted to LilyPond format from an ABC source file from \with-url #"https://thesession.org" {the Session} website: \with-url #"https://thesession.org/tunes/954#setting14153" {"https://thesession.org/tunes/954#setting14153"}}}
	title = "Mary O'Neill's"
}
voicedefault =  {
\set Score.defaultBarType = ""

\time 4/4 \key g \major   b'4.    e''8    d''8    b'8    g'8    a'8  \bar "|"   
b'4    a'8    c''8    b'8    e'8    e'8    d'8  \bar "|"   b'4.    e''8    d''8 
   b'8    a'8    c''8  \bar "|"   b'8    d''8    a'8    d''8    b''8    g'8    
g'8    a'8  \bar ":|."   
}

\score{
    <<

	\context Staff="default"
	{
	    \voicedefault 
	}

    >>
	\layout {
	}
	\midi {}
}
