\version "2.19.49"
% clairnote-type = sn
\include "clairnote.ly"
\header {
	transcription = "Cú Chulainn1"
	crossRefNumber = "1"
	footnotes = ""
	meter = "Reel"
	source = "https://thesession.org/tunes/74#setting28457"
	arranger = "Setting 15"
	tagline = \markup { \vspace #1.8 \sans \abs-fontsize #7.5 \wordwrap {Sheet music in \with-url \clairnoteTypeUrl { \clairnoteTypeName music notation} published by Paul Morris using \with-url #"http://www.lilypond.org" {LilyPond.} Automatically converted to LilyPond format from an ABC source file from \with-url #"https://thesession.org" {the Session} website: \with-url #"https://thesession.org/tunes/74#setting28457" {"https://thesession.org/tunes/74#setting28457"}}}
	title = "Mason's Apron, The"
}
voicedefault =  {
\set Score.defaultBarType = ""

\time 4/4 \key g \major   fis''8    \bar "|"   g''8    g'8    g'8    g'8    b'8 
   a'8    g'8    e'8    \bar "|"   d'8    e'8    g'8    a'8    b'8    g'8    
a'8    b'8    \bar "|"   c''8    a'8    a'8    g'8    a'8    b'8    a'8    g'8  
  \bar "|"   fis'8    g'8    a'8    b'8    c''8    d''8    e''8    fis''8  
\bar "|"     g''8    g'8    g'8    g'8    b'8    a'8    g'8    e'8    \bar "|"  
 d'8    e'8    g'8    a'8    b'8    g'8    a'8    b'8    \bar "|"   c''8    b'8 
   c''8    d''8    e''8    d''8    e''8    g''8    \bar "|"   d''8    c''8    
b'8    a'8    g'4.    fis''8    \bar "|"     g''8    g'8    g'8    g'8    b'8   
 a'8    g'8    e'8    \bar "|"   d'8    e'8    g'8    a'8    b'8    g'8    a'8  
  b'8    \bar "|"   c''8    a'8    a'8    g'8    a'8    b'8    a'8    g'8    
\bar "|"   fis'8    g'8    a'8    b'8    c''8    d''8    e''8    fis''8    
\bar "|"     g''8    e''8    d''8    b'8    g'8    a'8    g'8    e'8    
\bar "|"   d'8    e'8    g'8    a'8    b'8    g'8    a'8    b'8    \bar "|"   
c''8    b'8    c''8    d''8    e''8    d''8    e''8    g''8    \bar "|"   d''8  
  c''8    b'8    a'8    g'4.    a'8    \bar "|"     b'8    g'8    d''8    g'8   
 e''8    g'8    d''8    g'8    \bar "|"   b'8    g'8    d''8    g'8    e''8    
g'8    d''8    b'8    \bar "|"   b'8    a'8    e''8    a'8    b'8    a'8    e'8 
   a'8    \bar "|"   b'8    a'8    e''8    fis''8    g''8    e''8    d''8    
c''8    \bar "|"     b'8    g'8    g'8    g'8    e''8    g'8    d''8    g'8    
\bar "|"   b'8    g'8    d''8    g'8    e''8    g'8    d''8    b'8    \bar "|"  
 a'8    b'8    c''8    d''8    e''8    fis''8    g''8    e''8    \bar "|"   
d''8    c''8    b'8    a'8    g'8    r4   \bar "|"     b'8    g'8    d''8    
g'8    e''8    g'8    d''8    g'8    \bar "|"   b'8    g'8    d''8    g'8    
e''8    g'8    d''8    b'8    \bar "|"   b'8    a'8    e''8    a'8    b'8    
a'8    e'8    a'8    \bar "|"   b'8    a'8    e''8    fis''8    g''8    e''8    
d''8    c''8    \bar "|"     g'4    g'4    e''8    g'8    d''8    g'8    
\bar "|"   b'8    g'8    d''8    g'8    e''8    g'8    d''8    b'8    \bar "|"  
 a'8    b'8    c''8    d''8    e''8    fis''8    g''8    e''8    \bar "|"   
d''8    c''8    b'8    a'8    g'8    g'8    g'8    a'8    \bar "|"     b'4    
d''8    b'8    e''8    b'8    d''8    b'8    \bar "|"   b'4    d''8    b'8    
e''8    b'8    d''8    b'8    \bar "|"   c''4    d''8    c''8    e''8    c''8   
 d''8    c''8    \bar "|"   c''4    d''8    c''8    e''8    c''8    fis''8    
a'8    \bar "|"     b'4    d''8    b'8    e''8    b'8    d''8    b'8    
\bar "|"   g''8    b'8    fis''8    b'8    e''8    b'8    d''8    b'8    
\bar "|"   c''4    c''8    d''8    e''8    d''8    e''8    g''8    \bar "|"   
d''8    c''8    b'8    a'8    g'4    g'8    a'8    \bar "|"     b'4    g''8    
b'8    fis''8    b'8    e''8    b'8    \bar "|"   b'4    g''8    b'8    e''8    
b'8    d''8    b'8    \bar "|"   c''4    d''8    c''8    e''8    c''8    d''8   
 c''8    \bar "|"   c''4    d''8    c''8    e''8    c''8    fis''8    a'8    
\bar "|"     b'4    g''8    b'8    fis''8    b'8    e''8    b'8    \bar "|"   
g''8    b'8    fis''8    b'8    e''8    b'8    d''8    b'8    \bar "|"   c''4   
 c''8    d''8    e''8    d''8    e''8    g''8    \bar "|"   d''8    c''8    b'8 
   a'8    g'4    g'8    a'8    \bar "|"     b'4    g'8    b'8    fis'8    b'8   
 e'8    b'8    \bar "|"   g'8    b'8    fis'8    b'8    e'8    b'8    d'8    
b'8    \bar "|"   c''4    a'8    c''8    g'8    c''8    fis'8    c''8    
\bar "|"   d'8    c''8    e'8    c''8    fis'8    c''8    d'8    a'8    
\bar "|"     b'4    g'8    fis'8    g'8    b'8    e'8    g'8    \bar "|"   b'8  
  e'8    g'8    b'8    d'8    g'8    b'8    c''8   ~    \bar "|"   c''4    c''8 
   d''8    e''8    d''8    e''8    g''8    \bar "|"   d''8    c''8    b'8    
a'8    g'8    g'8    b'8    d''8    \bar "|"     g''8    d''8    d''4    e''8   
 d''8    e''8    fis''8    \bar "|"   g''4    fis''8    g''8    e''8    d''8    
e''8    g''8    \bar "|"   a''8    e''8    e''8    e''8    fis''8    e''8    
fis''8    g''8    \bar "|"   a''4    g''8    a''8    e''8    d''8    b'8    
d''8    \bar "|"     g''8    d''8    d''4    e''8    d''8    e''8    fis''8    
\bar "|"   g''4    fis''8    g''8    e''8    d''8    e''8    fis''8    \bar "|" 
  g''8    fis''8    g''8    e''8    d''8    b'8    g'8    b'8    \bar "|"   a'8 
   g'8    a'8    b'8    g'8    g'8    b'8    d''8    \bar "|"     g''8    d''8  
  d''4    e''8    d''8    e''8    fis''8    \bar "|"   g''4    fis''8    g''8   
 e''8    d''8    e''8    g''8    \bar "|"   a''8    e''8    e''8    e''8    
fis''8    e''8    fis''8    g''8    \bar "|"   a''4    g''8    a''8    e''8    
d''8    b'8    d''8    \bar "|"     g''8    d''8    d''4    e''8    d''8    
e''8    fis''8    \bar "|"   g''4    fis''8    g''8    e''4   ~    e''8    
fis''8  \bar "|"   g''4    g''8    e''8    d''4    g'8    b'8    \bar "|"   a'8 
   g'8    a'8    b'8    g'4    g'8    a'8    \bar "|"     b'4    g'8    b'8    
d''8    g'8    b'8    d''8    \bar "|"   g'8    b'8    d''8    g'8    b'8    
d''8    g'8    b'8    \bar "|"   c''4    g'8    c''8    e''8    g'8    c''8    
e''8    \bar "|"   g'8    c''8    e''8    g'8    c''8    e''8    g'8    a'8    
\bar "|"     b'4    g'8    b'8    d''8    g'8    b'8    d''8    \bar "|"   g''4 
   fis''8    g''8    e''8    g''8    d''8    b'8    \bar "|"   c''8    b'8    
c''8    d''8    e''8    d''8    e''8    g''8    \bar "|"   d''8    c''8    b'8  
  a'8    g'4    g'8    a'8    \bar "|"     b'8    d''8    g'8    b'8    d''8    
g'8    b'8    d''8    \bar "|"   g'8    b'8    d''8    g'8    b'8    d''8    
g'8    b'8    \bar "|"   c''4    g'8    c''8    e''8    g'8    c''8    e''8    
\bar "|"   g'8    c''8    e''8    g'8    c''8    e''8    g'8    a'8    \bar "|" 
    b'4    g'8    b'8    d''8    g'8    b'8    d''8    \bar "|"   fis'8    b'8  
  d''8    fis'8    b'8    d''8    fis'8    b'8    \bar "|"   c''8    b'8    
c''8    d''8    e''8    d''8    e''8    g''8    \bar "|"   d''8    c''8    b'8  
  a'8    g'4    gis''4    \bar "|"     a''8    a'8    a'8    a'8    c''8    b'8 
   a'8    fis'8    \bar "|"   e'8    fis'8    a'8    b'8    c''8    a'8    b'8  
  c''8    \bar "|"   d''8    b'8    b'8    b'8    d''8    c''8    b'8    a'8    
\bar "|"   g'8    a'8    b'8    c''8    r8 e''8    fis''8    g''8    \bar "|"   
  a''8    g''8    a''8    fis''8    e''8    d''8    c''8    b'8    \bar "|"   
a'8    g'8    a'8    b'8    c''8    a'8    e'8    a'8    \bar "|"   d''8    
c''8    d''8    e''8    fis''8    e''8    fis''8    a''8    \bar "|"   e''8    
d''8    c''8    b'8    a'4    r4   \bar "|"     a''8    a'8    a'8    a'8    
c''8    b'8    a'8    fis'8    \bar "|"   e'8    fis'8    a'8    b'8    c''8    
a'8    b'8    c''8    \bar "|"   d''8    b'8    b'8    b'8    d''8    c''8    
b'8    a'8    \bar "|"   g'8    a'8    b'8    c''8    d''8    e''8    fis''8    
g''8    \bar "|"     a''8    a'8    a'8    a'8    c''8    b'8    a'8    fis'8   
 \bar "|"   e'8    fis'8    a'8    b'8    c''8    b'8    a'8    c''8    
\bar "|"   b'8    c''8    d''8    e''8    fis''8    e''8    fis''8    a''8    
\bar "|"   e''8    c''8    d''8    b'8    a'4    r4   \bar "||"   
}

\score{
    <<

	\context Staff="default"
	{
	    \voicedefault 
	}

    >>
	\layout {
	}
	\midi {}
}
