\version "2.19.49"
% clairnote-type = sn
\include "clairnote.ly"
\header {
	transcription = "ceolachan"
	crossRefNumber = "1"
	footnotes = ""
	meter = "Reel"
	source = "https://thesession.org/tunes/302#setting13065"
	arranger = "Setting 5"
	tagline = \markup { \vspace #1.8 \sans \abs-fontsize #7.5 \wordwrap {Sheet music in \with-url \clairnoteTypeUrl { \clairnoteTypeName music notation} published by Paul Morris using \with-url #"http://www.lilypond.org" {LilyPond.} Automatically converted to LilyPond format from an ABC source file from \with-url #"https://thesession.org" {the Session} website: \with-url #"https://thesession.org/tunes/302#setting13065" {"https://thesession.org/tunes/302#setting13065"}}}
	title = "Maudabawn Chapel"
}
voicedefault =  {
\set Score.defaultBarType = ""

\repeat volta 2 {
\time 4/4 \key g \major   g'4.    fis'8    e'8    d'8    b8    a8    \bar "|"   
g8    a8    b8    g8    g'4    d'8    b8    \bar "|"   g8    a8    b8    g8    
g'8    a'8    \tuplet 3/2 {   b'8    c''8    d''8  }   \bar "|"   g''8    a''8   
 \tuplet 3/2 {   b''8    a''8    g''8  }   e''8    g''8    g''8    fis''8    
\bar "|"   g''8    a''8    \tuplet 3/2 {   b''8    a''8    g''8  }   e''8    
fis''8    g''8    e''8    \bar "|"   d''8    g''8    e''8    d''8    b'8    
c''8    d''4    \bar "|"   d''8    g''8    g''8    b''8    g''8    b''8    e''8 
   cis''8    \bar "|"   d''8    b'8    a'8    fis'8    g'8    e'8    e'8    d'8 
   }   \repeat volta 2 {   e'4    b'8    e'8    e''8    e'8    b'4    \bar "|"  
 g'8    a'8    b'8    g'8    a'8    g'8    fis'8    d'8    \bar "|"   e'4    
e''8    e'8    d''8    e'8    b'4    \bar "|"   d'4    fis'8    d'8    a8    
d'8    fis'8    d'8    \bar "|"   e'8    b'8    b'8    b'8    b'4.    c''8    
\bar "|"   c''8    b'8    a'8    a'8    b'8    c''8    d''8    e''8    \bar "|" 
  fis''8    g''8    g''8    fis''8    g''8    fis''8    e''8    cis''8    
\bar "|"   d''8    b'8    a'8    fis'8    g'8    e'8    e'8    d'8    }   
}

\score{
    <<

	\context Staff="default"
	{
	    \voicedefault 
	}

    >>
	\layout {
	}
	\midi {}
}
