\version "2.19.49"
% clairnote-type = sn
\include "clairnote.ly"
\header {
	transcription = "joe fidkid"
	crossRefNumber = "1"
	footnotes = ""
	meter = "Reel"
	source = "https://thesession.org/tunes/302#setting13064"
	arranger = "Setting 4"
	tagline = \markup { \vspace #1.8 \sans \abs-fontsize #7.5 \wordwrap {Sheet music in \with-url \clairnoteTypeUrl { \clairnoteTypeName music notation} published by Paul Morris using \with-url #"http://www.lilypond.org" {LilyPond.} Automatically converted to LilyPond format from an ABC source file from \with-url #"https://thesession.org" {the Session} website: \with-url #"https://thesession.org/tunes/302#setting13064" {"https://thesession.org/tunes/302#setting13064"}}}
	title = "Maudabawn Chapel"
}
voicedefault =  {
\set Score.defaultBarType = ""

\time 4/4 \key e \dorian   e'8    fis'8    \repeat volta 2 {   \tuplet 3/2 {   
g'8    fis'8    e'8  } \grace {    fis'8  }   e'8    d'8    e'8    b8    d'8    
b8    \bar "|"   g8    a8    b8    d'8    e'8    b8    d'8    b8    \bar "|"   
g8    a8    b8    d'8    g'8    a'8    b'8    d''8    \bar "|"   g''8    a''8   
 b''8    g''8    e''8    a''8    a''8    fis''8    \bar "|"     
} \alternative{{   g''8    a''8    b''8    g''8    e''8    fis''8    g''8    
e''8    \bar "|"   d''8    fis''8    e''8    d''8    b'8    cis''8    d''4    
\bar "|"   \tuplet 3/2 {   e''8    fis''8    g''8  }   fis''8    a''8    g''8    
b''8    e''8    cis''8    \bar "|"   d''8    b'8    a'8    c''8    b'8    e'8  
\grace {    fis'8  }   e'8    fis'8    } }      \bar "|"   g''4. ^"~"    a''8  
\grace {    b''8  }   a''8    g''8    a''8    fis''8    \bar "|"   g''8    
fis''8    e''8    d''8    e''8    fis''8    g''8    e''8    \bar "|"   d''8    
fis''8    e''8    c''8    b'8    c''8    d''8    b'8    \bar "|"   g'8    c''8  
  b'8    a'8    g'8    e'8  \grace {    fis'8  }   e'8    d'8    \bar "|."     
\bar ".|:"   e'4    b'8    e'8    e''8    e'8    b'8    e'8    \bar "|"   g'8    
a'8    b'8    g'8    a'8    fis'8    d'8    fis'8    \bar "|"   e'4. ^"~"    
fis'8    g'8    fis'8    g'8    b'8    \bar "|"   a'4    \tuplet 3/2 {   fis'8   
 e'8    d'8  }   a8    d'8    fis'8    d'8    \bar "|"     e'4    b'8    e'8    
e''8    e'8    b'8    e'8    \bar "|" \grace {    b'8    cis''8  }   b'8    a'8 
   fis'8    a'8    b'8    cis''8    d''8    e''8    \bar "|"   fis''4 ^"~"    
\tuplet 3/2 {   a''8    g''8    fis''8  }   g''8    fis''8    e''8    cis''8    
\bar "|"   d''8    b'8    a'8    c''8    b'8    e'8  \grace {    fis'8  }   e'8 
   d'8    \bar ":|."   d''8    b'8    a'8    c''8    b'8    e'8  \grace {    
fis'8  }   e'8    fis'8    \bar "||"   
}

\score{
    <<

	\context Staff="default"
	{
	    \voicedefault 
	}

    >>
	\layout {
	}
	\midi {}
}
