\version "2.19.49"
% clairnote-type = sn
\include "clairnote.ly"
\header {
	transcription = "Kenn"
	crossRefNumber = "1"
	footnotes = ""
	meter = "Mazurka"
	source = "https://thesession.org/tunes/1319#setting1319"
	arranger = "Setting 1"
	tagline = \markup { \vspace #1.8 \sans \abs-fontsize #7.5 \wordwrap {Sheet music in \with-url \clairnoteTypeUrl { \clairnoteTypeName music notation} published by Paul Morris using \with-url #"http://www.lilypond.org" {LilyPond.} Automatically converted to LilyPond format from an ABC source file from \with-url #"https://thesession.org" {the Session} website: \with-url #"https://thesession.org/tunes/1319#setting1319" {"https://thesession.org/tunes/1319#setting1319"}}}
	title = "Meeting In The Park"
}
voicedefault =  {
\set Score.defaultBarType = ""

\time 3/4 \key g \major   \repeat volta 2 {   g'8    a'8  \bar "|"   b'4    b'8 
   g'8    d'8    fis'8  \bar "|"   d'8    e'8    c''4    d''4  \bar "|"   b'4   
 d''8    e''8    d''8    g'8  \bar "|" \tuplet 3/2 {   b'8    c''8    b'8  }   
a'4    g'8    a'8  \bar "|"     b'4    b'8    g'8    d'8    fis'8  \bar "|"   
d'8    e'8    c''4    c''8    d''8  \bar "|"   e''8    d''8    b'4    a'4  
\bar "|"   g'4    g'4  }     \repeat volta 2 {   b'8    c''8  \bar "|"   d''4   
 d''8    g'8    b'8    d''8  \bar "|"   g''4    fis''4    e''4  \bar "|"   e''8 
   d''8    b'8    g'8    c''8    g'8  \bar "|" \tuplet 3/2 {   b'8    c''8    
b'8  }   a'4    b'8    c''8  \bar "|"     d''4    d''8    g'8    b'8    d''8  
\bar "|"   g''4    fis''4    e''8    g''8  \bar "|"   e''8    d''8    b'4    
a'4  \bar "|"   g'4    g'4  }     \repeat volta 2 {   a'8    g'8  \bar "|"   
fis'4    d''8    fis'8    d''8    fis'8  \bar "|"   g'4    d''8    g'8    d''8  
  g'8  \bar "|"   a'8    cis''8    e''8    cis''!8    g''8    e''8  \bar "|" 
\tuplet 3/2 {   g''8    a''8    g''8  }   fis''4    d''8    e''8  \bar "|"     
fis''8    a'8    e''8    a'8    d''8    a'8  \bar "|"   d''4    cis''4    b'8   
 d''8  \bar "|"   b'8    a'8    fis'4    e'4  \bar "|"   d'4    d'4  }   
}

\score{
    <<

	\context Staff="default"
	{
	    \voicedefault 
	}

    >>
	\layout {
	}
	\midi {}
}
