\version "2.19.49"
% clairnote-type = sn
\include "clairnote.ly"
\header {
	transcription = "ceolachan"
	crossRefNumber = "1"
	footnotes = ""
	meter = "Slide"
	source = "https://thesession.org/tunes/70#setting12540"
	arranger = "Setting 7"
	tagline = \markup { \vspace #1.8 \sans \abs-fontsize #7.5 \wordwrap {Sheet music in \with-url \clairnoteTypeUrl { \clairnoteTypeName music notation} published by Paul Morris using \with-url #"http://www.lilypond.org" {LilyPond.} Automatically converted to LilyPond format from an ABC source file from \with-url #"https://thesession.org" {the Session} website: \with-url #"https://thesession.org/tunes/70#setting12540" {"https://thesession.org/tunes/70#setting12540"}}}
	title = "Merrily Kissed The Quaker"
}
voicedefault =  {
\set Score.defaultBarType = ""

\time 12/8 \key g \major \time 6/8   \repeat volta 2 {   g'8    a'8    b'8    
d'4    b'8    \bar "|"   c''4    b'8    a'4.    \bar "|"   g'8    a'8    b'8    
d'4    d'8    \bar "|"   e'4.    g'4.    }     g'8    a'8    b'8    d''4    b'8 
   \bar "|"   e''4    b'8    d''4.    \bar "|"   g'8    a'8    b'8    d''4    
b'8    \bar "|"   c''4.    d''4.    \bar "|"     e''4    c''8    a'8    b'8    
c''8    \bar "|"   d''4    b'8    g'4.    \bar "|"   g'8    a'8    b'8    d'4   
 d'8    \bar "|"   e'4.    g'4.    \bar "|."   
}

\score{
    <<

	\context Staff="default"
	{
	    \voicedefault 
	}

    >>
	\layout {
	}
	\midi {}
}
