\version "2.19.49"
% clairnote-type = sn
\include "clairnote.ly"
\header {
	transcription = "turophile"
	crossRefNumber = "1"
	footnotes = ""
	meter = "Slide"
	source = "https://thesession.org/tunes/70#setting12535"
	arranger = "Setting 2"
	tagline = \markup { \vspace #1.8 \sans \abs-fontsize #7.5 \wordwrap {Sheet music in \with-url \clairnoteTypeUrl { \clairnoteTypeName music notation} published by Paul Morris using \with-url #"http://www.lilypond.org" {LilyPond.} Automatically converted to LilyPond format from an ABC source file from \with-url #"https://thesession.org" {the Session} website: \with-url #"https://thesession.org/tunes/70#setting12535" {"https://thesession.org/tunes/70#setting12535"}}}
	title = "Merrily Kissed The Quaker"
}
voicedefault =  {
\set Score.defaultBarType = ""

\repeat volta 2 {
\time 12/8 \key g \major   g'8    a'8    b'8    d'8    e'8    d'8    c''4 ^"~"  
  a'8    b'8    g'8    e'8  \bar "|"   g'8    a'8    b'8    d'8    e'8    d'8   
 a'4 ^"~"    b'8    a'8    g'8    e'8  \bar "|"     g'8    a'8    b'8    d'8    
e'8    d'8    c''4 ^"~"    a'8    b'8    g'8    e'8  \bar "|"   g'8    a'8    
b'8    d'8    e'8    d'8    g'4. ^"~"    g'4.  }     \repeat volta 2 {   g'4    
b'8    d''4. ^"~"    e''8    d''8    b'8    d''4    b'8  \bar "|"   g'4    b'8  
  d''4    b'8    a'4. ^"~"    a'8    g'8    e'8  \bar "|"     g'4 ^"~"    b'8   
 d''4. ^"~"    e''8    d''8    b'8    d''4    b'8  \bar "|"   g'8    a'8    b'8 
   d'4. ^"~"    g'4. ^"~"    g'4    d'8  }     \repeat volta 2 {   g'4 ^"~"    
b'8    d''4    d''8    e''8    d''8    b'8    g''4 ^"~"    e''8  \bar "|"   
d''8    b'8    a'8    g'8    b'8    d''8    e''4 ^"~"    fis''8    g''4    g''8 
 \bar "|"     g''8    e''8    d''8    b'8    a'8    b'8    d''4    b'8    a'8   
 g'8    e'8  \bar "|"   g'8    a'8    b'8    d'8    e'8    d'8    g'4. ^"~"    
g'4    d'8  }   
}

\score{
    <<

	\context Staff="default"
	{
	    \voicedefault 
	}

    >>
	\layout {
	}
	\midi {}
}
