\version "2.19.49"
% clairnote-type = sn
\include "clairnote.ly"
\header {
	transcription = "Dr. Dow"
	crossRefNumber = "1"
	footnotes = ""
	meter = "Reel"
	source = "https://thesession.org/tunes/1230#setting1230"
	arranger = "Setting 1"
	tagline = \markup { \vspace #1.8 \sans \abs-fontsize #7.5 \wordwrap {Sheet music in \with-url \clairnoteTypeUrl { \clairnoteTypeName music notation} published by Paul Morris using \with-url #"http://www.lilypond.org" {LilyPond.} Automatically converted to LilyPond format from an ABC source file from \with-url #"https://thesession.org" {the Session} website: \with-url #"https://thesession.org/tunes/1230#setting1230" {"https://thesession.org/tunes/1230#setting1230"}}}
	title = "Merry Harriers, The"
}
voicedefault =  {
\set Score.defaultBarType = ""

\time 4/4 \key a \dorian   \repeat volta 2 {   g''8    fis''8    g''8  \bar "|" 
  e''8    a'8    a'4 ^"~"    e''8    a'8    g''8    a'8  \bar "|"   e''8    a'8 
   a'4 ^"~"    b'8    g'8    b'8    d''8  \bar "|"   e''8    a'8    a'4 ^"~"    
e''8    g''8    g''4 ^"~"  \bar "|"   a''8    b''8    g''8    e''8    d''8  }   
  \repeat volta 2 {   c''8    b'8    c''8  \bar "|"   d''8    g''8    g''4 
^"~"    b''8    g''8    g''4 ^"~"  \bar "|"   d''8    g''8    g''8    d''8    
b'8    g'8    b'8    c''8  \bar "|"   d''8    g''8    g''8    fis''8    g''8    
a''8    b''8    g''8  \bar "|"   a''8    b''8    g''8    e''8    d''8  }   
}

\score{
    <<

	\context Staff="default"
	{
	    \voicedefault 
	}

    >>
	\layout {
	}
	\midi {}
}
