\version "2.19.49"
% clairnote-type = sn
\include "clairnote.ly"
\header {
	transcription = "ceolachan"
	crossRefNumber = "1"
	footnotes = ""
	meter = "Slide"
	source = "https://thesession.org/tunes/958#setting25379"
	arranger = "Setting 3"
	tagline = \markup { \vspace #1.8 \sans \abs-fontsize #7.5 \wordwrap {Sheet music in \with-url \clairnoteTypeUrl { \clairnoteTypeName music notation} published by Paul Morris using \with-url #"http://www.lilypond.org" {LilyPond.} Automatically converted to LilyPond format from an ABC source file from \with-url #"https://thesession.org" {the Session} website: \with-url #"https://thesession.org/tunes/958#setting25379" {"https://thesession.org/tunes/958#setting25379"}}}
	title = "Michael Russell's"
}
voicedefault =  {
\set Score.defaultBarType = ""

\time 12/8 \key d \major   \repeat volta 2 {   d''8    cis''8    b'8    
\bar "|"   a'4    a'8    a'4    a'8    a'8    b'8    a'8    fis'4    e'8    
\bar "|"   d'8    fis'8    a'8    b'4    a'8    b'4    a'8    fis'4    a'8    
\bar "|"     d''8    cis''8    d''8    a''4    g''8    fis''4    d''8    b'4    
a'8    \bar "|"   b'8    d''8    a'8    b'8    a'8    b'8    d''4.    }     
\repeat volta 2 {   d''4    a'8    \bar "|"   d''8    cis''8    d''8    a''4    
g''8    fis''4    d''8    b'4    a'8    \bar "|"   b'8    d''8    a'8    b'8    
d''8    a'8    b'4    a'8    fis'4    a'8    \bar "|"     d''8    cis''8    
d''8    a''4    g''8    fis''4    d''8    b'4    a'8    \bar "|"   b'8    d''8  
  a'8    b'8    a'8    b'8    d''4.    }   
}

\score{
    <<

	\context Staff="default"
	{
	    \voicedefault 
	}

    >>
	\layout {
	}
	\midi {}
}
