\version "2.19.49"
% clairnote-type = sn
\include "clairnote.ly"
\header {
	transcription = "Edgar Bolton"
	crossRefNumber = "1"
	footnotes = ""
	meter = "Reel"
	source = "https://thesession.org/tunes/746#setting13837"
	arranger = "Setting 5"
	tagline = \markup { \vspace #1.8 \sans \abs-fontsize #7.5 \wordwrap {Sheet music in \with-url \clairnoteTypeUrl { \clairnoteTypeName music notation} published by Paul Morris using \with-url #"http://www.lilypond.org" {LilyPond.} Automatically converted to LilyPond format from an ABC source file from \with-url #"https://thesession.org" {the Session} website: \with-url #"https://thesession.org/tunes/746#setting13837" {"https://thesession.org/tunes/746#setting13837"}}}
	title = "Miller Of Droghan, The"
}
voicedefault =  {
\set Score.defaultBarType = ""

\time 4/4 \key g \major   \repeat volta 2 {   g'4 ^"G"   b'8    g'8    d'8    
g'8    b'8    g'8  \bar "|"     e'8 ^"Em"   b'8    e''8    fis''8    g''8    
e''8    d''8    b'8    \bar "|"     g'4 ^"G"   b'8    g'8    d'8    g'8    b'8  
  a'8    \bar "|"     g'8 ^"C"   e'8    g'8    a'8      b'8 ^"D"   d''8    b'8  
  a'8    \bar "|"     g'4 ^"G"   b'8    g'8    d'8    g'8    b'8    g'8    
\bar "|"     e'8 ^"Em"   b'8    e''8    fis''8    g''8    fis''8    e''8    
d''8  \bar "|"   fis''8 ^"Bm"   a''8    e''8    fis''8    d''8    e''8    b'8   
 a'8    } \alternative{{     g'8 ^"C"   e'8    g'8    a'8      b'4. ^"D"^"~"    
a'8  } {     g'8 ^"C"   e'8    g'8    a'8      b'8 ^"D"   a'8    \tuplet 3/2 {   
b'8    cis''8    d''8  } \bar "||"     e''8 ^"Em"   e'8    e'4 ^"~"    d'8    
e'8    b'8    e'8    \bar "|"     d'8 ^"D"   e'8    g'8    a'8      b'4. 
^"Bm"^"~"    a'8    \bar "|"     g'8 ^"C"   e'8    e'4 ^"~"    d'8    e'8    
b'8    e'8  \bar "|"   d'8 ^"Bm"   e'8    g'8    a'8      b'8 ^"G"   a'8    
\tuplet 3/2 {   b'8    cis''8    d''8  } \bar "|"     e''8 ^"Em"   e'8    e'4 
^"~"    d'8    e'8    b'8    e'8  \bar "|"   d'8 ^"Bm"   e'8    g'8    a'8    
b'8    d''8    b'8    a'8  \bar "|"   g'8 ^"C"   e'8    e'4 ^"~"      d'8 ^"D"  
 e'8    b'8    e'8  \bar "|"   d'8 ^"Em"   e'8    g'8    a'8      b'4. 
^"F\#m"^"~"    a'8  \bar "||"   }}
}

\score{
    <<

	\context Staff="default"
	{
	    \voicedefault 
	}

    >>
	\layout {
	}
	\midi {}
}
