\version "2.19.49"
% clairnote-type = sn
\include "clairnote.ly"
\header {
	transcription = "ceolachan"
	crossRefNumber = "1"
	footnotes = ""
	meter = "Reel"
	source = "https://thesession.org/tunes/75#setting24549"
	arranger = "Setting 15"
	tagline = \markup { \vspace #1.8 \sans \abs-fontsize #7.5 \wordwrap {Sheet music in \with-url \clairnoteTypeUrl { \clairnoteTypeName music notation} published by Paul Morris using \with-url #"http://www.lilypond.org" {LilyPond.} Automatically converted to LilyPond format from an ABC source file from \with-url #"https://thesession.org" {the Session} website: \with-url #"https://thesession.org/tunes/75#setting24549" {"https://thesession.org/tunes/75#setting24549"}}}
	title = "Miss McLeod's"
}
voicedefault =  {
\set Score.defaultBarType = ""

\time 4/4 \key d \major   \repeat volta 2 {   d'4    d''4    b'8 (   a'8    b'8 
   d''8  -)   \bar "|"   fis'4    fis'4    fis'8 (   g'8    fis'8    e'8  -)   
\bar "|"   d'4    d''4    b'8 (   a'8    b'8    d''8  -)   \bar "|"   e'4    
e'4    e'8    g'8    fis'8    e'8    \bar "|"     d'4    d''4    b'8    a'8    
b'8    d''8    \bar "|"   fis'4    fis'8    g'8    fis'8    g'8    a'4    
\bar "|"   b'4    b'8    cis''8    b'8    a'8    b'8    cis''8    \bar "|"   
d''8    b'8    a'8    fis'8    e'2    }     \repeat volta 2 {   d'4    fis'8    
d'8    a'8    d'8    fis'8    d'8    \bar "|"   fis'4    fis'8    e'8    fis'8  
  g'8    fis'8    e'8    \bar "|"   d'4    fis'8    d'8    a'8    d'8    fis'8  
  d'8    \bar "|"   e'4    e'8    d'8    e'8    g'8    fis'8    e'8    \bar "|" 
    d'4    fis'8    d'8    a'8    d'8    fis'8    d'8    \bar "|"   fis'4    
fis'4    fis'4    g'8    a'8    \bar "|"   b'4    b'8 (   cis''8  -)   b'8    
a'8    b'8    cis''8    \bar "|"   d''8    b'8    a'8    fis'8    e'2    }   
}

\score{
    <<

	\context Staff="default"
	{
	    \voicedefault 
	}

    >>
	\layout {
	}
	\midi {}
}
