\version "2.19.49"
% clairnote-type = sn
\include "clairnote.ly"
\header {
	transcription = "CreadurMawnOrganig"
	crossRefNumber = "1"
	footnotes = ""
	meter = "Waltz"
	source = "https://thesession.org/tunes/470#setting470"
	arranger = "Setting 1"
	tagline = \markup { \vspace #1.8 \sans \abs-fontsize #7.5 \wordwrap {Sheet music in \with-url \clairnoteTypeUrl { \clairnoteTypeName music notation} published by Paul Morris using \with-url #"http://www.lilypond.org" {LilyPond.} Automatically converted to LilyPond format from an ABC source file from \with-url #"https://thesession.org" {the Session} website: \with-url #"https://thesession.org/tunes/470#setting470" {"https://thesession.org/tunes/470#setting470"}}}
	title = "Mist On The Mountain, The"
}
voicedefault =  {
\set Score.defaultBarType = ""

\time 3/4 \key a \minor   a'4.  \bar "|"   a'4.  \bar "|"   e''8.    d''16    
e''8  \bar "|"   e''8    d''8    b'8  \bar "|"   g'4.  \bar "|"   g'4    a'8  
\bar "|"   b'8.    a'16    b'8  \bar "|"   a'8.    g'16    e'8    \bar "|"   
c''4.  \bar "|"   d''4.  \bar "|"     e''8.    fis''16    g''8  \bar "|"   b'8. 
   a'16    g'8  \bar "|"   a'8.    b'16    e''8  \bar "|"   d''8    c''8    b'8 
 \bar "|"   a'4.  \bar "|"   a'4.  \bar "||"     e''4.  \bar "|"   e''4.  
\bar "|"   d''8    e''8    g''8  \bar "|"   e''8    d''8    b'8  \bar "|"   g'4 
   g'8  \bar "|"   d''4    b'8  \bar "|"   e''4    e''8  \bar "|"   d''8.    
c''16    b'8  \bar "|"   a'4.  \bar "|"   c''4.  \bar "|"     d''8.    e''16    
g''8  \bar "|"   b'8.    a'16    g'8  \bar "|"   a'8.    b'16    e''8  \bar "|" 
  d''8    c''8    b'8  \bar "|"   a'4.  \bar "|"   a'4.  \bar "||"   
}

\score{
    <<

	\context Staff="default"
	{
	    \voicedefault 
	}

    >>
	\layout {
	}
	\midi {}
}
