\version "2.19.49"
% clairnote-type = sn
\include "clairnote.ly"
\header {
	transcription = "swisspiper"
	crossRefNumber = "1"
	footnotes = ""
	meter = "Reel"
	source = "https://thesession.org/tunes/1387#setting29679"
	arranger = "Setting 8"
	tagline = \markup { \vspace #1.8 \sans \abs-fontsize #7.5 \wordwrap {Sheet music in \with-url \clairnoteTypeUrl { \clairnoteTypeName music notation} published by Paul Morris using \with-url #"http://www.lilypond.org" {LilyPond.} Automatically converted to LilyPond format from an ABC source file from \with-url #"https://thesession.org" {the Session} website: \with-url #"https://thesession.org/tunes/1387#setting29679" {"https://thesession.org/tunes/1387#setting29679"}}}
	title = "Monymusk"
}
voicedefault =  {
\set Score.defaultBarType = ""

\time 4/4 \key a \major   a''8    fis''8  \bar "|"   e''8.    cis''16    cis''4 
   e''16    cis''8.    d''8.    fis''16  \bar "|"   e''8    cis''8    cis''8    
a'8    gis'8.    a'16    b'8    cis''8  \bar "|"   e''8.    cis''16    cis''4   
 e''16    cis''8.    d''8.    e''16  \bar "|"   fis''16    d''8.    b'8.    
d''16    cis''8    a'8    a'4  \bar "|"     e''8.    cis''16    cis''4    e''16 
   cis''8.    d''8.    fis''16  \bar "|"   e''8    cis''8    cis''8    a'8    
gis'8.    a'16    b'8    cis''8  \bar "|"   e''8.    cis''16    cis''4    e''16 
   cis''8.    d''8    e''8  \bar "|"   fis''16    d''8.    b'8.    d''16    
cis''8    a'8    a'4  \bar "|."     \bar "|"   a''8    e''8    cis''8    e''8   
 \tuplet 3/2 {   fis''8    gis''8    a''8  }   e''4  \bar "|"   a''8    e''8    
cis''8    e''8    d''8    b'8    b'4  \bar "|"   a''8    e''8    cis''8    e''8 
   \tuplet 3/2 {   fis''8    gis''8    a''8  }   e''8    cis''8  \bar "|"   d''8 
   e''8    fis''8    gis''8    a''4    a''4  \bar "|"     \bar "|"   a''8    
e''8    cis''8    e''8    \tuplet 3/2 {   fis''8    gis''8    a''8  }   e''4  
\bar "|"   a''8    e''8    cis''8    e''8    d''8    b'8    b'4  \bar "|" 
\tuplet 3/2 {   a''8    gis''8    e''8  }   a''8    e''8    \tuplet 3/2 {   
fis''8    gis''8    a''8  }   e''8    cis''8  \bar "|"   d''8.    e''16    
fis''8    gis''8    a''4  \bar "|."   
}

\score{
    <<

	\context Staff="default"
	{
	    \voicedefault 
	}

    >>
	\layout {
	}
	\midi {}
}
