\version "2.19.49"
% clairnote-type = sn
\include "clairnote.ly"
\header {
	transcription = "sixholes"
	crossRefNumber = "1"
	footnotes = ""
	meter = "Reel"
	source = "https://thesession.org/tunes/828#setting13983"
	arranger = "Setting 6"
	tagline = \markup { \vspace #1.8 \sans \abs-fontsize #7.5 \wordwrap {Sheet music in \with-url \clairnoteTypeUrl { \clairnoteTypeName music notation} published by Paul Morris using \with-url #"http://www.lilypond.org" {LilyPond.} Automatically converted to LilyPond format from an ABC source file from \with-url #"https://thesession.org" {the Session} website: \with-url #"https://thesession.org/tunes/828#setting13983" {"https://thesession.org/tunes/828#setting13983"}}}
	title = "Morning Star, The"
}
voicedefault =  {
\set Score.defaultBarType = ""

\repeat volta 2 {
\time 4/4 \key b \minor   b'4    b'8    a'8    b'8    g'8    e'8    fis'8    
\bar "|"   g'4    b'8    d''8    e''8    fis''8    g''8    d''8    \bar "|"   
b'4    b'8    a'8    b'8    g'8    e'8    fis'8    \bar "|"   g'8    b'8    a'8 
   fis'8    g'4.    a'8    }     b'8    d''8    e''8    fis''8    g''8    
fis''8    e''8    g''8    \bar "|"   fis''8    e''8    d''8    fis''8    e''8   
 d''8    b'8    a'8    \bar "|"   b'8    d''8    e''8    fis''8    g''8    
fis''8    e''8    g''8    \bar "|"   fis''8    e''8    d''8    fis''8    e''4.  
  d''8    \bar "|"     b'8    d''8    e''8    fis''8    g''8    fis''8    e''8  
  g''8    \bar "|"   fis''8    e''8    d''8    fis''8    e''8    d''8    b'8    
a'8    \bar "|"   b'8    d''8    d''8    cis''8    d''8    e''8    fis''8    
g''8    \bar "|"   a''8    fis''8    b''8    fis''8    g''8    fis''8    e''8   
 d''8    \bar "||"   
}

\score{
    <<

	\context Staff="default"
	{
	    \voicedefault 
	}

    >>
	\layout {
	}
	\midi {}
}
