\version "2.19.49"
% clairnote-type = sn
\include "clairnote.ly"
\header {
	transcription = "Dr. Dow"
	crossRefNumber = "1"
	footnotes = ""
	meter = "Reel"
	source = "https://thesession.org/tunes/1310#setting14642"
	arranger = "Setting 3"
	tagline = \markup { \vspace #1.8 \sans \abs-fontsize #7.5 \wordwrap {Sheet music in \with-url \clairnoteTypeUrl { \clairnoteTypeName music notation} published by Paul Morris using \with-url #"http://www.lilypond.org" {LilyPond.} Automatically converted to LilyPond format from an ABC source file from \with-url #"https://thesession.org" {the Session} website: \with-url #"https://thesession.org/tunes/1310#setting14642" {"https://thesession.org/tunes/1310#setting14642"}}}
	title = "Morpeth Rant, The"
}
voicedefault =  {
\set Score.defaultBarType = ""

\time 4/4 \key d \major   \repeat volta 2 { \tuplet 3/2 {   a'8    b'8    cis''8 
 } \bar "|"   d''4    a'8    g'8    fis'8    d'8    fis'8    a'8  \bar "|"   
b'8    g'8    b'8    d''8    cis''8    a'8    cis''8    e''8  \bar "|"   d''8   
 fis''8    a''8    fis''8    g''8    fis''8    e''8    d''8  \bar "|"   cis''8  
  d''8    e''8    cis''8    a'8    g''8    fis''8    e''8  \bar "|"   d''4    
a'8    g'8    fis'8    d'8    fis'8    a'8  \bar "|"   b'8    g'8    b'8    
d''8    cis''8    a'8    cis''8    e''8  \bar "|"   d''8    fis''8    a''8    
fis''8    g''8    fis''8    e''8    cis''8  \bar "|"   a'4    d''4    d''4  }   
\repeat volta 2 {   a'4  \bar "|"   d''8    fis''8    a''8    fis''8    d''8    
fis''8    a''8    fis''8  \bar "|"   g''8    fis''8    g''8    a''8    g''4    
g''4  \bar "|"   g''8    fis''8    e''8    d''8    cis''8    d''8    e''8    
g''8  \bar "|"   fis''8    e''8    fis''8    g''8    fis''4    fis''4  \bar "|" 
  d''8    fis''8    a''8    fis''8    d''8    fis''8    a''8    fis''8  
\bar "|"   g''8    fis''8    g''8    a''8    g''4    g''4  \bar "|"   g''8    
fis''8    e''8    d''8    cis''8    e''8    a''8    g''8  \bar "|"   fis''4    
d''4    d''4  }   
}

\score{
    <<

	\context Staff="default"
	{
	    \voicedefault 
	}

    >>
	\layout {
	}
	\midi {}
}
