\version "2.19.49"
% clairnote-type = sn
\include "clairnote.ly"
\header {
	transcription = "aidriano"
	crossRefNumber = "1"
	footnotes = ""
	meter = "Jig"
	source = "https://thesession.org/tunes/71#setting27175"
	arranger = "Setting 2"
	tagline = \markup { \vspace #1.8 \sans \abs-fontsize #7.5 \wordwrap {Sheet music in \with-url \clairnoteTypeUrl { \clairnoteTypeName music notation} published by Paul Morris using \with-url #"http://www.lilypond.org" {LilyPond.} Automatically converted to LilyPond format from an ABC source file from \with-url #"https://thesession.org" {the Session} website: \with-url #"https://thesession.org/tunes/71#setting27175" {"https://thesession.org/tunes/71#setting27175"}}}
	title = "Morrison's"
}
voicedefault =  {
\set Score.defaultBarType = ""

\time 6/8 \key e \minor   \repeat volta 2 {   e'4. ^\trill   b'8    e'8    b'8  
\bar "|"   e'8    b'8    e'8    a'8    fis'8    d'8  \bar "|"   e'4. ^\trill   
b'8    e'8    b'8  \bar "|"   e''8    d''8    b'8    a'8    fis'8    d'8  
\bar "|"     e'4.    b'8    e'8    b'8  \bar "|"   e'8    b'8    e'8    a'8    
fis'8    d'8  \bar "|"   e'8    b'8    e'8    b'8    e'8    b'8  \bar "|"   
e''8    d''8    b'8    a'8    fis'8    d'8  }     |
 e''8    e''8    e''8    fis''8    e''8    e''8  \bar "|"   a''8    e''8    
e''8    fis''8    e''8    e''8  \bar "|"   e''8    fis''8    e''8    fis''8    
e''8    fis''8  \bar "|"   a''4    g''8    fis''8    e''8    d''8  \bar "|"     
e''8    e''8    e''8    fis''8    e''8    e''8  \bar "|"   b''8    e''8    e''8 
   fis''8    e''8    e''8  \bar "|"   e''16    fis''16    g''8    e''8    
fis''8    d''8    e''8  \bar "|"   d''8    c''8    b'8    a'8    fis'8    d'8  
\bar "||"     e''8    e''8    e''8    fis''8    e''8    e''8  \bar "|"   b''8   
 e''8    e''8    fis''8    e''8    e''8  \bar "|"   b''8    e''8    e''8    
fis''8    e''8    fis''8  \bar "|"   a''4    fis''8    d''8    e''8    fis''8  
\bar "|"     g''8    b''8    a''16    g''16    fis''8    a''8    g''16    
fis''16  \bar "|"   e''8    g''8    fis''16    e''16    d''8    e''8    fis''16 
   g''16  \bar "|"   e''8    g''8    fis''16    e''16    d''4    a'8  \bar "|"  
 b'8    a'8    g'8    fis'8    e'8    d'8  \bar "||"   
}

\score{
    <<

	\context Staff="default"
	{
	    \voicedefault 
	}

    >>
	\layout {
	}
	\midi {}
}
