\version "2.19.49"
% clairnote-type = sn
\include "clairnote.ly"
\header {
	transcription = "Dr. Dow"
	crossRefNumber = "1"
	footnotes = ""
	meter = "Reel"
	source = "https://thesession.org/tunes/257#setting12987"
	arranger = "Setting 4"
	tagline = \markup { \vspace #1.8 \sans \abs-fontsize #7.5 \wordwrap {Sheet music in \with-url \clairnoteTypeUrl { \clairnoteTypeName music notation} published by Paul Morris using \with-url #"http://www.lilypond.org" {LilyPond.} Automatically converted to LilyPond format from an ABC source file from \with-url #"https://thesession.org" {the Session} website: \with-url #"https://thesession.org/tunes/257#setting12987" {"https://thesession.org/tunes/257#setting12987"}}}
	title = "Mother's Delight"
}
voicedefault =  {
\set Score.defaultBarType = ""

\time 4/4 \key g \major   d''2    \repeat volta 2 {   b'8    d''8    g''8    
d''8    b'8    g'8    g'8    b'8    \bar "|"   a'8    c''8    f''8    c''8    
a'8    f'8    f'8    c''8    \bar "|"   b'8    d''8    g''8    d''8    b'8    
g'8    g'8    b'8    \bar "|"   a'16    c''16    a'8    fis'!8    b'8    a'8    
g'8    g'8    c''8    \bar "|"   b'8    d''8    g''8    d''8    b'8    g'8    
g'8    b'8    \bar "|"   a'8    c''8    f''8    c''8    a'8    f'8    f'8    
c''8    \bar "|"   bes'4    bes'8    a'8    bes'8    d''8    f''8    d''8    
\bar "|"   c''8    a'8    fis'!8    b'!8    a'8    g'8    g'8    a'8    }   
\repeat volta 2 { <<   d'4    bes'4   >> bes'8    a'8  <<   g'4    bes'4   >> 
g'8    a'8    \bar "|"   bes'4. ^"~"    d''8    c''8    bes'8    a'8    bes'8   
 \bar "|"   g'8    g''8    g''8    a''8    g''8    fis''!8    g''8    a''8    
\bar "|"   b''!8    g''8  \grace {    b''8  }   a''8    fis''8    d''8    e''8  
  fis''8    d''8    \bar "|"   g''8    a''8    g''8    fis''8    d''8    cis''8 
   d''8    e''8    \bar "|"   f''8    d''8    c''8    bes'8    a'8    f'8    
f'4 ^"~"    \bar "|"   g'8    g''8    g''16    g''16    g''8    d''8    g''8    
b''!8    g''8    \bar "|"   f''8    d''8    c''8    a'8    b'!8    g'8    g'8   
 a'8    }   
}

\score{
    <<

	\context Staff="default"
	{
	    \voicedefault 
	}

    >>
	\layout {
	}
	\midi {}
}
