\version "2.19.49"
% clairnote-type = sn
\include "clairnote.ly"
\header {
	transcription = "Imnotirish"
	crossRefNumber = "1"
	footnotes = ""
	meter = "Jig"
	source = "https://thesession.org/tunes/213#setting213"
	arranger = "Setting 1"
	tagline = \markup { \vspace #1.8 \sans \abs-fontsize #7.5 \wordwrap {Sheet music in \with-url \clairnoteTypeUrl { \clairnoteTypeName music notation} published by Paul Morris using \with-url #"http://www.lilypond.org" {LilyPond.} Automatically converted to LilyPond format from an ABC source file from \with-url #"https://thesession.org" {the Session} website: \with-url #"https://thesession.org/tunes/213#setting213" {"https://thesession.org/tunes/213#setting213"}}}
	title = "Moth In The Lantern, The"
}
voicedefault =  {
\set Score.defaultBarType = ""

\time 6/8 \key b \minor   \repeat volta 2 {   fis'8    b'8    d''8    fis''4. 
^"~"  \bar "|"   fis'8    b'8    d''8    e''4. ^"~"  \bar "|"   fis'8    b'8    
d''8    fis''4. ^"~"  \bar "|"   e''4. ^"~"    fis''4. ^"~"  \bar "|"   fis'8   
 b'8    d''8    fis''4. ^"~"  \bar "|"   fis'8    b'8    d''8    e''4. ^"~"  
\bar "|"   fis''8    e''8    d''8    e''8    fis''8    g''8  \bar "|"   fis''8  
  d''8    cis''8    b'4.  }     \repeat volta 2 {   fis'8    b'8    d''8    
cis''4. ^"~"  \bar "|"   d''8    cis''8    d''8    e''4. ^"~"  \bar "|"   fis'8 
   b'8    d''8    cis''4. ^"~"  \bar "|"   d''8    cis''8    b'8    c''8    b'8 
   a'8  \bar "|"   fis'8    b'8    d''8    cis''4. ^"~"  \bar "|"   d''8    
cis''8    d''8    e''4. ^"~"  \bar "|"   fis''8    e''8    d''8    e''8    
fis''8    g''8  \bar "|"   fis''8    d''8    cis''8    b'4.  }     fis''8    
b'8    b'8    d''8    b'8    b'8  \bar "|"   e''8    a'8    a'8    cis''8    
a'8    a'8  \bar "|"   fis''8    b'8    b'8    d''8    b'8    b'8  \bar "|"   
e''8    fis''8    g''8    e''8    fis''8    g''8  \bar "|"   fis''8    b'8    
b'8    d''8    b'8    b'8  \bar "|"   e''8    a'8    a'8    cis''8    a'8    
a'8  \bar "|"   fis''8    e''8    d''8    e''8    fis''8    g''8  \bar "|"   
fis''8    d''8    cis''8    b'4.  \bar "|"     fis''8    b'8    b'8    d''8    
b'8    b'8  \bar "|"   e''8    a'8    a'8    cis''8    a'8    a'8  \bar "|"   
fis''8    b'8    b'8    d''8    b'8    b'8  \bar "|"   e''8    fis''8    g''8   
 e'8    fis'8    g'8  \bar "|"   fis''8    b'8    b'8    fis'8    b'8    b'8  
\bar "|"   e''8    a'8    a'8    e'8    a'8    a'8  \bar "|"   fis''8    e''8   
 d''8    e''8    fis''8    g''8  \bar "|"   fis''8    d''8    cis''8    b'4.  
\bar "|"   
}

\score{
    <<

	\context Staff="default"
	{
	    \voicedefault 
	}

    >>
	\layout {
	}
	\midi {}
}
