\version "2.19.49"
% clairnote-type = sn
\include "clairnote.ly"
\header {
	transcription = "Kevin Rietmann"
	crossRefNumber = "1"
	footnotes = ""
	meter = "Reel"
	source = "https://thesession.org/tunes/1473#setting28938"
	arranger = "Setting 6"
	tagline = \markup { \vspace #1.8 \sans \abs-fontsize #7.5 \wordwrap {Sheet music in \with-url \clairnoteTypeUrl { \clairnoteTypeName music notation} published by Paul Morris using \with-url #"http://www.lilypond.org" {LilyPond.} Automatically converted to LilyPond format from an ABC source file from \with-url #"https://thesession.org" {the Session} website: \with-url #"https://thesession.org/tunes/1473#setting28938" {"https://thesession.org/tunes/1473#setting28938"}}}
	title = "Mulhaire's"
}
voicedefault =  {
\set Score.defaultBarType = ""

\time 4/4 \key g \major   b4    d'8    b8    g8    b8    d'8    b8  \bar "|"   
c'4    e'8    c'8    g'8    c'8    e'8    g'8  \bar "|"   fis'8    a'8    d'8   
 fis'8    a'8    d'8    fis'8    d'8  \bar "|"   g'8    fis'8    g'8    a'8    
b'8    g'8    d'8    c'8  \bar "|"     b4    d'8    b8    g8    b8    d'8    b8 
 \bar "|"   c'8    e'8    e'4 ^"~"    g'8    e'8    e'4 ^"~"  \bar "|"   fis'8  
  g'8    a'8    b'8    c''8    d'8    fis'8    a'8  \bar "|"   a'8    g'8    
g'8    fis'8    g'8    e'8    d'8    c'8  \bar ":|."   a'8    g'8    g'8    
fis'8    g'8    a'8    b'8    c''8  \bar "|"     \bar ".|:"   d''4    b'8    g'8 
   d''8    g'8    b'8    g'8  \bar "|"   d'8    g'8    b'8    g'8    d''8    
g'8    b'8    g'8  \bar "|"   a'8    g'8    a'8    b'8    c''8    b'8    c''8   
 d''8  \bar "|"   e''8    a'8    a'4 ^"~"    e''8    a'8    c''8    a'8  
\bar "|"     d''4    b'8    g'8    d''8    g'8    b'8    g'8  \bar "|"   d'8    
g'8    b'8    g'8    a'8    g'8    e'8    d'8  \bar "|"   b4    d'8    b8    
c'8    e'8    g'8    e'8  \bar "|"   d'8    b8    a8    b8    g2  \bar ":|."   
}

\score{
    <<

	\context Staff="default"
	{
	    \voicedefault 
	}

    >>
	\layout {
	}
	\midi {}
}
