\version "2.19.49"
% clairnote-type = sn
\include "clairnote.ly"
\header {
	transcription = "fidicen"
	crossRefNumber = "1"
	footnotes = ""
	meter = "Reel"
	source = "https://thesession.org/tunes/1473#setting1473"
	arranger = "Setting 1"
	tagline = \markup { \vspace #1.8 \sans \abs-fontsize #7.5 \wordwrap {Sheet music in \with-url \clairnoteTypeUrl { \clairnoteTypeName music notation} published by Paul Morris using \with-url #"http://www.lilypond.org" {LilyPond.} Automatically converted to LilyPond format from an ABC source file from \with-url #"https://thesession.org" {the Session} website: \with-url #"https://thesession.org/tunes/1473#setting1473" {"https://thesession.org/tunes/1473#setting1473"}}}
	title = "Mulhaire's"
}
voicedefault =  {
\set Score.defaultBarType = ""

\time 4/4 \key d \major   fis'4    a'8    fis'8    d'8    fis'8    a'8    fis'8 
 \bar "|"   g'4    b'8    g'8    d'8    g'8    b'8    d''8  \bar "|"   cis''8   
 e''8    a'8    cis''8    e''8    a'8    cis''8    a'8  \bar "|"   d''8    
cis''8    d''8    e''8    fis''8    d''8    a'8    g'8  \bar "|"     fis'4    
a'8    fis'8    d'8    fis'8    a'8    fis'8  \bar "|"   g'8    b'8    b'4    
d''8    b'8    b'4  \bar "|"   a'8    cis''8    e''8    fis''8    g''8    a'8   
 cis''8    e''8  \bar "|"   e''8    d''8    d''8    cis''8    d''8    b'8    
a'8    g'8  \bar ":|."   e''8    d''8    d''8    cis''8    d''8    e''8    
fis''8    g''8  \bar "|"     \bar ".|:"   a''4    fis''8    d''8    a''8    d''8 
   fis''8    d''8  \bar "|"   a''8    d''8    fis''8    d''8    e''8    d''8    
b'8    dis''8  \bar "|"   e''8    dis''8    e''8    fis''8    g''8    fis''8    
g''8    a''8  \bar "|"   b''8    e''8    e''4    b''8    e''8    g''8    e''8  
\bar "|"     a''4    fis''8    d''8    a''8    d''8    fis''8    d''8  \bar "|" 
  a''8    d''8    fis''8    d''8    e''8    d''8    b'8    a'8  \bar "|"   
fis'4    a'8    fis'8    g'8    b'8    d''8    b'8  \bar "|"   a'8    fis'8    
e'8    fis'8    d'2  \bar ":|."   
}

\score{
    <<

	\context Staff="default"
	{
	    \voicedefault 
	}

    >>
	\layout {
	}
	\midi {}
}
