\version "2.19.49"
% clairnote-type = sn
\include "clairnote.ly"
\header {
	transcription = "fidicen"
	crossRefNumber = "1"
	footnotes = ""
	meter = "Jig"
	source = "https://thesession.org/tunes/1132#setting14398"
	arranger = "Setting 2"
	tagline = \markup { \vspace #1.8 \sans \abs-fontsize #7.5 \wordwrap {Sheet music in \with-url \clairnoteTypeUrl { \clairnoteTypeName music notation} published by Paul Morris using \with-url #"http://www.lilypond.org" {LilyPond.} Automatically converted to LilyPond format from an ABC source file from \with-url #"https://thesession.org" {the Session} website: \with-url #"https://thesession.org/tunes/1132#setting14398" {"https://thesession.org/tunes/1132#setting14398"}}}
	title = "Munster Lass, The"
}
voicedefault =  {
\set Score.defaultBarType = ""

\repeat volta 2 {
\time 6/8 \key f \major   f'8    a'8    c''8    f''8    e''8    f''8  \bar "|"  
 g''8    f''8    e''8    f''4.  \bar "|"   f'8    a'8    c''8    f''8    e''8   
 d''8  \bar "|"   c''8    bes'8    a'8    g'4    a'8  \bar "|"   f'8    a'8    
c''8    f''8    e''8    f''8  \bar "|"   g''8    f''8    e''8    f''8    g''8   
 a''8  \bar "|"   g''8    f''8    e''8    f''8    e''8    d''8  \bar "|"   c''8 
   bes'8    a'8    g'4.  }   \repeat volta 2 {   bes''8  \bar "|"   a''8    
g''8    f''8    g''8    f''8    e''8  \bar "|"   f''8    c''8    a'8    f'4    
bes''8  \bar "|"   a''8    g''8    f''8    g''8    bes'8    a'8  \bar "|"   
bes'8    a'8    bes'8    g'4    bes''8  \bar "|"   a''8    g''8    f''8    g''8 
   f''8    e''8  \bar "|"   f''8    e''8    d''8    c''8    bes'8    a'8  
\bar "|"   bes'8    d''8    g''8    a'8    c''8    f''8  \bar "|"   e''8    
d''8    e''8    f''4.  }   
}

\score{
    <<

	\context Staff="default"
	{
	    \voicedefault 
	}

    >>
	\layout {
	}
	\midi {}
}
