\version "2.19.49"
% clairnote-type = sn
\include "clairnote.ly"
\header {
	transcription = "JACKB"
	crossRefNumber = "1"
	footnotes = ""
	meter = "Slip Jig"
	source = "https://thesession.org/tunes/612#setting22280"
	arranger = "Setting 4"
	tagline = \markup { \vspace #1.8 \sans \abs-fontsize #7.5 \wordwrap {Sheet music in \with-url \clairnoteTypeUrl { \clairnoteTypeName music notation} published by Paul Morris using \with-url #"http://www.lilypond.org" {LilyPond.} Automatically converted to LilyPond format from an ABC source file from \with-url #"https://thesession.org" {the Session} website: \with-url #"https://thesession.org/tunes/612#setting22280" {"https://thesession.org/tunes/612#setting22280"}}}
	title = "Na Ceannabhain Bhana"
}
voicedefault =  {
\set Score.defaultBarType = ""

\time 9/8 \key d \major   \bar "|"   fis''4    d''8    e''8    d''8    b'8    
d''8    b'8    a'8    \bar "|"   b'8    d''8    a'8    a'8    b'8    d''8    
e''4.  \bar "|"   fis''8    d''8    d''8    e''8    d''8    b'8    d''8    b'8  
  a'8  \bar "|"   b'8    d''8    a'8    a'8    b'8    cis''8    d''4    e''8  
\bar "|"     fis''8    d''8    d''8    e''8    d''8    b'8    d''8    b'8    
a'8    \bar "|"   b'8    d''8    a'8    a'8    b'8    d''8    e''4.  \bar "|"   
fis''8    d''8    d''8    e''8    d''8    b'8    d''8    b'8    a'8  \bar "|"   
b'8    d''8    a'8    a'8    b'8    cis''8    d''4    e''8  \bar "||"     
\repeat volta 2 {   fis''8    a''8    a''8    b''8    a''8    a''8    fis''8    
e''8    d''8    \bar "|"   fis''8    a''8    a''8    b''8    a''8    fis''8    
e''4.  \bar "|"   fis''8    a''8    a''8    b''8    a''8    a''8    fis''8    
e''8    d''8    \bar "|"   d''8    b'8    a'8    a'8    b'8    cis''8    d''4   
 g''8  \bar "|"     fis''8    a''8    a''8    b''8    a''8    a''8    fis''8    
e''8    d''8    \bar "|"   d''8    fis''8    a''8    b''8    a''8    fis''8    
e''4    g''8    \bar "|"   fis''8    a''8    a''8    b''8    a''8    a''8    
fis''8    e''8    d''8    \bar "|"   d''8    b'8    a'8    a'8    b'8    cis''8 
   d''4.    \bar "||"   }
}

\score{
    <<

	\context Staff="default"
	{
	    \voicedefault 
	}

    >>
	\layout {
	}
	\midi {}
}
