\version "2.19.49"
% clairnote-type = sn
\include "clairnote.ly"
\header {
	transcription = "Dr. Dow"
	crossRefNumber = "1"
	footnotes = ""
	meter = "Reel"
	source = "https://thesession.org/tunes/648#setting13678"
	arranger = "Setting 3"
	tagline = \markup { \vspace #1.8 \sans \abs-fontsize #7.5 \wordwrap {Sheet music in \with-url \clairnoteTypeUrl { \clairnoteTypeName music notation} published by Paul Morris using \with-url #"http://www.lilypond.org" {LilyPond.} Automatically converted to LilyPond format from an ABC source file from \with-url #"https://thesession.org" {the Session} website: \with-url #"https://thesession.org/tunes/648#setting13678" {"https://thesession.org/tunes/648#setting13678"}}}
	title = "Never Was Piping So Gay"
}
voicedefault =  {
\set Score.defaultBarType = ""

\time 4/4 \key g \major   g4    b8    d'8    g'8    b'8    d''8    b'8  
\bar "|"   c''8    a''8    fis''8    d''8    c''8    a'8    fis'8    a'8  
\bar "|"   g'4    b'8    g'8    d'8    g'8    b'8    g'8  \bar "|"   a'8    
fis'8    fis'4 ^"~"    d''8    fis'8    a'8    fis'8  \bar "|"   g'4    b'8    
g'8    d'8    g'8    b8    g'8  \bar "|"   a'8    a''8    fis''8    d''8    
cis''8    d''8    e''8    fis''8  \bar "|"   g''4. ^"~"    d''8    c''4. ^"~"   
 a'8  \bar "|"   fis'8    g'8    a'8    c''8    b'8    g'8    d'8    b8  
\bar ":|."   fis'8    g'8    a'8    fis'8    g'4    b'8    d''8  \bar "||"   
\bar ".|:"   g''4. ^"~"    d''8    cis''8    d''8    b'8    g'8  \bar "|"   d'8  
  g'8    b'8    d''8    c''8    a'8    fis'8    a'8  \bar "|"   g'8    b'8    
b'8    a'8    b'8    c''8    d''8    b'8  \bar "|"   c''8    a''8    fis''8    
d''8    cis''8    d''8    e''8    fis''8  \bar "|"   g''8    b''8    a''8    
fis''8    g''8    d''8    b'8    g'8  \bar "|"   d'8    g'8    b'8    d''8    
c''8    a'8    fis'8    a'8  \bar "|"   b'8    g'8    g'4 ^"~"    a'8    fis'8  
  fis'4 ^"~"  \bar "|"   b'8    d''8    c''8    a'8    g'4    b'8    d''8  
\bar ":|."   b'8    d''8    c''8    a'8    g'4    d'8    b8  \bar "||"   
}

\score{
    <<

	\context Staff="default"
	{
	    \voicedefault 
	}

    >>
	\layout {
	}
	\midi {}
}
