\version "2.19.49"
% clairnote-type = sn
\include "clairnote.ly"
\header {
	transcription = "laura nesbit"
	crossRefNumber = "1"
	footnotes = ""
	meter = "Reel"
	source = "https://thesession.org/tunes/212#setting212"
	arranger = "Setting 1"
	tagline = \markup { \vspace #1.8 \sans \abs-fontsize #7.5 \wordwrap {Sheet music in \with-url \clairnoteTypeUrl { \clairnoteTypeName music notation} published by Paul Morris using \with-url #"http://www.lilypond.org" {LilyPond.} Automatically converted to LilyPond format from an ABC source file from \with-url #"https://thesession.org" {the Session} website: \with-url #"https://thesession.org/tunes/212#setting212" {"https://thesession.org/tunes/212#setting212"}}}
	title = "Oak Tree, The"
}
voicedefault =  {
\set Score.defaultBarType = ""

\time 4/4 \key d \major   \tuplet 3/2 {   fis'8    e'8    d'8  }   a'8    d'8    
fis'8    d'8    a'8    d'8  \bar "|"   fis'8    a'8    a'8    fis'8    g'8    
fis'8    e'8    cis'8    \bar "|"   a4. ^"~"    b8    cis'8    a8    
\tuplet 3/2 {   a8    a8    a8  }   \bar "|"   a8    g8    a8    b8    cis'8    
d'8    e'8    g'8  \bar "|"     \tuplet 3/2 {   fis'8    e'8    d'8  }   a'8    
d'8    fis'8    d'8    a'8    d'8    \bar "|"   fis'8    a'8    a'8    fis'8    
g'8    fis'8    e'8    a'8    \bar "|"   b'4 ^"~"    e''8    g''8    fis''8    
g''8    e''8    cis''8    \bar "|"   d''8    cis''8    cis''8    e''8    d''8   
 b'8    a'8    g'8    \bar ":|."   \tuplet 3/2 {   d''8    e''8    d''8  }   
cis''8    e''8    d''8    fis''8    e''8    g''8  \bar "|"     \bar ".|:"   
fis''8    b'8    \tuplet 3/2 {   b'8    b'8    b'8  }   fis''8    a''8    gis''8 
   e''8    \bar "|"   fis''8    e''8    cis''8    e''8    fis''4. ^"~"    e''8  
  \bar "|"   cis''8    a'8    a'8    cis''8    e''8    a'8    \tuplet 3/2 {   
a'8    a'8    a'8  }   \bar "|"   a'8    gis'8    a'8    b'8    cis''8    d''8  
  e''8    g''8    \bar "|"     fis''8    b'8    \tuplet 3/2 {   b'8    b'8    
b'8  }   fis''8    a''8    gis''8    e''8    \bar "|"   fis''8    e''8    
cis''8    e''8    \tuplet 3/2 {   fis''8    gis''8    a''8  }   e''8    cis''8   
 \bar "|"   a'8    b'8    cis''8    e''8    a''4. ^"~"    e''8    \bar "|"   
fis''8    a''8    e''8    cis''8    d''8    fis''8    e''8    g''8    
\bar ":|."   fis''8    a''8    e''8    cis''8    b'4. ^"~"    cis''8  \bar "|"  
   \bar ".|:"   d''4    fis''8    d''8    a'8    d''8    fis''8    d''8    
\bar "|"   cis''4    e''8    cis''8    a'8    cis''8    e''8    cis''8    
\bar "|"   d''4    fis''8    d''8    a'8    d''8    fis''8    g''8    \bar "|"  
 g''8    fis''8    e''8    d''8    cis''8    a'8    b'8    cis''8    \bar "|"   
  d''4    fis''8    d''8    a'8    d''8    fis''8    d''8    \bar "|"   cis''4  
  e''8    cis''8    a'8    cis''8    e''8    cis''8    \bar "|"   d''8    
fis''8    a''8    fis''8    g''8    fis''8    e''8    d''8    \bar "|"   b'4    
e''8    cis''8    d''8    cis''8    b'8    cis''8    \bar ":|."   b'4    e''8   
 cis''8    d''8    b'8    a'8    g'8    \bar "||" <<   fis'1    a'1   >>   
\bar "||"   
}

\score{
    <<

	\context Staff="default"
	{
	    \voicedefault 
	}

    >>
	\layout {
	}
	\midi {}
}
