\version "2.19.49"
% clairnote-type = sn
\include "clairnote.ly"
\header {
	transcription = "ceolachan"
	crossRefNumber = "1"
	footnotes = ""
	meter = "Jig"
	source = "https://thesession.org/tunes/1133#setting24473"
	arranger = "Setting 7"
	tagline = \markup { \vspace #1.8 \sans \abs-fontsize #7.5 \wordwrap {Sheet music in \with-url \clairnoteTypeUrl { \clairnoteTypeName music notation} published by Paul Morris using \with-url #"http://www.lilypond.org" {LilyPond.} Automatically converted to LilyPond format from an ABC source file from \with-url #"https://thesession.org" {the Session} website: \with-url #"https://thesession.org/tunes/1133#setting24473" {"https://thesession.org/tunes/1133#setting24473"}}}
	title = "Off She Goes"
}
voicedefault =  {
\set Score.defaultBarType = ""

\time 6/8 \key d \major   fis'4    a'8    g'4    b'8    \bar "|"   a'8    b'8   
 a'8  <<   fis'4.    d''4.   >>   \bar "|"   fis'4    a'8    g'4    b'8    
\bar "|"   a'8    g'8    fis'8    e'4.    \bar "|"     fis'4    a'8    g'4    
b'8    \bar "|"   a'8    b'8    a'8  <<   fis'4    d''4   >>   e''8    \bar "|" 
  fis''4    d''8    g''4    fis''8    \bar "|"   e''8    d''8    cis''8  <<   
fis'4.    d''4.   >>   \bar "||"     fis''16    g''16    a''8    fis''8    d''4 
   fis''8    \bar "|"   e''16    fis''16    g''8    e''8    cis''4    e''8    
\bar "|"   fis''16    g''16    a''8    fis''8    d''4    fis''8    \bar "|"   
e''8    d''8    cis''8  <<   fis'4.    d''4.   >>   \bar "|"     fis''16    
g''16    a''8    fis''8    d''4    fis''8    \bar "|"   e''16    fis''16    
g''8    e''8    cis''4    e''8    \bar "|"   d''4    g''8    fis''16    g''16   
 a''8    fis''8    \bar "|"   g''8    e''8    cis''8  <<   fis'4.    d''4.   >> 
  \bar "|."   
}

\score{
    <<

	\context Staff="default"
	{
	    \voicedefault 
	}

    >>
	\layout {
	}
	\midi {}
}
