\version "2.19.49"
% clairnote-type = sn
\include "clairnote.ly"
\header {
	transcription = "ceolachan"
	crossRefNumber = "1"
	footnotes = ""
	meter = "Jig"
	source = "https://thesession.org/tunes/1133#setting23310"
	arranger = "Setting 5"
	tagline = \markup { \vspace #1.8 \sans \abs-fontsize #7.5 \wordwrap {Sheet music in \with-url \clairnoteTypeUrl { \clairnoteTypeName music notation} published by Paul Morris using \with-url #"http://www.lilypond.org" {LilyPond.} Automatically converted to LilyPond format from an ABC source file from \with-url #"https://thesession.org" {the Session} website: \with-url #"https://thesession.org/tunes/1133#setting23310" {"https://thesession.org/tunes/1133#setting23310"}}}
	title = "Off She Goes"
}
voicedefault =  {
\set Score.defaultBarType = ""

\time 6/8 \key d \major   \repeat volta 2 {   fis'4    a'8    g'4    b'8    
\bar "|"   a'8    b'8    cis''8    d''4.    \bar "|"   fis'4    a'8    g'4    
b'8    \bar "|"   a'8    g'8    fis'8    e'4.    \bar "|"     fis'4    a'8    
g'4    b'8    \bar "|"   a'8    b'8    cis''8    d''4.    \bar "|"   fis''4    
d''8    g''4    fis''8    \bar "|"   e''8    d''8    cis''8    d''4.    }     
\repeat volta 2 {   fis''4    a''8    fis''4    d''8    \bar "|" \time 9/8 e''4 
   fis''8    g''4    b''8    g''4    e''8    \bar "|" \time 6/8 fis''4    a''8  
  fis''4    d''8    \bar "|"   e''4    cis''8    a'4.    \bar "|"     fis''4    
a''8    fis''4    d''8    \bar "|" \time 9/8 e''4    fis''8    g''4    b''8    
g''4    e''8    \bar "|" \time 6/8 fis''4    a''8    fis''4    d''8    \bar "|" 
  e''4.    d''4.    }   
}

\score{
    <<

	\context Staff="default"
	{
	    \voicedefault 
	}

    >>
	\layout {
	}
	\midi {}
}
