\version "2.19.49"
% clairnote-type = sn
\include "clairnote.ly"
\header {
	transcription = "ceolachan"
	crossRefNumber = "1"
	footnotes = ""
	meter = "Jig"
	source = "https://thesession.org/tunes/899#setting22262"
	arranger = "Setting 4"
	tagline = \markup { \vspace #1.8 \sans \abs-fontsize #7.5 \wordwrap {Sheet music in \with-url \clairnoteTypeUrl { \clairnoteTypeName music notation} published by Paul Morris using \with-url #"http://www.lilypond.org" {LilyPond.} Automatically converted to LilyPond format from an ABC source file from \with-url #"https://thesession.org" {the Session} website: \with-url #"https://thesession.org/tunes/899#setting22262" {"https://thesession.org/tunes/899#setting22262"}}}
	title = "Orange Rogue, The"
}
voicedefault =  {
\set Score.defaultBarType = ""

\time 6/8 \key e \minor   \repeat volta 2 {   d''8    \bar "|"   e''8    g''8   
 e''8    d''8    b'8    a'8    \bar "|"   g'8    e'8    fis'8    g'4    a'8    
\bar "|"   b'4    b'8    d''8    d''16    e''16    fis''8    \bar "|"   g''4    
b''8    a''8    g''8    fis''8    \bar "|"     e''16    fis''16    g''8    e''8 
   d''8    b'8    a'8    \bar "|"   g'8    e'8    fis'8    g'4    a'8    
\bar "|"   b'8    ais'8    b'8    d''8    b'16    c''16    d''8    \bar "|"   
e''4.    e''4    }     \repeat volta 2 {   fis''8    \bar "|"   g''4    e''8    
a''4    fis''8    \bar "|"   g''4    b'8    b'4    d''8    \bar "|"   g''8    
fis''8    e''8    a''8    g''8    fis''8    \bar "|"   g''4.    b'4    d''8    
\bar "|"     g''8    fis''8    e''8    a''4    fis''8    \bar "|"   g''8    
g''16    fis''16    e''8    fis''4    d''8    \bar "|"   b'8    ais'8    b'8    
d''8.    e''16    fis''8    \bar "|"   g''4    b''8    a''8    g''8    fis''8   
 \bar "|"     e''16    fis''16    g''8    e''8    d''4    b'8    \bar "|"   g'8 
   e'8    fis'8    g'4    a'8    \bar "|"   b'8    ais'8    b'8    d''4    
fis''8    \bar "|"   g''8    d''8    b''8    a''8    a''16    g''16    fis''8   
 \bar "|"     e''8    g''8    e''8    d''8    c''16    b'16    a'8    \bar "|"  
 g'8    e'8    fis'8    g'4.    \bar "|"   b'8    g'16    a'16    b'8    d''8   
 cis''8    d''8    \bar "|"   e''4.    e''4    }   
}

\score{
    <<

	\context Staff="default"
	{
	    \voicedefault 
	}

    >>
	\layout {
	}
	\midi {}
}
