\version "2.19.49"
% clairnote-type = sn
\include "clairnote.ly"
\header {
	transcription = "Matt Leavey"
	crossRefNumber = "1"
	footnotes = ""
	meter = "Reel"
	source = "https://thesession.org/tunes/541#setting29454"
	arranger = "Setting 3"
	tagline = \markup { \vspace #1.8 \sans \abs-fontsize #7.5 \wordwrap {Sheet music in \with-url \clairnoteTypeUrl { \clairnoteTypeName music notation} published by Paul Morris using \with-url #"http://www.lilypond.org" {LilyPond.} Automatically converted to LilyPond format from an ABC source file from \with-url #"https://thesession.org" {the Session} website: \with-url #"https://thesession.org/tunes/541#setting29454" {"https://thesession.org/tunes/541#setting29454"}}}
	title = "Paddy Canny's Toast"
}
voicedefault =  {
\set Score.defaultBarType = ""

\repeat volta 2 {
\time 4/4 \key g \dorian   d'8    \repeat volta 2 {   g'4    c''8    g'8    
d''8    g'8    c''8    g'8    \bar "|"   f'16    g'16    f'8    c''8    f'8    
d''8    f'8    c''8    f'8    \bar "|"   g'4    c''8    g'8    d''8    g'8    
c''8    g'8    \bar "|"   e''8    f''8    c''8    a'8    f'8    g'8    a'8    
f'8    \bar "|"     g'4    c''8    g'8    d''8    g'8    c''8    g'8    
\bar "|"   f'4    c''8    f'8    c'8    f'8    c''8    f'8    \bar "|"   d'8    
e'8    f'8    a'8    g'8    a'8    bes'8    d''8    \bar "|"   c''8    a'8    
f''8    c''8    a'8    bes'8  \grace {    c''8  }   bes'8    a'8    }     g'8   
 g''8  \grace {    a''8  }   g''8    d''8    g''8    d''8    bes'8    a'8    
\bar "|"   g'8  \grace {    a'8  }   g'8    g''8    g'8    f''8    g''8    e''8 
   g''8    \bar "|"   f''8    bes'8    bes'16    bes'16    bes'8    f''8    
bes'8    g''8    bes'8    \bar "|"   f''8    bes'8    bes'8    g''8    f''8    
d''8    c''8    a'8    \bar "|"   <<   g'4.    g4.   >>   g''8    g''8    d''8  
  bes'8    a'8    \bar "|"   g'8    g''8  \grace {    a''8  }   g''8    a''8    
bes''8    a''8    g''8    e''8    \bar "|" \grace {    a''8  }   e''8    f''8  
\grace {    a''8  }   f''8    g''8    a''8    f''8  \grace {    a''8  }   g''8  
  e''8    \bar "|"   f''8    d''8    c''8    a'8    bes'16    c''16    bes'8    
bes'8    a'8    }   g'2    \bar "|."   
}

\score{
    <<

	\context Staff="default"
	{
	    \voicedefault 
	}

    >>
	\layout {
	}
	\midi {}
}
