\version "2.19.49"
% clairnote-type = sn
\include "clairnote.ly"
\header {
	transcription = "CreadurMawnOrganig"
	crossRefNumber = "1"
	footnotes = ""
	meter = "Jig"
	source = "https://thesession.org/tunes/532#setting13471"
	arranger = "Setting 7"
	tagline = \markup { \vspace #1.8 \sans \abs-fontsize #7.5 \wordwrap {Sheet music in \with-url \clairnoteTypeUrl { \clairnoteTypeName music notation} published by Paul Morris using \with-url #"http://www.lilypond.org" {LilyPond.} Automatically converted to LilyPond format from an ABC source file from \with-url #"https://thesession.org" {the Session} website: \with-url #"https://thesession.org/tunes/532#setting13471" {"https://thesession.org/tunes/532#setting13471"}}}
	title = "Paddy Fahey's"
}
voicedefault =  {
\set Score.defaultBarType = ""

\time 6/8 \key g \dorian   d'8    g'8    a'8    bes'4. ^"~"  \bar "|"   c''4. 
^"~"    d''4    g''8  \bar "|"   fis''8    d''8    g''8    g''8    fis''8    
d''8  \bar "|"   c''8    a'8    g'8    f'4. ^"~"  \bar "|"   \bar "|"   d'8    
g'8    a'8    bes'8    a'8    g'8  \bar "|"   c''8    b'8    c''8    d''4    
g''8  \bar "|"   fis''8    d''8    g''8    g''8    fis''8    d''8  \bar "|"   
c''8    a'8    fis'8    g'4    fis'!8  \bar ":|."   c''8    a'8    fis'8    g'8 
   b'8    d''8  \bar "||"   \bar ".|:"   g''4 ^"~"    d''8    fis''8    g''8    
a''8  \bar "|"   g''8    fis''8    d''8    c''4. ^"~"  \bar "|"   a'8    bes'!8 
   a'8    f''4. ^"~"  \bar "|"   a''8    g''8    fis''8    d''8    e''8    
fis''!8  \bar "|"   \bar "|"   g''4    a''8    b''8    a''8    g''8  \bar "|"   
fis''8    d''8    g''8    fis''8    d''8    c''8  \bar "|"   b'4    g'8    a'8  
  d''8    c''8  \bar "|"   a'8    g'8    fis'8    g'8    b'8    d''8  
\bar ":|."   a'8    g'8    fis'8    g'4    fis'!8  \bar "||"   
}

\score{
    <<

	\context Staff="default"
	{
	    \voicedefault 
	}

    >>
	\layout {
	}
	\midi {}
}
