\version "2.19.49"
% clairnote-type = sn
\include "clairnote.ly"
\header {
	transcription = "Dr. Dow"
	crossRefNumber = "1"
	footnotes = ""
	meter = "Jig"
	source = "https://thesession.org/tunes/532#setting13469"
	arranger = "Setting 5"
	tagline = \markup { \vspace #1.8 \sans \abs-fontsize #7.5 \wordwrap {Sheet music in \with-url \clairnoteTypeUrl { \clairnoteTypeName music notation} published by Paul Morris using \with-url #"http://www.lilypond.org" {LilyPond.} Automatically converted to LilyPond format from an ABC source file from \with-url #"https://thesession.org" {the Session} website: \with-url #"https://thesession.org/tunes/532#setting13469" {"https://thesession.org/tunes/532#setting13469"}}}
	title = "Paddy Fahey's"
}
voicedefault =  {
\set Score.defaultBarType = ""

\time 6/8 \key g \major   d'8    g'8    a'8      b'4. ^"~"  \bar "|"   c''8    
b'!8    c''8    d''4    g''8  \bar "|"   g''8    fis''8    d''8    b'8    c''8  
  d''8  \bar "|"   c''8    a'8    g'8    fis'8    g'8    a'8  \bar "|"   d'8    
g'8    a'8      b'4. ^"~"  \bar "|"   c''8    b'!8    c''8    d''4    g''8  
\bar "|"   g''8    fis''8    d''8    b'8    c''8    d''8  \bar "|"   c''8    
a'8    fis'8    g'4    fis'8  \bar ":|."   c''8    a'8    fis'8    g'8    b'8   
 d''8  \bar "||"   \bar ".|:"   g''4    d''8    fis''8    g''8    a''8  \bar "|" 
  g''8    fis''8    d''8    b'8    c''8    d''8  \bar "|"   c''8    a'8    a'8  
  f''4. ^"~"  \bar "|"   a''8    g''8    fis''!8    d''8    e''8    fis''8  
\bar "|"   g''4    a''8    b''8    a''8    g''8  \bar "|"   fis''8    d''8    
g''8    fis''8    d''8    c''8  \bar "|"   b'4    g'8    a'8    g'8    fis'8  
\bar "|"   d'8    g'8    fis'8    g'8    b'8    d''8  \bar ":|."   d'8    g'8   
 fis'8    g'4    fis'8  \bar "||"   
}

\score{
    <<

	\context Staff="default"
	{
	    \voicedefault 
	}

    >>
	\layout {
	}
	\midi {}
}
