\version "2.19.49"
% clairnote-type = sn
\include "clairnote.ly"
\header {
	transcription = "ceolachan"
	crossRefNumber = "1"
	footnotes = ""
	meter = "Slide"
	source = "https://thesession.org/tunes/770#setting28705"
	arranger = "Setting 4"
	tagline = \markup { \vspace #1.8 \sans \abs-fontsize #7.5 \wordwrap {Sheet music in \with-url \clairnoteTypeUrl { \clairnoteTypeName music notation} published by Paul Morris using \with-url #"http://www.lilypond.org" {LilyPond.} Automatically converted to LilyPond format from an ABC source file from \with-url #"https://thesession.org" {the Session} website: \with-url #"https://thesession.org/tunes/770#setting28705" {"https://thesession.org/tunes/770#setting28705"}}}
	title = "Palm Sunday"
}
voicedefault =  {
\set Score.defaultBarType = ""

\time 12/8 \key a \dorian   \repeat volta 2 {   a'8    \bar "|"   a'8    g'8    
e'8    g'4    a'8    g'4    e'8    e'4    d'8    \bar "|"   e'8    a'8    a'8   
 c''4    d''8    e''4    d''8    d''8    e''8    fis''8    \bar "|"     g''4.   
 g''8    fis''8    e''8    d''8    c''8    b'8    c''4    d''8    \bar "|"   
e''8    d''8    c''8    b'8    a'8    g'8    b'4    a'8    a'4    }     
\repeat volta 2 {   r8   \bar "|"   a''4    a''8    a''8    gis''8    a''8    
a''4    e''8    e''4    fis''8    \bar "|"   g''4    a''8    g''4    e''8    
d''8    b'8    g'8    g'8    b'8    d''8    \bar "|"     g''4    g''8    e''4   
 e''8    d''8    c''8    b'8    c''4    d''8    \bar "|"   e''8    d''8    c''8 
   b'8    a'8    g'8    b'4    a'8    a'4    }   
}

\score{
    <<

	\context Staff="default"
	{
	    \voicedefault 
	}

    >>
	\layout {
	}
	\midi {}
}
