\version "2.19.49"
% clairnote-type = sn
\include "clairnote.ly"
\header {
	transcription = "ceolachan"
	crossRefNumber = "1"
	footnotes = ""
	meter = "Reel"
	source = "https://thesession.org/tunes/1083#setting14317"
	arranger = "Setting 3"
	tagline = \markup { \vspace #1.8 \sans \abs-fontsize #7.5 \wordwrap {Sheet music in \with-url \clairnoteTypeUrl { \clairnoteTypeName music notation} published by Paul Morris using \with-url #"http://www.lilypond.org" {LilyPond.} Automatically converted to LilyPond format from an ABC source file from \with-url #"https://thesession.org" {the Session} website: \with-url #"https://thesession.org/tunes/1083#setting14317" {"https://thesession.org/tunes/1083#setting14317"}}}
	title = "Petronella"
}
voicedefault =  {
\set Score.defaultBarType = ""

\repeat volta 2 {
\time 4/4 \key d \major     \bar "|"   g''8 ^"~"    g''16    fis''16    e''16   
 d''16    cis''16    b'16    \bar "|"   a'8    e''16    cis''16    a''16    
g''16    e''16    cis''16    \bar "|"   d''4   ~    d''8    }   
\repeat volta 2 {   d''8    a'8    \bar "|"   fis'8    a'16    fis'16    e'8    
a'16    fis'16    \bar "|"   d'8    d'8    d'8    a'8    \bar "|"   d''8    
cis''16    d''16    e''8    d''8    \bar "|"     }
}

\score{
    <<

	\context Staff="default"
	{
	    \voicedefault 
	}

    >>
	\layout {
	}
	\midi {}
}
