\version "2.19.49"
% clairnote-type = sn
\include "clairnote.ly"
\header {
	transcription = "Dr. Dow"
	crossRefNumber = "1"
	footnotes = ""
	meter = "Reel"
	source = "https://thesession.org/tunes/517#setting13453"
	arranger = "Setting 7"
	tagline = \markup { \vspace #1.8 \sans \abs-fontsize #7.5 \wordwrap {Sheet music in \with-url \clairnoteTypeUrl { \clairnoteTypeName music notation} published by Paul Morris using \with-url #"http://www.lilypond.org" {LilyPond.} Automatically converted to LilyPond format from an ABC source file from \with-url #"https://thesession.org" {the Session} website: \with-url #"https://thesession.org/tunes/517#setting13453" {"https://thesession.org/tunes/517#setting13453"}}}
	title = "Pigeon On The Gate, The"
}
voicedefault =  {
\set Score.defaultBarType = ""

\time 4/4 \key g \major   a'8    c''8  \repeat volta 2 {   d''8    g'8    g'8   
 fis'8    g'8    e''8    d''8    g'8    \bar "|"   g'8    d''8    c''8    e''8  
  d''8    c''8    a'8    g'8    \bar "|"   f'4    f'8    a'8    c''8    f'8    
f'16    f'16    f'8    \bar "|"   f'4    d''8    f'8    c''8    f'8    a'8    
c''8    \bar "|"   d''8    g'8  \grace {    a'8  }   g'16    g'16    fis'8    
g'8    e''8    d''8    g'8    \bar "|"   g'8    d''8    c''8    e''8    d''8    
c''8    a'8    g'8    \bar "|"   f'4    a'8    d''8    fis''8    a''8    g''8   
 e''8    \bar "|"   f''8    d''8    c''8    a'8    g'4    a'8    c''8    }   
\repeat volta 2 {   d''8    g''8    g''8    fis''8    g''8    a''8    g''8    
fis''8    \bar "|"   d''8    g''8    g''16    g''16    g''8    \bar "|"   b''8  
  g''8    a''8    g''8    \bar "|"   d''8    f''8    f''16    f''16    f''8    
a''8    f''8    g''8    f''8    \bar "|"   d''16    e''16    f''8    e''8    
g''8    f''8    d''8    c''8    a'8    \bar "|"   g'4    g''8    fis''8    g''8 
   a''8    g''8    fis''8    \bar "|"   d''8    g''8    g''16    g''16    g''8  
  b''8    g''8    a''8    g''8    \bar "|"   d''8    f''8    f''16    f''16    
f''8    a''8    f''8    g''8    e''8    \bar "|"   f''8    d''8    c''8    a'8  
  g'4    a'8    c''8    }   
}

\score{
    <<

	\context Staff="default"
	{
	    \voicedefault 
	}

    >>
	\layout {
	}
	\midi {}
}
