\version "2.19.49"
% clairnote-type = sn
\include "clairnote.ly"
\header {
	transcription = "hnorbeck"
	crossRefNumber = "1"
	footnotes = ""
	meter = "Reel"
	source = "https://thesession.org/tunes/517#setting24503"
	arranger = "Setting 13"
	tagline = \markup { \vspace #1.8 \sans \abs-fontsize #7.5 \wordwrap {Sheet music in \with-url \clairnoteTypeUrl { \clairnoteTypeName music notation} published by Paul Morris using \with-url #"http://www.lilypond.org" {LilyPond.} Automatically converted to LilyPond format from an ABC source file from \with-url #"https://thesession.org" {the Session} website: \with-url #"https://thesession.org/tunes/517#setting24503" {"https://thesession.org/tunes/517#setting24503"}}}
	title = "Pigeon On The Gate, The"
}
voicedefault =  {
\set Score.defaultBarType = ""

\repeat volta 2 {
\time 4/4 \key g \mixolydian   d''8    g'8    g'4 ^"~"    g'8    e''8    d''8   
 g'8    \bar "|"   g'4    c''8    e''8    d''8    c''8    a'8    g'8    
\bar "|"   f'8    e'8    f'8    d''8    c''8    f'8    f'4 ^"~"    \bar "|"   
e'8    f'8    e''8    g''8    f''8    d''8    c''8    a'8    \bar "|"     d''8  
  g'8    g'4 ^"~"    g'8    e''8    d''8    g'8    \bar "|"   g'4    c''8    
e''8    d''8    c''8    a'8    g'8    \bar "|"   f'4    e''8    g''8    a''8    
b''8    g''8    a''8    \bar "|"   f''8    d''8    c''8    a'8    g'4    c''4 
^"~"    }     \repeat volta 2 {   d''8    g''8    g''4 ^"~"    f''8    a''8    
g''8    f''8    \bar "|"   d''8    g''8    g''4 ^"~"    b''8    g''8    a''8    
g''8    \bar "|"   d''8    c''8    c''4 ^"~"    b'8    c''8    d''8    e''8    
\bar "|"   f''4    g''8    a''8    f''8    d''8    c''8    a'8    \bar "|"     
g'4    g''4 ^"~"    g''8    a''8    g''8    f''8    \bar "|"   d''8    g''8    
g''4 ^"~"    b''8    g''8    a''8    g''8    \bar "|"   d''8    c''8    c''4 
^"~"    g''8    c''8    e''8    g''8    \bar "|"   f''8    d''8    c''8    a'8  
  g'4    c''4 ^"~"    }   
}

\score{
    <<

	\context Staff="default"
	{
	    \voicedefault 
	}

    >>
	\layout {
	}
	\midi {}
}
