\version "2.19.49"
% clairnote-type = sn
\include "clairnote.ly"
\header {
	transcription = "Jürgen"
	crossRefNumber = "1"
	footnotes = ""
	meter = "Reel"
	source = "https://thesession.org/tunes/517#setting13454"
	arranger = "Setting 8"
	tagline = \markup { \vspace #1.8 \sans \abs-fontsize #7.5 \wordwrap {Sheet music in \with-url \clairnoteTypeUrl { \clairnoteTypeName music notation} published by Paul Morris using \with-url #"http://www.lilypond.org" {LilyPond.} Automatically converted to LilyPond format from an ABC source file from \with-url #"https://thesession.org" {the Session} website: \with-url #"https://thesession.org/tunes/517#setting13454" {"https://thesession.org/tunes/517#setting13454"}}}
	title = "Pigeon On The Gate, The"
}
voicedefault =  {
\set Score.defaultBarType = ""

\time 4/4 \key g \dorian   c''8  \repeat volta 2 {   d''8    g'8    
\tuplet 3/2 {   g'8    g'8    g'8  } \grace {    e''8  }   d''8    c''8    a'8   
 c''8  \bar "|"   d''4    d''8    e''8    d''8    c''8    a'8    bes'8  
\bar "|"   c''8    f'8    \tuplet 3/2 {   f'8    f'8    f'8  }   c''8    f'8    
a'8    bes'8  \bar "|"   c''4    c''8    f''8    d''8    c''8    bes'8    c''8  
\bar "|"     d''8    g'8    \tuplet 3/2 {   g'8    g'8    g'8  } \grace {    
e''8  }   d''8    c''8    a'8    c''8  \bar "|"   d''4    d''8    e''8    d''8  
  c''8    a'8    g'8  \bar "|"   f'8    a'8    c''8    f''8    a''8    f''8    
g''8    a''8  \bar "|"   f''8    d''8    c''8    a'8    g'8    a'8    bes'8    
c''8  }     d''8    g''8    \tuplet 3/2 {   g''8    g''8    g''8  }   f''8    
a''8    g''8    f''8  \bar "|"   d''8    g''8    g''8    a''8    bes''8    g''8 
   a''8    f''8  \bar "|"   d''8    c''8    d''8    e''8    f''8    g''8    
f''8    d''8  \bar "|"   c''8    a'8    f''4    f''8    g''8    a''8    f''8  
\bar "|"     d''8    g''8    \tuplet 3/2 {   g''8    g''8    g''8  }   f''8    
a''8    g''8    f''8  \bar "|"   d''8    g''8    g''8    a''8    bes''8    g''8 
   a''8    f''8  \bar "|"   d''8    c''8    d''8    e''8    f''8    g''8    
f''8    d''8  \bar "|"   c''8    a'8    f'8    a'8    g'8    a'8    bes'8    
c''8  \bar ":|."   c''8    a'8    f'8    a'8    g'4    g'8  \bar "|."   
}

\score{
    <<

	\context Staff="default"
	{
	    \voicedefault 
	}

    >>
	\layout {
	}
	\midi {}
}
