\version "2.19.49"
% clairnote-type = sn
\include "clairnote.ly"
\header {
	transcription = "m.r.kelahan"
	crossRefNumber = "1"
	footnotes = ""
	meter = "Jig"
	source = "https://thesession.org/tunes/1049#setting22722"
	arranger = "Setting 2"
	tagline = \markup { \vspace #1.8 \sans \abs-fontsize #7.5 \wordwrap {Sheet music in \with-url \clairnoteTypeUrl { \clairnoteTypeName music notation} published by Paul Morris using \with-url #"http://www.lilypond.org" {LilyPond.} Automatically converted to LilyPond format from an ABC source file from \with-url #"https://thesession.org" {the Session} website: \with-url #"https://thesession.org/tunes/1049#setting22722" {"https://thesession.org/tunes/1049#setting22722"}}}
	title = "Pipe On The Hob, The"
}
voicedefault =  {
\set Score.defaultBarType = ""

\time 6/8 \key d \mixolydian   \bar "|"   e''8    \bar "||"   d''4    r8   a'4  
  g'8    \bar "|"   fis'4    d'8    d'4.    \bar "|"   e'8    d'8    e'8    
c''4    a'16    g'16    \bar "|"   e'4    d'8    d'4    a'8    \bar "|"     
d''8    c''8    b'8    c''8    b'8    a'8    \bar "|"   b'8    a'8    g'8    
a'4    g'8    \bar "|"   e'8    d'8    e'8    c''4    g'8    \bar "|"   e'4    
d'8 (   d'8  -)   fis''8    e''8    \bar "||"     \bar "||"   d''8    e''8    
d''8    a'4    g'8    \bar "|"   fis'4    d'8    d'8    e'8    d'8    \bar "|"  
 e'8    d'8    e'8    c''4    g'8    \bar "|"   e'4    d'8    d'4    a'8    
\bar "|"     d''8    c''8    b'8    c''8    b'8    a'8    \bar "|"   b'8    a'8 
   g'8    a'4    g'8    \bar "|"   e'8    d'8    e'8    c''4    a'16    g'16    
\bar "|"   e'4    d'8    d'4    \bar "||"     \bar "|"   a'8    
\repeat volta 2 {   fis''4    d''8    d''8    cis''8    d''8    \bar "|"   
fis''4    d''8    d''8    cis''8    d''8    \bar "|"   e''8    d''8    b'8    
c''4    d''8    \bar "|"   e''8    d''8    e''8    a''8    g''8    e''8    
\bar "|"     } \alternative{{   fis''4    d''8    d''8    cis''8    d''8    
\bar "|"   fis''4    d''8    d''8    cis''8    d''8    \bar "|"   e''8    d''8  
  e''8    a''8    g''8    e''8    \bar "|"   e''8    d''8    cis''8    d''8    
g''8    e''8    } }      \bar "|"   fis''4. ^"~"    g''4. ^"~"    \bar "|"   
a''8    fis''8    a''8    g''8    fis''8    e''8    \bar "|"   fis''8    e''8   
 d''8    e''8    a''8    g''8    \bar "|"   e''8    d''8    cis''8    d''4    
a'8    \bar "||"   
}

\score{
    <<

	\context Staff="default"
	{
	    \voicedefault 
	}

    >>
	\layout {
	}
	\midi {}
}
