\version "2.19.49"
% clairnote-type = sn
\include "clairnote.ly"
\header {
	transcription = "fidicen"
	crossRefNumber = "1"
	footnotes = ""
	meter = "Jig"
	source = "https://thesession.org/tunes/1255#setting1255"
	arranger = "Setting 1"
	tagline = \markup { \vspace #1.8 \sans \abs-fontsize #7.5 \wordwrap {Sheet music in \with-url \clairnoteTypeUrl { \clairnoteTypeName music notation} published by Paul Morris using \with-url #"http://www.lilypond.org" {LilyPond.} Automatically converted to LilyPond format from an ABC source file from \with-url #"https://thesession.org" {the Session} website: \with-url #"https://thesession.org/tunes/1255#setting1255" {"https://thesession.org/tunes/1255#setting1255"}}}
	title = "Piper's Chair, The"
}
voicedefault =  {
\set Score.defaultBarType = ""

\time 6/8 \key g \major   d'8    g'8    g'8    g'8    fis'8    d'8  \bar "|"   
d'8    c''8    c''8  \grace {    d''8  }   c''8    b'8    c''8  \bar "|"   d''8 
   e''8    d''8    c''16    b'16    a'8    g'8  \bar "|"   fis'8    a'8    g'8  
  fis'8    e'8    d'8  \bar "|"     d'8    g'8    g'8  \grace {    a'8  }   g'8 
   fis'8    d'8  \bar "|"   d'8    c''8    c''8  \grace {    d''8  }   c''8    
b'8    c''8  \bar "|"   d''8    e''8    d''8  \grace {    d''8  }   c''8    a'8 
   fis'8  \bar "|"   a'8    g'8    fis'8    g'4    fis'8  \bar ":|."   a'8    
g'8    fis'8    g'8    b'8    d''8  \bar "||"     \bar ".|:"   g''4. ^"~"    
a''8    g''8    fis''8  \bar "|"   d''4    g''8  \grace {    a''8  }   g''8    
fis''8    g''8  \bar "|"   g'8    fis'8    g'8    f''4. ^"~"  \bar "|"   a'4    
b'8    c''8    b'8    a'8  \bar "|"     g'8    b'8    d''8    g''4    g''8  
\bar "|"   d''4    e''8    fis''8    d''8    c''8  \bar "|"   b'16    c''16    
d''8    b'8  \grace {    d''8  }   c''8    a'8    fis'8  \bar "|" \grace {    
b'8  }   a'8    g'8    fis'8    g'8    b'8    d''8  \bar ":|."   a'8    g'8    
fis'8    g'4    fis'8  \bar "||"   
}

\score{
    <<

	\context Staff="default"
	{
	    \voicedefault 
	}

    >>
	\layout {
	}
	\midi {}
}
