\version "2.19.49"
% clairnote-type = sn
\include "clairnote.ly"
\header {
	transcription = "JACKB"
	crossRefNumber = "1"
	footnotes = ""
	meter = "Reel"
	source = "https://thesession.org/tunes/314#setting24882"
	arranger = "Setting 7"
	tagline = \markup { \vspace #1.8 \sans \abs-fontsize #7.5 \wordwrap {Sheet music in \with-url \clairnoteTypeUrl { \clairnoteTypeName music notation} published by Paul Morris using \with-url #"http://www.lilypond.org" {LilyPond.} Automatically converted to LilyPond format from an ABC source file from \with-url #"https://thesession.org" {the Session} website: \with-url #"https://thesession.org/tunes/314#setting24882" {"https://thesession.org/tunes/314#setting24882"}}}
	title = "Poor But Happy At 53"
}
voicedefault =  {
\set Score.defaultBarType = ""

\time 4/4 \key g \minor   \repeat volta 2 {   g'8    a'8    bes'8    c''8    
d''8    g'8    g'4  \bar "|"   ees''4    d''8    ees''8    d''8    g'8    g'4  
\bar "|"   f'8    g'8    a'8    bes'8    c''8    f'8    f'4  \bar "|"   c''8    
f'8    d''8    f'8    c''4    bes'8    a'8  \bar "|"     g'8    a'8    bes'8    
c''8    d''4    g''8    f''8  \bar "|"   g''8    f''8    d''8    bes'8    c''4  
  bes'8    c''8  \bar "|"   d''8    c''8    bes'8    d''8    c''8    a'8    a'4 
 \bar "|"   bes'8    g'8    a'8    f'8    g'4    g'4  }     \repeat volta 2 {   
g''8    f''8    d''8    c''8    d''4    g''8    a''8  \bar "|"   bes''8    a''8 
   g''8    f''8    d''8    c''8    \tuplet 3/2 {   d''8    ees''8    f''8  }   
\bar "|"   g''4.    a''8    bes''4.    g''8  \bar "|"   a''4.    f''8    g''4   
 g''8    a''8  \bar "|"     \tuplet 3/2 {   bes''8    a''8    g''8  }   a''8    
f''8    g''8    f''8    d''8    c''8  \bar "|"   d''8    bes'8    c''8    a'8   
 bes'8    g'8    g'4  \bar "|"   d''8    c''8    bes'8    d''8    c''8    a'8   
 a'4  \bar "|"   bes'8    g'8    a'8    f'8    g'2  }   
}

\score{
    <<

	\context Staff="default"
	{
	    \voicedefault 
	}

    >>
	\layout {
	}
	\midi {}
}
