\version "2.19.49"
% clairnote-type = sn
\include "clairnote.ly"
\header {
	transcription = "slainte"
	crossRefNumber = "1"
	footnotes = ""
	meter = "Reel"
	source = "https://thesession.org/tunes/263#setting14934"
	arranger = "Setting 3"
	tagline = \markup { \vspace #1.8 \sans \abs-fontsize #7.5 \wordwrap {Sheet music in \with-url \clairnoteTypeUrl { \clairnoteTypeName music notation} published by Paul Morris using \with-url #"http://www.lilypond.org" {LilyPond.} Automatically converted to LilyPond format from an ABC source file from \with-url #"https://thesession.org" {the Session} website: \with-url #"https://thesession.org/tunes/263#setting14934" {"https://thesession.org/tunes/263#setting14934"}}}
	title = "Porthole Of The Kelp, The"
}
voicedefault =  {
\set Score.defaultBarType = ""

\time 4/4 \key d \dorian   d'8    e'8  \repeat volta 2 {   f'4. ^"~"    e'8    
f'8    g'8    a'8    g'8  \bar "|"   f'4. ^"~"    g'8    e'8    d'8    c'8    
e'8  \bar "|"   e'8    f'8    f'8    e'8    f'8    g'8    a'8    g'8  \bar "|"  
 f'8    d'8    e'8    c'8    d'8    c'8    a8    c'8  \bar "|"   f'4. ^"~"    
e'8    f'8    g'8    a'8    b'8  \bar "|"   c''8    a'8    g'8    f'8    e'8    
d'8    c'8    e'8  \bar "|"   d'8    e'8    f'8    g'8    a'8    d''8    d''8   
 b'8  \bar "|"   c''8    a'8    g'8    f'8    e'8    d'8    c'8    e'8  }   
\repeat volta 2 {   d'8    d''8    d''8    c''8    d''8    c''8    a'8    g'8  
\bar "|"   f'4. ^"~"    g'8    e'8    d'8    c'8    e'8  \bar "|"   d'8    d''8 
   d''8    c''8    d''8    c''8    a'8    g'8  \bar "|"   a'8    d''8    d''8   
 c''8    d''4    d''8    e''8  \bar "|"   fis''8    d''8    d''4 ^"~"    d''8   
 c''8    a'8    g'8  \bar "|"   f'4. ^"~"    g'8    e'8    d'8    c'8    e'8  
\bar "|"   d'8    e'8    f'8    g'8    a'8    d''8    d''8    b'8  \bar "|"   
c''8    a'8    g'8    f'8    e'8    d'8    c'8    e'8  }   d'8    e'8  
\repeat volta 2 {   f'4. ^"~"    e'8    f'4    d'8    e'8  \bar "|"   f'8    
e'8    f'8    g'8    e'8    c'8    c'8    e'8  \bar "|"   f'4    d'8    e'8    
f'8    g'8    a'8    g'8  \bar "|"   f'8    d'8    e'8    c'8    a8    d'8    
d'8    e'8  \bar "|"   f'4. ^"~"    e'8    f'8    g'8    a'8    d''8  \bar "|"  
 c''8    a'8    g'8    f'8    e'8    d'8    c'8    e'8  \bar "|"   d'8    e'8   
 f'8    g'8    a'8    d''8    d''8    b'8  \bar "|"   c''8    a'8    g'8    f'8 
   e'8    d'8    c'8    e'8  }   \repeat volta 2 {   d'8    d''8    d''8    
c''8    d''8    c''8    a'8    g'8  \bar "|"   f'4. ^"~"    g'8    e'8    d'8   
 c'8    e'8  \bar "|"   d'8    d''8    d''8    c''8    d''8    c''8    a'8    
g'8  \bar "|"   a'8    d''8    d''8    c''8    d''4    d''8    e''8  \bar "|"   
e''8    d''8    d''8    c''8    d''8    c''8    a'8    g'8  \bar "|"   f'4. 
^"~"    g'8    e'8    d'8    c'8    e'8  \bar "|"   d'8    e'8    f'8    g'8    
a'8    d''8    d''8    b'8  \bar "|"   c''8    a'8    g'8    f'8    e'8    d'8  
  c'8    e'8  }   
}

\score{
    <<

	\context Staff="default"
	{
	    \voicedefault 
	}

    >>
	\layout {
	}
	\midi {}
}
