\version "2.19.49"
% clairnote-type = sn
\include "clairnote.ly"
\header {
	transcription = "fidicen"
	crossRefNumber = "1"
	footnotes = ""
	meter = "Jig"
	source = "https://thesession.org/tunes/1150#setting1150"
	arranger = "Setting 1"
	tagline = \markup { \vspace #1.8 \sans \abs-fontsize #7.5 \wordwrap {Sheet music in \with-url \clairnoteTypeUrl { \clairnoteTypeName music notation} published by Paul Morris using \with-url #"http://www.lilypond.org" {LilyPond.} Automatically converted to LilyPond format from an ABC source file from \with-url #"https://thesession.org" {the Session} website: \with-url #"https://thesession.org/tunes/1150#setting1150" {"https://thesession.org/tunes/1150#setting1150"}}}
	title = "Portland Fancy, The"
}
voicedefault =  {
\set Score.defaultBarType = ""

\time 6/8 \key d \major   e'4    a'8    e'4    a'8  \bar "|"   e'8    a'8    
b'8    cis''4    cis''8  \bar "|"   d''8    cis''8    d''8    b'8    cis''8    
d''8  \bar "|"   fis''4    e''8    cis''8    a'8    fis'8  \bar "|"     e'4    
a'8    e'4    a'8  \bar "|"   e'8    a'8    b'8    cis''4    cis''8  \bar "|"   
d''8    cis''8    d''8    e'8    fis'8    gis'8  \bar "|"   a'8    cis''8    
b'8    a'8    cis''8    e''8  \bar "|"     a''4    a''8    gis''8    a''8    
gis''8  \bar "|"   fis''8    d''8    fis''8    e''4    cis''8  \bar "|"   d''8  
  cis''8    d''8    b'8    cis''8    d''8  \bar "|"   cis''8    d''8    e''8    
fis''4    e''8  \bar "|"     a''4    a''8    gis''8    a''8    gis''8  \bar "|" 
  fis''8    d''8    fis''8    e''4    cis''8  \bar "|"   d''8    cis''8    d''8 
   e'8    fis'8    gis'8  \bar "|"   a'8    cis''8    b'8    a'8    fis'8    
g'!8  \bar "|"     a'8    b'8    cis''8    d''4    e''8  \bar "|"   fis''4    
g''8    a''4.  \bar "|"   e''8    fis''8    g''8    a'8    d''8    e''8  
\bar "|"   fis''4    d''8    a'8    fis'8    g'8  \bar "|"     a'8    b'8    
cis''8    d''4    e''8  \bar "|"   fis''4    g''8    a''4.  \bar "|"   e''8    
fis''8    g''8    a'8    b'8    cis''8  \bar "|"   d''4    fis''8    d''4.  
\bar "|"     fis'4    a'8    fis'4    a'8  \bar "|"   fis'8    a'8    d''8    
fis''4.  \bar "|"   e''8    cis''8    e''8    g''8    e''8    cis''8  \bar "|"  
 d''8    fis''8    e''8    d''8    a'8    g'8  \bar "|"     fis'4    a'8    
fis'4    a'8  \bar "|"   fis'8    a'8    d''8    fis''4.  \bar "|"   e''8    
cis''8    e''8    g''8    e''8    cis''8  \bar "|"   d''4.    d''4.  \bar "||"  
 
}

\score{
    <<

	\context Staff="default"
	{
	    \voicedefault 
	}

    >>
	\layout {
	}
	\midi {}
}
