\version "2.7.40"
% clairnote-type = sn
\include "clairnote.ly"
\header {
	transcription = "ceolachan"
	crossRefNumber = "1"
	footnotes = ""
	meter = "Reel"
	source = "https://thesession.org/tunes/789#setting13927"
	arranger = "Setting 4"
	tagline = \markup { \vspace #1.8 \sans \abs-fontsize #7.5 \wordwrap {Sheet music in \with-url \clairnoteTypeUrl { \clairnoteTypeName music notation} published by Paul Morris using \with-url #"http://www.lilypond.org" {LilyPond.} Automatically converted to LilyPond format from an ABC source file from \with-url #"https://thesession.org" {the Session} website: \with-url #"https://thesession.org/tunes/789#setting13927" {"https://thesession.org/tunes/789#setting13927"}}}
	title = "Primrose Lasses, The"
}
voicedefault =  {
\set Score.defaultBarType = ""

\time 4/4 \key g \major   \repeat volta 2 {   b'4    b'8    a'8    g'4    g'8   
 e'8    \bar "|"   d'8    e'8    g'8    a'8    b'8    a'8    a'4    \bar "|"   
b'8    c''8    b'8    a'8    g'8    a'8    g'8    e'8    \bar "|"   d'8    e'8  
  g'8    a'8    b'8    g'8    g'4    }     b'8    d''8    g''8    d''8    e''8  
  d''8    g''8    d''8    \bar "|"   b'8    d''8    g''8    b'8    c''8    a'8  
  a'8    c''8    \bar "|"   b'16    c''16    d''8    g''8    d''8    e''8    
d''8    g''4    \bar "|"   b'8    c''8    a'16    b'16    c''8    b'8    g'8    
g'8    c''8    \bar "|"     b'16    c''16    d''8    g''4    e''8    d''8    
g''4    \bar "|"   e''8    d''8    g''8    b'8    c''8    a'8    a'16    a'16   
 a'8    \bar "|"   b'4    c''16    b'16    a'8    g'4    g'8    e'8    \bar "|" 
  d'8    e'8    g'8    a'8    b'8    g'8    g'4    \bar "|."   
}

\score{
    <<

	\context Staff="default"
	{
	    \voicedefault 
	}

    >>
	\layout {
	}
	\midi {}
}
