\version "2.19.49"
% clairnote-type = sn
\include "clairnote.ly"
\header {
	transcription = "milesnagopaleen"
	crossRefNumber = "1"
	footnotes = ""
	meter = "Jig"
	source = "https://thesession.org/tunes/398#setting13240"
	arranger = "Setting 2"
	tagline = \markup { \vspace #1.8 \sans \abs-fontsize #7.5 \wordwrap {Sheet music in \with-url \clairnoteTypeUrl { \clairnoteTypeName music notation} published by Paul Morris using \with-url #"http://www.lilypond.org" {LilyPond.} Automatically converted to LilyPond format from an ABC source file from \with-url #"https://thesession.org" {the Session} website: \with-url #"https://thesession.org/tunes/398#setting13240" {"https://thesession.org/tunes/398#setting13240"}}}
	title = "Pull The Knife And Stick It Again"
}
voicedefault =  {
\set Score.defaultBarType = ""

\time 6/8 \key e \dorian   \repeat volta 2 {   e'4.    g'8    fis'8    e'8    
\bar "|"   d'8    b8    e'8    d'8    b8    d'8    \bar "|"   e'4.    g'8    
fis'8    e'8    \bar "|"   a'8    b'8    g'8    a'8    fis'8    d'8    \bar "|" 
  e'4    fis'8    g'8    fis'8    e'8    \bar "|"   d'8    b8    e'8    d'8    
e'8    fis'8    \bar "|"   g'4    e'8    fis'8    e'8    d'8    \bar "|"   b8   
 e'8    d'8    e'4.    }   \repeat volta 2 {   e''8    d''8    b'8    b'8    
a'8    fis'8    \bar "|"   e'8    d'8    b8    d'4.    \bar "|"   e''8    d''8  
  b'8    b'8    a'8    fis'8    \bar "|"   a'8    b'8    cis''8    d''8    e''8 
   fis''8    \bar "|"   e''8    d''8    b'8    b'8    a'8    fis'8    \bar "|"  
 e'8    d'8    b8    d'8    e'8    fis'8    \bar "|"   g'4    e'8    fis'8    
e'8    d'8    \bar "|"   b8    e'8    d'8    e'4.    }   
}

\score{
    <<

	\context Staff="default"
	{
	    \voicedefault 
	}

    >>
	\layout {
	}
	\midi {}
}
