\version "2.19.49"
% clairnote-type = sn
\include "clairnote.ly"
\header {
	transcription = "ceolachan"
	crossRefNumber = "1"
	footnotes = ""
	meter = "Jig"
	source = "https://thesession.org/tunes/1130#setting14396"
	arranger = "Setting 5"
	tagline = \markup { \vspace #1.8 \sans \abs-fontsize #7.5 \wordwrap {Sheet music in \with-url \clairnoteTypeUrl { \clairnoteTypeName music notation} published by Paul Morris using \with-url #"http://www.lilypond.org" {LilyPond.} Automatically converted to LilyPond format from an ABC source file from \with-url #"https://thesession.org" {the Session} website: \with-url #"https://thesession.org/tunes/1130#setting14396" {"https://thesession.org/tunes/1130#setting14396"}}}
	title = "Rakes Of Clonmel, The"
}
voicedefault =  {
\set Score.defaultBarType = ""

\time 6/8 \key a \dorian   \repeat volta 2 {   a'16    b'16    \bar "|"   c''8  
  b'8    a'8    g'8    e'8    d'8    \bar "|"   e'8    a'8    gis'8    a'4    
b'8    \bar "|"   c''8    b'8    c''8    a'8    d''8    c''8    \bar "|"   b'8  
  g'8    fis'8    g'4    e''16    d''16    \bar "|"     c''8    b'8    c''8    
d''8    cis''8    d''8    \bar "|"   e''8    d''8    c''8    b'8    c''8    
d''8    \bar "|"   e''8    c''8    a'8    g'8    e'8    d'8    \bar "|"   e'8   
 a'8    gis'8    a'4    }     \repeat volta 2 {   a''8    \bar "|"   a''8    
gis''8    a''8    a''8    e''8    d''8    \bar "|"   c''8    a'8    gis'8    
a'4    b'16    d''16    \bar "|"   g''8    fis''8    g''8    g''8    d''8    
c''8    \bar "|"   b'8    g'8    fis'8    g'4    a'16    b'16    \bar "|"     
c''8    b'8    c''8    d''8    cis''8    d''8    \bar "|"   e''8    d''8    
c''8    b'16    c''16    d''8    b'8    \bar "|"   e''8    c''8    a'8    g'4   
 d'8    \bar "|"   e'8    a'8    gis'8    a'4    }   
}

\score{
    <<

	\context Staff="default"
	{
	    \voicedefault 
	}

    >>
	\layout {
	}
	\midi {}
}
