\version "2.19.49"
% clairnote-type = sn
\include "clairnote.ly"
\header {
	transcription = "Lowlander93"
	crossRefNumber = "1"
	footnotes = ""
	meter = "Jig"
	source = "https://thesession.org/tunes/510#setting21206"
	arranger = "Setting 6"
	tagline = \markup { \vspace #1.8 \sans \abs-fontsize #7.5 \wordwrap {Sheet music in \with-url \clairnoteTypeUrl { \clairnoteTypeName music notation} published by Paul Morris using \with-url #"http://www.lilypond.org" {LilyPond.} Automatically converted to LilyPond format from an ABC source file from \with-url #"https://thesession.org" {the Session} website: \with-url #"https://thesession.org/tunes/510#setting21206" {"https://thesession.org/tunes/510#setting21206"}}}
	title = "Rambler, The"
}
voicedefault =  {
\set Score.defaultBarType = ""

\repeat volta 2 {
\time 6/8 \key a \major   e'4. ^"~"    e'4    a'8  \bar "|"   fis'8    e'8    
cis'8    e'4    e''8  \bar "|"   fis''8    e''8    cis''8    a'8    b'8    
cis''8  \bar "|"   d''4. ^"~"    b'8    a'8    fis'8  \bar "|"     e'4. ^"~"    
e'8    a'8    a'8  \bar "|"   fis'8    e'8    cis'8    e'4    e''8  \bar "|"   
fis''8    e''8    cis''8    a'8    b'8    cis''8  \bar "|"   b'8    a'8    
gis'8    a'4.  }     \repeat volta 2 {   e''4. ^"~"    a'8    cis''8    e''8  
\bar "|"   a''8    fis''4 ^"~"    fis''8    gis''8    a''8  \bar "|"   e''8    
cis''8    e''8    fis''8    e''8    cis''8  \bar "|"   b'4. ^"~"    b'8    
cis''8    d''8  \bar "|"     e''4. ^"~"    a'8    cis''8    e''8  \bar "|"   
a''8    fis''4 ^"~"    fis''8    gis''8    a''8  \bar "|"   e''8    cis''8    
e''8    fis''8    e''8    cis''8  \bar "|"   b'8    a'8    gis'8    a'4.  }   
}

\score{
    <<

	\context Staff="default"
	{
	    \voicedefault 
	}

    >>
	\layout {
	}
	\midi {}
}
