\version "2.19.49"
% clairnote-type = sn
\include "clairnote.ly"
\header {
	transcription = "JACKB"
	crossRefNumber = "1"
	footnotes = ""
	meter = "Jig"
	source = "https://thesession.org/tunes/510#setting26377"
	arranger = "Setting 7"
	tagline = \markup { \vspace #1.8 \sans \abs-fontsize #7.5 \wordwrap {Sheet music in \with-url \clairnoteTypeUrl { \clairnoteTypeName music notation} published by Paul Morris using \with-url #"http://www.lilypond.org" {LilyPond.} Automatically converted to LilyPond format from an ABC source file from \with-url #"https://thesession.org" {the Session} website: \with-url #"https://thesession.org/tunes/510#setting26377" {"https://thesession.org/tunes/510#setting26377"}}}
	title = "Rambler, The"
}
voicedefault =  {
\set Score.defaultBarType = ""

\repeat volta 2 {
\time 6/8 \key d \major   \repeat volta 2 {   d'4.    d'4    g'8  \bar "|"   
e'8    d'8    d'8    d'4    d''8  \bar "|"   e''8    d''8    b'8    g'8    a'8  
  b'8  \bar "|"   a'4.    a'8    g'8    e'8  \bar "|"     d'4.    d'4    g'8  
\bar "|"   e'4.    d'4    d''8  \bar "|"   e''8    d''8    b'8    g'8    a'8    
b'8  \bar "|"   a'4.    g'4  }     b'8  \bar "|"   d''8    b'8    g'8    g'8    
b'8    d''8  \bar "|"   g''4.    e''8    g''8    e''8  \bar "|"   d''8    e''8  
  d''8    e''8    d''8    b'8  \bar "|"   a'4.    a'8    b'8    cis''8  
\bar "|"     d''8    b'8    g'8    g'8    b'8    d''8  \bar "|"   g''4.    a''8 
   g''8    e''8  \bar "|"   d''8    b'16    cis''16    d''8    e''8    d''8    
b'8  \bar "|"   a'8    g'8    fis'8    g'4  }   
}

\score{
    <<

	\context Staff="default"
	{
	    \voicedefault 
	}

    >>
	\layout {
	}
	\midi {}
}
