\version "2.19.49"
% clairnote-type = sn
\include "clairnote.ly"
\header {
	transcription = "Weejie"
	crossRefNumber = "1"
	footnotes = ""
	meter = "Reel"
	source = "https://thesession.org/tunes/566#setting13545"
	arranger = "Setting 7"
	tagline = \markup { \vspace #1.8 \sans \abs-fontsize #7.5 \wordwrap {Sheet music in \with-url \clairnoteTypeUrl { \clairnoteTypeName music notation} published by Paul Morris using \with-url #"http://www.lilypond.org" {LilyPond.} Automatically converted to LilyPond format from an ABC source file from \with-url #"https://thesession.org" {the Session} website: \with-url #"https://thesession.org/tunes/566#setting13545" {"https://thesession.org/tunes/566#setting13545"}}}
	title = "Red Haired Boy, The"
}
voicedefault =  {
\set Score.defaultBarType = ""

\time 4/4 \key a \minor   a'8    gis'8    a'8    b'8    c''8    b'8    c''8    
d''8  \bar "|" \grace {    c''8    d''8  }   e''4    d''8    c''8    d''4    
c''8    d''8  \bar "|" \grace {    c''8    d''8  }   e''4    g'4    c''8    a'8 
   g'8    e'8  \bar "|"   g'2    c''8    b'8  \bar "|"   a'8    gis'8    a'8    
b'8    c''8    b'8    c''8    d''8  \bar "|"   e''4    d''8    c''8    d''4    
e''4  \bar "|"   c''4    b'8    a'8    a'8    g'8    e'8    g'8  \bar "|"   a'2 
 \bar "||"   g''4.    a''8    g''4    f''8    e''8  \bar "|"   f''8    e''8    
d''8    c''8    d''4    c''8    d''8  \bar "|" \grace {    c''8    d''8  }   
e''4    g'4  \grace {    a'8    b'8  }   c''4    g'8    e'8  \bar "|"   g'2    
c''8    b'8  \bar "|"   a'8    gis'8    a'8    b'8    c''8    b'8    c''8    
d''8  \bar "|"   e''4    d''8    c''8    d''4    e''4  \bar "|"   c''4    b'8   
 a'8    a'8    g'8    e'8    g'8  \bar "|"   a'2  \bar "||"   
}

\score{
    <<

	\context Staff="default"
	{
	    \voicedefault 
	}

    >>
	\layout {
	}
	\midi {}
}
