\version "2.19.49"
% clairnote-type = sn
\include "clairnote.ly"
\header {
	transcription = "ceolachan"
	crossRefNumber = "1"
	footnotes = ""
	meter = "Hornpipe"
	source = "https://thesession.org/tunes/851#setting14019"
	arranger = "Setting 3"
	tagline = \markup { \vspace #1.8 \sans \abs-fontsize #7.5 \wordwrap {Sheet music in \with-url \clairnoteTypeUrl { \clairnoteTypeName music notation} published by Paul Morris using \with-url #"http://www.lilypond.org" {LilyPond.} Automatically converted to LilyPond format from an ABC source file from \with-url #"https://thesession.org" {the Session} website: \with-url #"https://thesession.org/tunes/851#setting14019" {"https://thesession.org/tunes/851#setting14019"}}}
	title = "Return From Fingal"
}
voicedefault =  {
\set Score.defaultBarType = ""

\time 4/4 \key e \dorian   b'8    g'16    fis'16    e'16    fis'16    g'16    
a'16    \bar "|"   b'8    g'16    fis'16    e'4    \bar "|"   a'16    g'16    
fis'16    a'16    d''8    a'8    \bar "|"   b'8    a'8    b'16    cis''16    
d''16    e''16    \bar "|"   b'8    g'16    fis'16    e'16    fis'16    g'16    
a'16    \bar "|"   b'8    g'16    fis'16    e'4    \bar "|"   a'16    g'16    
fis'16    a'16    d''8    a'8    \bar "|"   fis'8    e'8    e'4    \bar "||"   
fis''8    e''8    e''8    d''16    cis''16    \bar "|"   b'8    a'8    d''8    
a'8    \bar "|"   b'8    a'8    d''8    a'8    \bar "|"   b'8    a'8    b'16    
cis''16    d''16    e''16    \bar "|"   fis''8    e''8    e''8    d''16    
cis''16    \bar "|"   b'8    a'8    d''4    \bar "|"   a'16    g'16    fis'16   
 a'16    d''8    g'8    \bar "|"   fis'8    e'8    e'4    \bar "|."   b'4    
g'8    fis'8    e'8    fis'8    g'8    a'8    \bar "|"   b'4    g'8    fis'8    
e'2    \bar "|"   a'8    g'8    fis'8    a'8    d''4    a'4    \bar "|"   b'4   
 a'4    b'8    cis''8    d''8    e''8    \bar "|"   b'4    g'8    fis'8    e'8  
  fis'8    g'8    a'8    \bar "|"   b'4    g'8    fis'8    e'2    \bar "|"   
a'8    g'8    fis'8    a'8    d''4    a'4    \bar "|"   fis'4    e'4    e'2    
\bar "||"   fis''4    e''4    e''4    d''8    cis''8    \bar "|"   b'4    a'4   
 d''4    a'4    \bar "|"   b'4    a'4    d''4    a'4    \bar "|"   b'4    a'4   
 b'8    cis''8    d''8    e''8    \bar "|"   fis''4    e''4    e''4    d''8    
cis''8    \bar "|"   b'4    a'4    d''2    \bar "|"   a'8    g'8    fis'8    
a'8    d''4    g'4    \bar "|"   fis'4    e'4    e'2    \bar "|."   
}

\score{
    <<

	\context Staff="default"
	{
	    \voicedefault 
	}

    >>
	\layout {
	}
	\midi {}
}
