\version "2.19.49"
% clairnote-type = sn
\include "clairnote.ly"
\header {
	transcription = "JACKB"
	crossRefNumber = "1"
	footnotes = ""
	meter = "Reel"
	source = "https://thesession.org/tunes/1131#setting24070"
	arranger = "Setting 4"
	tagline = \markup { \vspace #1.8 \sans \abs-fontsize #7.5 \wordwrap {Sheet music in \with-url \clairnoteTypeUrl { \clairnoteTypeName music notation} published by Paul Morris using \with-url #"http://www.lilypond.org" {LilyPond.} Automatically converted to LilyPond format from an ABC source file from \with-url #"https://thesession.org" {the Session} website: \with-url #"https://thesession.org/tunes/1131#setting24070" {"https://thesession.org/tunes/1131#setting24070"}}}
	title = "Richard Dwyer's"
}
voicedefault =  {
\set Score.defaultBarType = ""

\repeat volta 2 {
\time 4/4 \key a \dorian   \repeat volta 2 {   a'4    e'8    a'8    c''8    
d''8    e''8    g''8    \bar "|"   d''8    c''8    b'8    g'8    a'8    e'8    
e'4  \bar "|"   e'8    a'8    c''8    a'8    b'8    d''8    g''8    fis''8    
\bar "|"   e''8    a''8    a''8    gis''8    a''4.    gis''8    \bar "|"     
\bar "|"   e''4.    d''8    c''8    a'8    a'4    \bar "|"   b'8    g''8    
d''8    c''8    b'8    g'8    g'4    \bar "|"   a'8    e'8    c''8    e'8    
d''8    e'8    c''8    d''8  \bar "|"   e''8    c''8    a'8    g'8    e'8    
a'8    a'4  }     \bar "|"   |
 a''4    e''8    a''8    b''8    a''8    a''4  \bar "|"   g''4    d''8    g''8  
  b''8    g''8    g''4    \bar "|"   a''8    g''8    e''8    d''8    c''8    
d''8    e''8    d''8    \bar "|"   c''8    a'8    b'8    g'8    e'8    a'8    
a'4    \bar "|"     \bar "|"   a''4    e''8    a''8    b''8    a''8    a''4    
\bar "|"   g''4.    e''8    d''8    b'8    g'8    b'8    \bar "|"   a'4    
\tuplet 3/2 {   b'8    c''8    d''8  }   e''8    a''8    a''8    fis''8    
\bar "|"   g''8    e''8    d''8    b'8    e''8    a'8    a'4  }   
}

\score{
    <<

	\context Staff="default"
	{
	    \voicedefault 
	}

    >>
	\layout {
	}
	\midi {}
}
