\version "2.19.49"
% clairnote-type = sn
\include "clairnote.ly"
\header {
	transcription = "garym"
	crossRefNumber = "1"
	footnotes = ""
	meter = "Hornpipe"
	source = "https://thesession.org/tunes/83#setting12582"
	arranger = "Setting 2"
	tagline = \markup { \vspace #1.8 \sans \abs-fontsize #7.5 \wordwrap {Sheet music in \with-url \clairnoteTypeUrl { \clairnoteTypeName music notation} published by Paul Morris using \with-url #"http://www.lilypond.org" {LilyPond.} Automatically converted to LilyPond format from an ABC source file from \with-url #"https://thesession.org" {the Session} website: \with-url #"https://thesession.org/tunes/83#setting12582" {"https://thesession.org/tunes/83#setting12582"}}}
	title = "Rights Of Man, The"
}
voicedefault =  {
\set Score.defaultBarType = ""

\repeat volta 2 {
\time 4/4 \key e \minor   e''8    d''8    e''8    fis''8    g''8    fis''8    
g''8    a''8  \bar "|" \tuplet 3/2 {   b''8    a''8    g''8  }   \tuplet 3/2 {   
a''8    g''8    fis''8  }   g''8    fis''8    e''8    d''8  \bar "|"   g''8    
fis''8    e''8    d''8    b'8    g''8    fis''8    g''8  \bar "|"   e''4    e'4 
   e'4  }   
}

\score{
    <<

	\context Staff="default"
	{
	    \voicedefault 
	}

    >>
	\layout {
	}
	\midi {}
}
