\version "2.19.49"
% clairnote-type = sn
\include "clairnote.ly"
\header {
	transcription = "ceolachan"
	crossRefNumber = "1"
	footnotes = ""
	meter = "Hornpipe"
	source = "https://thesession.org/tunes/83#setting24377"
	arranger = "Setting 7"
	tagline = \markup { \vspace #1.8 \sans \abs-fontsize #7.5 \wordwrap {Sheet music in \with-url \clairnoteTypeUrl { \clairnoteTypeName music notation} published by Paul Morris using \with-url #"http://www.lilypond.org" {LilyPond.} Automatically converted to LilyPond format from an ABC source file from \with-url #"https://thesession.org" {the Session} website: \with-url #"https://thesession.org/tunes/83#setting24377" {"https://thesession.org/tunes/83#setting24377"}}}
	title = "Rights Of Man, The"
}
voicedefault =  {
\set Score.defaultBarType = ""

\time 4/4 \key e \minor   \repeat volta 2 {   g'8.    a'16    \bar "|" 
\tuplet 3/2 {   b'8    c''8    b'8  }   \tuplet 3/2 {   a'8    b'8    a'8  }   
g'8.    g'16    fis'8.    g'16    \bar "|"   e'8.    fis'16    g'8.    a'16    
b'4    e''8.    fis''16    \bar "|"   g''8.    fis''16    e''8.    d''16    
b'8.    d''16    g''8.    fis''16    \bar "|"   \tuplet 3/2 {   e''8    fis''8   
 e''8  }   \tuplet 3/2 {   d''8    c''8    b'8  }   a'4    g'8.    a'16    
\bar "|"     \tuplet 3/2 {   b'8    c''8    b'8  }   \tuplet 3/2 {   a'8    b'8   
 a'8  }   g'8.    a'16    fis'8.    g'16    \bar "|"   e'8.    fis'16    g'8.   
 a'16    b'4    e''8.    fis''16    \bar "|"   g''8.    fis''16    e''8.    
d''16    b'8.    d''16    g''8.    fis''16    \bar "|"   e''4    e'4    e'4    
}     \repeat volta 2 {   g''8.    a''16    \bar "|"   b''8.    g''16    b''8.  
  g''16    e''8.    fis''16    g''8.    a''16    \bar "|"   b''8.    g''16    
b''8.    g''16    e''8.    g''16    fis''8.    e''16    \bar "|"   d''8.    
c''16    d''8.    e''16    d''8.    e''16    fis''8.    g''16    \bar "|"   
a''8.    fis''16    a''8.    b''16    a''4    g''8.    fis''16    \bar "|"     
e''8.    e''16    e''8.    g''16    fis''8.    d''16    fis''8.    a''16    
\bar "|"   g''8.    fis''16    e''8.    d''16    b'4    e''8.    fis''16    
\bar "|"   g''8.    fis''16    e''8.    d''16    b'8.    d''16    g''8.    
fis''16    \bar "|"   e''4    e'4    e'4    }   
}

\score{
    <<

	\context Staff="default"
	{
	    \voicedefault 
	}

    >>
	\layout {
	}
	\midi {}
}
