\version "2.19.49"
% clairnote-type = sn
\include "clairnote.ly"
\header {
	transcription = "Robert Hickman"
	crossRefNumber = "1"
	footnotes = ""
	meter = "Hornpipe"
	source = "https://thesession.org/tunes/83#setting26702"
	arranger = "Setting 8"
	tagline = \markup { \vspace #1.8 \sans \abs-fontsize #7.5 \wordwrap {Sheet music in \with-url \clairnoteTypeUrl { \clairnoteTypeName music notation} published by Paul Morris using \with-url #"http://www.lilypond.org" {LilyPond.} Automatically converted to LilyPond format from an ABC source file from \with-url #"https://thesession.org" {the Session} website: \with-url #"https://thesession.org/tunes/83#setting26702" {"https://thesession.org/tunes/83#setting26702"}}}
	title = "Rights Of Man, The"
}
voicedefault =  {
\set Score.defaultBarType = ""

\time 4/4 \key e \minor   \repeat volta 2 {   g'8    a'8  \bar "|"   b'4    a'4 
   g'4    fis'4  \bar "|"   e'8    fis'8    g'8    a'8    b'4    e''8    fis''8 
 \bar "|"   g''8    fis''8    e''8    d''8    e''8    d''8    b'8    d''8  
\bar "|"   c''8    b'8    a'8    g'8    a'4    g'8    a'8  \bar "|"     b'8    
c''8    a'8    b'8    g'8    a'8    fis'8    g'8  \bar "|"   e'8    fis'8    
g'8    a'8    b'4    e''8    fis''8  \bar "|"   g''8    fis''8    e''8    d''8  
  b'8    g''8    fis''8    g''8  \bar "|"   e''4    e'4    e'4  }     
\repeat volta 2 {   g'8    a'8  \bar "|"   b'8    a'8    b'8    g'8    e'8    
fis'8    g'8    a'8  \bar "|"   b'8    a'8    b'8    g'8    e'8    g'8    fis'8 
   e'8  \bar "|"   d'8    cis'8    d'8    e'8    fis'8    e'8    fis'8    g'8  
\bar "|"   a'8    fis'8    d'8    fis'8    a'4    g'8    fis'8  \bar "|"     
e'8    d'8    e'8    fis'8    g'8    fis'8    g'8    a'8  \bar "|"   b'8    g'8 
   a'8    fis'8    g'8    fis'8    e'8    fis'8  \bar "|"   g'8    fis'8    e'8 
   d'8    b'8    g'8    fis'8    g'8  \bar "|"   e''4    e'4    e'4  }   
}

\score{
    <<

	\context Staff="default"
	{
	    \voicedefault 
	}

    >>
	\layout {
	}
	\midi {}
}
