\version "2.19.49"
% clairnote-type = sn
\include "clairnote.ly"
\header {
	transcription = "Kilcash"
	crossRefNumber = "1"
	footnotes = ""
	meter = "Reel"
	source = "https://thesession.org/tunes/249#setting12968"
	arranger = "Setting 5"
	tagline = \markup { \vspace #1.8 \sans \abs-fontsize #7.5 \wordwrap {Sheet music in \with-url \clairnoteTypeUrl { \clairnoteTypeName music notation} published by Paul Morris using \with-url #"http://www.lilypond.org" {LilyPond.} Automatically converted to LilyPond format from an ABC source file from \with-url #"https://thesession.org" {the Session} website: \with-url #"https://thesession.org/tunes/249#setting12968" {"https://thesession.org/tunes/249#setting12968"}}}
	title = "Road To Lisdoonvarna, The"
}
voicedefault =  {
\set Score.defaultBarType = ""

\time 4/4 \key d \mixolydian   d'8    a'8    a'8    g'8    a'8    b'8    c''8   
 a'8  \bar "|"   g'4    a'8    g'8    e'8    fis'8    g'8    e'8  \bar "|"   
d'8    a'8    a'8    g'8    a'8    b'8    c''8    a'8  \bar "|"   b'4 ^"~"    
a'8    g'8    fis'8    d'8    d'4  \bar "|"   d'4    a'8    g'8    a'8    b'8   
 c''8    a'8  \bar "|"   g'8    c''8    a'8    g'8    e'8    fis'8    g'8    
e'8  \bar "|"   d'4    a'8    g'8    a'8    b'8    c''8    a'8  \bar "|"   b'8  
  d''8    a'8    g'8    fis'8    d'8    d'4  \bar "|"   d''8    e''8    fis''8  
  d''8    c''8    a'4. ^"~"  \bar "|"   b'4    g'8    b'8    c''8    a'4. ^"~"  
\bar "|"   d''8    e''8    fis''8    d''8    c''8    a'4. ^"~"  \bar "|"   b'4 
^"~"    a'8    g'8    fis'8    d'8    d'4  \bar "|"   d''8    e''8    fis''8    
d''8    c''8    a'4. ^"~"  \bar "|"   b'8    d'8    g'8    b'8    c''8    a'8   
 a'4  \bar "|"   d''8    e''8    fis''8    d''8    c''8    a'4. ^"~"  \bar "|"  
 b'8    d''8    a'8    g'8    fis'8    d'8    d'4  \bar "|"   
}

\score{
    <<

	\context Staff="default"
	{
	    \voicedefault 
	}

    >>
	\layout {
	}
	\midi {}
}
