\version "2.19.49"
% clairnote-type = sn
\include "clairnote.ly"
\header {
	transcription = "ceolachan"
	crossRefNumber = "1"
	footnotes = ""
	meter = "Slip Jig"
	source = "https://thesession.org/tunes/593#setting13600"
	arranger = "Setting 4"
	tagline = \markup { \vspace #1.8 \sans \abs-fontsize #7.5 \wordwrap {Sheet music in \with-url \clairnoteTypeUrl { \clairnoteTypeName music notation} published by Paul Morris using \with-url #"http://www.lilypond.org" {LilyPond.} Automatically converted to LilyPond format from an ABC source file from \with-url #"https://thesession.org" {the Session} website: \with-url #"https://thesession.org/tunes/593#setting13600" {"https://thesession.org/tunes/593#setting13600"}}}
	title = "Rocky Road To Dublin, The"
}
voicedefault =  {
\set Score.defaultBarType = ""

\time 9/8 \key a \dorian   \repeat volta 2 {   e''4    a''8    a''4    g''8    
a''4    g''8    \bar "|"   e''4    a''8    a''4.    g''4    e''8    \bar "|"   }
}

\score{
    <<

	\context Staff="default"
	{
	    \voicedefault 
	}

    >>
	\layout {
	}
	\midi {}
}
