\version "2.19.49"
% clairnote-type = sn
\include "clairnote.ly"
\header {
	transcription = "barney morgan"
	crossRefNumber = "1"
	footnotes = ""
	meter = "Reel"
	source = "https://thesession.org/tunes/550#setting550"
	arranger = "Setting 1"
	tagline = \markup { \vspace #1.8 \sans \abs-fontsize #7.5 \wordwrap {Sheet music in \with-url \clairnoteTypeUrl { \clairnoteTypeName music notation} published by Paul Morris using \with-url #"http://www.lilypond.org" {LilyPond.} Automatically converted to LilyPond format from an ABC source file from \with-url #"https://thesession.org" {the Session} website: \with-url #"https://thesession.org/tunes/550#setting550" {"https://thesession.org/tunes/550#setting550"}}}
	title = "Rodney Miller's"
}
voicedefault =  {
\set Score.defaultBarType = ""

\time 4/4 \key a \mixolydian   b'8    fis'8    fis'4    b'8    fis'8    d''8    
fis'8    \bar "|"   b'8    fis'8    fis'4    b'8    d''8    cis''8    a'8    
\bar "|"   b'8    fis'8    fis'4    b'4.    cis''8    \bar "|"   d''8    fis''8 
   b''8    fis''8    a''8    fis''8    e''8    cis''8    \bar "|"     b'8    
fis'8    fis'4    b'8    fis'8    d''8    fis'8    \bar "|"   b'8    fis'8    
fis'4    b'8    d''8    cis''8    a'8    \bar "|"   b'4.    cis''8    d''8    
fis''8    b''8    fis''8    \bar "|"   a''8    fis''8    e''8    cis''8    b'8  
  e'8    fis'8    gis'8    \bar "||"     a'4.    fis''8    e''8    cis''8    
b'8    a'8    \bar "|"   e'8    fis'8    a'8    cis''8    d''8    e'8    fis'8  
  gis'8    \bar "|"   a'4    fis''8    a'8    e''8    cis''8    a'8    cis''8   
 \bar "|"   d''8    cis''8    d''8    b''8    a''8    fis''8    e''8    cis''8  
  \bar "|"     a'4.    fis''8    e''8    cis''8    b'8    a'8    \bar "|"   e'8 
   fis'8    a'8    cis''8    b'4.    cis''8    \bar "|"   d''4.    e''8    
fis''8    a''8    gis''8    b''8    \bar "|"   a''8    fis''8    e''8    cis''8 
   b'4    cis''8    a'8    \bar "|."   
}

\score{
    <<

	\context Staff="default"
	{
	    \voicedefault 
	}

    >>
	\layout {
	}
	\midi {}
}
