\version "2.19.49"
% clairnote-type = sn
\include "clairnote.ly"
\header {
	transcription = "ausnein"
	crossRefNumber = "1"
	footnotes = ""
	meter = "Reel"
	source = "https://thesession.org/tunes/500#setting21580"
	arranger = "Setting 6"
	tagline = \markup { \vspace #1.8 \sans \abs-fontsize #7.5 \wordwrap {Sheet music in \with-url \clairnoteTypeUrl { \clairnoteTypeName music notation} published by Paul Morris using \with-url #"http://www.lilypond.org" {LilyPond.} Automatically converted to LilyPond format from an ABC source file from \with-url #"https://thesession.org" {the Session} website: \with-url #"https://thesession.org/tunes/500#setting21580" {"https://thesession.org/tunes/500#setting21580"}}}
	title = "Rolling In The Barrel"
}
voicedefault =  {
\set Score.defaultBarType = ""

\time 4/4 \key d \major   d'8  \repeat volta 2 {   e'4 ^"e"   e'4 ^"~"    b'8   
 e'8    e'4  \bar "|"   b'4    a'8    fis'8      d'8 ^"D"   fis'8    a'8    
fis'8  \bar "|"   e'4 ^"e"   e'4 ^"~"    b'8    e'8    e'4  \bar "|"   b'4 ^"D" 
  a'8    d''8    b'8    e'8    e'8    d'8  \bar "|"       e'4 ^"e"   e'4 ^"~"   
 b'8    e'8    e'4  \bar "|"   b'8    d''8    a'8    fis'8      d'8 ^"D"   
fis'8    a'8    fis'8  \bar "|"   e'4    e'4 ^"~"    b'8    e'8    e'4  
\bar "|"   b'8    d''8    a'8    d''8      b'8 ^"e"   e'8    e'8    d''8  
\bar "|"     e''4    fis''8    e''8    b''8    e''8    fis''8    e''8    
\bar "|"   d''4 ^"D"   d''8    fis''8    a''4    a''8    fis''8  \bar "|"   
e''4 ^"e"   fis''8    e''8    b''8    e''8    fis''8    e''8  \bar "|"   d''8 
^"D"   b'8    a'8    fis'8      fis'8 ^"e"   e'8    e'8    d''8  \bar "|"     
e''4    fis''8    e''8    b''8    e''8    fis''8    e''8    \bar "|"   d''4 
^"D"   d''8    fis''8    a''4    a''8    fis''8  \bar "|"   e''8 ^"e" \grace {  
  fis''8  }   g''8    fis''8    e''8      fis''8 ^"D"   d''8    e''8    cis''8  
\bar "|"   d''8    b'8    a'8    fis'8      fis'8 ^"e"   e'8    e'8    d'8  }   
}

\score{
    <<

	\context Staff="default"
	{
	    \voicedefault 
	}

    >>
	\layout {
	}
	\midi {}
}
