\version "2.19.49"
% clairnote-type = sn
\include "clairnote.ly"
\header {
	transcription = "mrkelahan"
	crossRefNumber = "1"
	footnotes = ""
	meter = "Reel"
	source = "https://thesession.org/tunes/87#setting22636"
	arranger = "Setting 12"
	tagline = \markup { \vspace #1.8 \sans \abs-fontsize #7.5 \wordwrap {Sheet music in \with-url \clairnoteTypeUrl { \clairnoteTypeName music notation} published by Paul Morris using \with-url #"http://www.lilypond.org" {LilyPond.} Automatically converted to LilyPond format from an ABC source file from \with-url #"https://thesession.org" {the Session} website: \with-url #"https://thesession.org/tunes/87#setting22636" {"https://thesession.org/tunes/87#setting22636"}}}
	title = "Rolling In The Ryegrass"
}
voicedefault =  {
\set Score.defaultBarType = ""

\time 4/4 \key g \major   \bar "||"   d''4    d''8    e''8    d''8    b'8    
g'8    b'8  \bar "|"   c''4    e''8    c''8    g''8    c''8    e''8    c''8  
\bar "|"   d''8    e''8    d''8    b'8    g'8    b'8    d''8    b'8  \bar "|"   
c''8    e''8    d''8    c''8    a'4    g'4  \bar "|"     d''8    e''8    d''8   
 b'8    g'8    b'8    d''8    b'8  \bar "|"   c''4    e''8    c''8    g''8    
c''8    e''8    c''8  \bar "|"   d''4    d''8    e''8    d''8    b'8    g'8    
b'8  \bar "|"   c''8    e''8    d''8    c''8    a'4    g'8    e'8  \bar "||"    
 \repeat volta 2 {   d'8    e'8    g'8    a'8    b'4    b'8    g'8  \bar "|"   
c''4    c''8    a'8    b'8    a'8    g'8    e'8  \bar "|"   d'8    e'8    g'8   
 a'8    b'8    g'8    b'8    d''8  \bar "|"   c''8    b'8    g'8    b'8    a'4  
  g'4  }   
}

\score{
    <<

	\context Staff="default"
	{
	    \voicedefault 
	}

    >>
	\layout {
	}
	\midi {}
}
