\version "2.19.49"
% clairnote-type = sn
\include "clairnote.ly"
\header {
	transcription = "JACKB"
	crossRefNumber = "1"
	footnotes = ""
	meter = "Jig"
	source = "https://thesession.org/tunes/515#setting25968"
	arranger = "Setting 2"
	tagline = \markup { \vspace #1.8 \sans \abs-fontsize #7.5 \wordwrap {Sheet music in \with-url \clairnoteTypeUrl { \clairnoteTypeName music notation} published by Paul Morris using \with-url #"http://www.lilypond.org" {LilyPond.} Automatically converted to LilyPond format from an ABC source file from \with-url #"https://thesession.org" {the Session} website: \with-url #"https://thesession.org/tunes/515#setting25968" {"https://thesession.org/tunes/515#setting25968"}}}
	title = "Rolling Waves, The"
}
voicedefault =  {
\set Score.defaultBarType = ""

\time 6/8 \key d \major   \repeat volta 2 {   fis'4    e'8    e'8    d'8    e'8 
 \bar "|"   fis'4    d'8    d'4.  \bar "|"   fis'4    e'8    e'8    fis'8    
a'8  \bar "|"   d''4.    fis''8    d''8    a'8  \bar "|"     \bar "|"   fis'4   
 e'8    e'8    d'8    e'8  \bar "|"   fis'4    d'8    d'4.  \bar "|"   a'8    
fis'8    e'8    e'8    fis'8    a'8  \bar "|"   b'4.    d''4.  }     
\repeat volta 2 {   a'8    b'8    d''8    e''4    fis''8  \bar "|"   d''4    
a'8    b'4    a'8  \bar "|"   a'8    b'8    d''8    e''4    fis''8  \bar "|"   
d''4    a'8    b'4.  \bar "|"     \bar "|"   a'8    b'8    d''8    e''8    d''8 
   e''8  \bar "|"   fis''8    d''8    b'8    b'8    a'8    fis'8  \bar "|"   
a'8    fis'8    e'8    e'8    fis'8    a'8  } \alternative{{   b'4.    d''4.  
} {   d''4.    fis''8    d''8    a'8  \bar "||"   }}
}

\score{
    <<

	\context Staff="default"
	{
	    \voicedefault 
	}

    >>
	\layout {
	}
	\midi {}
}
