\version "2.19.49"
% clairnote-type = sn
\include "clairnote.ly"
\header {
	transcription = "gian marco"
	crossRefNumber = "1"
	footnotes = ""
	meter = "Reel"
	source = "https://thesession.org/tunes/500#setting30069"
	arranger = "Setting 10"
	tagline = \markup { \vspace #1.8 \sans \abs-fontsize #7.5 \wordwrap {Sheet music in \with-url \clairnoteTypeUrl { \clairnoteTypeName music notation} published by Paul Morris using \with-url #"http://www.lilypond.org" {LilyPond.} Automatically converted to LilyPond format from an ABC source file from \with-url #"https://thesession.org" {the Session} website: \with-url #"https://thesession.org/tunes/500#setting30069" {"https://thesession.org/tunes/500#setting30069"}}}
	title = "Rolling In The Barrel"
}
voicedefault =  {
\set Score.defaultBarType = ""

\repeat volta 2 {
\time 4/4 \key a \dorian   a'4    a'4 ^"~"    e''8    a'8    a'4 ^"~"  \bar "|" 
  e''4    d''8    b'8    g'8    a'8    b'8    g'8  \bar "|"   a'4    a'4 ^"~"   
 e''8    a'8    a'4 ^"~"  \bar "|"   e''4    d''8    b'8    e''8    a'8    a'8  
  g'8  }     a'4    c''8    a'8    e''8    a'8    c''8    a'8  \bar "|"   g'8   
 fis'8    g'8    b'8    d''4    b'8    g'8  \bar "|"   a'4    c''16    b'16    
a'8    e''8    a'8    c''8    a'8  \bar "|"   g'8    e'8    d'8    g'8    e'8   
 a'8    a'8    g'8  \bar "|"     a'4    c''8    a'8    e''8    a'8    c''8    
a'8  \bar "|"   g'8    fis'8    g'8    b'8    d''4    d''8    b'8  \bar "|"   
a'8    b'8    c''16    b'16    a'8    b'8    c''8    b'8    a'8  \bar "|"   g'8 
   e'8    d'8    b'8    e''8    b'8    d''8    b'8    a'2  \bar "|"   
}

\score{
    <<

	\context Staff="default"
	{
	    \voicedefault 
	}

    >>
	\layout {
	}
	\midi {}
}
