\version "2.19.49"
% clairnote-type = sn
\include "clairnote.ly"
\header {
	transcription = "Dr. Dow"
	crossRefNumber = "1"
	footnotes = ""
	meter = "Reel"
	source = "https://thesession.org/tunes/99#setting12658"
	arranger = "Setting 3"
	tagline = \markup { \vspace #1.8 \sans \abs-fontsize #7.5 \wordwrap {Sheet music in \with-url \clairnoteTypeUrl { \clairnoteTypeName music notation} published by Paul Morris using \with-url #"http://www.lilypond.org" {LilyPond.} Automatically converted to LilyPond format from an ABC source file from \with-url #"https://thesession.org" {the Session} website: \with-url #"https://thesession.org/tunes/99#setting12658" {"https://thesession.org/tunes/99#setting12658"}}}
	title = "Salamanca, The"
}
voicedefault =  {
\set Score.defaultBarType = ""

\time 4/4 \key d \major   fis''8    g''8  \bar "|"   a''8    fis''8    d''8    
g''8    b''8    g''8    e''8    g''8  \bar "|"   fis''8    d''8    \tuplet 3/2 { 
  d''8    cis''8    d''8  }   b'8    a'8    fis'8    g'8  \bar "|"   a'8    
d''8    d''8    cis''8    d''8    e''8    fis''8    g''8  \bar "|" \tuplet 3/2 { 
  a''8    b''8    a''8  }   gis''8    b''8    a''4  \bar "|"   
}

\score{
    <<

	\context Staff="default"
	{
	    \voicedefault 
	}

    >>
	\layout {
	}
	\midi {}
}
