\version "2.19.49"
% clairnote-type = sn
\include "clairnote.ly"
\header {
	transcription = "Dafydd Monks"
	crossRefNumber = "1"
	footnotes = ""
	meter = "Jig"
	source = "https://thesession.org/tunes/1227#setting1227"
	arranger = "Setting 1"
	tagline = \markup { \vspace #1.8 \sans \abs-fontsize #7.5 \wordwrap {Sheet music in \with-url \clairnoteTypeUrl { \clairnoteTypeName music notation} published by Paul Morris using \with-url #"http://www.lilypond.org" {LilyPond.} Automatically converted to LilyPond format from an ABC source file from \with-url #"https://thesession.org" {the Session} website: \with-url #"https://thesession.org/tunes/1227#setting1227" {"https://thesession.org/tunes/1227#setting1227"}}}
	title = "Sawdl Y Fuwch"
}
voicedefault =  {
\set Score.defaultBarType = ""

\time 6/8 \key d \major   a'8    \repeat volta 2 {   d''4    d''8    a'4    a'8 
   \bar "|"   fis'8    a'4     ~    a'4    a'8    \bar "|"   d''4    d''8    
fis'4    g'8    \bar "|"   a'4.     ~    a'4    g'8    \bar "|"     d''4    
d''8    b'8    cis''8    d''8    \bar "|"   a'4    d''8    e''4    e''8    
\bar "|"   d''2     ~    d''4    \bar "|"   cis''8    d''8    r2   \bar "|"     
e''4    e''8    cis''4    d''8    \bar "|"   e''4     ~    e''4    d''8    e''8 
   \bar "|"   fis''4    fis''8    d''4    e''8    \bar "|"   fis''4     ~    
fis''4    fis''8    e''8    \bar "|"     d''8    cis''8    b'8    a'4    a'8    
\bar "|"   b'8    a'8    g'8    fis'4    a'8    \bar "|"   b'8    cis''8    
d''8    e''4    cis''8    \bar "|"   d''4.     ~    d''4.    \bar "|"     d''8  
  d''4    cis''8    d''8    e''8    \bar "|"   fis''8    e''8    e''8    cis''8 
   b'4    \bar "|"   a'8    d''4    fis''8    e''8    cis''8    \bar "|"   b'4. 
   a'4    a'8    \bar "|"     d''8    cis''8    b'8    a'4    a'8    \bar "|"   
b'8    a'8    g'8    fis'4    a'8    \bar "|"   b'8    cis''8    d''8    e''4   
 cis''8    \bar "|"   d''4.     ~    d''4    }   
}

\score{
    <<

	\context Staff="default"
	{
	    \voicedefault 
	}

    >>
	\layout {
	}
	\midi {}
}
