\version "2.19.49"
% clairnote-type = sn
\include "clairnote.ly"
\header {
	transcription = "ceolachan"
	crossRefNumber = "1"
	footnotes = ""
	meter = "Jig"
	source = "https://thesession.org/tunes/95#setting23671"
	arranger = "Setting 4"
	tagline = \markup { \vspace #1.8 \sans \abs-fontsize #7.5 \wordwrap {Sheet music in \with-url \clairnoteTypeUrl { \clairnoteTypeName music notation} published by Paul Morris using \with-url #"http://www.lilypond.org" {LilyPond.} Automatically converted to LilyPond format from an ABC source file from \with-url #"https://thesession.org" {the Session} website: \with-url #"https://thesession.org/tunes/95#setting23671" {"https://thesession.org/tunes/95#setting23671"}}}
	title = "Scarce O' Tatties"
}
voicedefault =  {
\set Score.defaultBarType = ""

\time 6/8 \key a \mixolydian   \repeat volta 2 {   gis'8    \bar "|"   a'8    
cis''8    e''8    e''8    fis''8    g''8    \bar "|"   e''8    d''8    b'8    
d''4    g'8    \bar "|"   a'8    cis''8    e''8    g''8    fis''8    e''8    
\bar "|"   d''8    b'8    g'8    a'4    e''8    \bar "|"     a''8    gis''8    
a''8    g''!8    a''8    g''8    \bar "|"   fis''16    g''16    a''8    fis''8  
  e''8    cis''8    a'8    \bar "|"   a'8    cis''16    d''16    e''8    g''8   
 fis''8    e''8    \bar "|"   d''8    b'8    g'8    a'4    }     
\repeat volta 2 {   a''8    \bar "|"   a''8    e''8    g''8    a''4    fis''8   
 \bar "|"   g''4    fis''8    e''8    cis''8    a'8    \bar "|"   a''8    e''8  
  b''8    a''4    fis''8    \bar "|"   g''4    fis''8    e''4    cis''8    
\bar "|"     e''8    a'8    e''8    a'8    cis''8    e''8    \bar "|"   d''4    
fis''8    fis''4    e''8    \bar "|"   a'8    cis''8    e''8    g''4    e''8    
\bar "|"   d''8    b'16    a'16    g'8    a'4    }   
}

\score{
    <<

	\context Staff="default"
	{
	    \voicedefault 
	}

    >>
	\layout {
	}
	\midi {}
}
