\version "2.19.49"
% clairnote-type = sn
\include "clairnote.ly"
\header {
	transcription = "bagpie"
	crossRefNumber = "1"
	footnotes = ""
	meter = "Jig"
	source = "https://thesession.org/tunes/95#setting25222"
	arranger = "Setting 5"
	tagline = \markup { \vspace #1.8 \sans \abs-fontsize #7.5 \wordwrap {Sheet music in \with-url \clairnoteTypeUrl { \clairnoteTypeName music notation} published by Paul Morris using \with-url #"http://www.lilypond.org" {LilyPond.} Automatically converted to LilyPond format from an ABC source file from \with-url #"https://thesession.org" {the Session} website: \with-url #"https://thesession.org/tunes/95#setting25222" {"https://thesession.org/tunes/95#setting25222"}}}
	title = "Scarce O' Tatties"
}
voicedefault =  {
\set Score.defaultBarType = ""

\time 6/8 \key a \dorian   e''8    \repeat volta 2 {   a'8.    e''16    e''8    
e''8.    fis''16    g''8    \bar "|"   e''8.    d''16    b'8    d''8.    b'16   
 g'8    \bar "|"   a'8.    e''16    e''8    e''8.    fis''16    g''8    
\bar "|"   e''8.    d''16    b'8    a'4    e''8    \bar "|"     a''4    a''8    
g''8.    a''16    g''8    \bar "|"   fis''8.    g''16    fis''8    e''8.    
a'16    a'8    \bar "|"   a'8.    e''16    e''8    e''8.    fis''16    g''8    
\bar "|"   e''8.    d''16    b'8    a'4    e''8    }     \repeat volta 2 {   
a''8.    e''16    g''8    a''4    fis''8    \bar "|"   g''4    fis''8    e''8.  
  a'16    a'8    \bar "|"   a''8.    e''16    g''8    a''4    fis''8    
\bar "|"   g''8.    fis''16    g''8    e''8.    e''16    e''8    \bar "|"     
e''8.    d''16    e''8    a'8.    a'16    a'8    \bar "|"   d''8.    e''16    
fis''8    fis''8.    e''16    d''8    \bar "|"   a'8.    e''16    e''8    e''8. 
   fis''16    g''8    \bar "|"   e''8.    d''16    b'8    a'4    e''8    }   
}

\score{
    <<

	\context Staff="default"
	{
	    \voicedefault 
	}

    >>
	\layout {
	}
	\midi {}
}
