\version "2.19.49"
% clairnote-type = sn
\include "clairnote.ly"
\header {
	transcription = "Weejie"
	crossRefNumber = "1"
	footnotes = ""
	meter = "Jig"
	source = "https://thesession.org/tunes/235#setting21798"
	arranger = "Setting 3"
	tagline = \markup { \vspace #1.8 \sans \abs-fontsize #7.5 \wordwrap {Sheet music in \with-url \clairnoteTypeUrl { \clairnoteTypeName music notation} published by Paul Morris using \with-url #"http://www.lilypond.org" {LilyPond.} Automatically converted to LilyPond format from an ABC source file from \with-url #"https://thesession.org" {the Session} website: \with-url #"https://thesession.org/tunes/235#setting21798" {"https://thesession.org/tunes/235#setting21798"}}}
	title = "Sean Bui"
}
voicedefault =  {
\set Score.defaultBarType = ""

\time 6/8 \key d \major   d'8  \bar "|"   d'8    fis'8    a'8    a'8    fis'8   
 a'8  \bar "|"   b'8    g'8    b'8    a'4    fis'8  \bar "|"   d'8    fis'8    
a'8    a'8    fis'8    a'8  \bar "|"   b'4    cis''8    d''4    d'8  \bar "|"   
  d'8    fis'8    a'8    a'8    fis'8    a'8  \bar "|"   b'8    g'8    b'8    
a'4    b'16 (   cis''16  -) \bar "|"   d''8    fis''8    d''8    e''8    cis''8 
   a'8  \bar "|"   b'4    cis''8    d''4  \bar "||"     e''8  \bar "|"   fis''8 
   d''8    fis''8    e''8    cis''8    e''8  \bar "|"   d''8    cis''8    b'8   
 a'4    d''16 (   e''16  -) \bar "|"   fis''8    d''8    fis''8    e''8    
cis''8    a'8  \bar "|"   b'4    cis''8    d''4    e''8  \bar "|"     fis''8    
d''8    fis''8    e''8    cis''8    e''8  \bar "|"   d''8    cis''8    b'8    
a'4    fis'8  \bar "|"   d'8    fis'8    a'8    a'8    fis'8    a'8  \bar "|"   
b'4    cis''8    d''4  \bar "||"     r8 \bar "|"   d''4.    cis''4.  \bar "|"   
b'8    cis''8    b'8    a'4    r8 \bar "|"   d'8    fis'8    a'8    a'8    
fis'8    a'8  \bar "|"   b'4    cis''8    d''4.  \bar "|"     d''8    b'8    
d''8    cis''8    a'8    cis''8  \bar "|"   b'8    g'8    b'8    a'4    b'16 (  
 cis''16  -) \bar "|"   d''8    e''8    fis''8    e''8    cis''8    a'8  
\bar "|"   b'4    cis''8    d''4  \bar "|."   
}

\score{
    <<

	\context Staff="default"
	{
	    \voicedefault 
	}

    >>
	\layout {
	}
	\midi {}
}
