\version "2.19.49"
% clairnote-type = sn
\include "clairnote.ly"
\header {
	transcription = "fidicen"
	crossRefNumber = "1"
	footnotes = ""
	meter = "Barndance"
	source = "https://thesession.org/tunes/1307#setting14621"
	arranger = "Setting 2"
	tagline = \markup { \vspace #1.8 \sans \abs-fontsize #7.5 \wordwrap {Sheet music in \with-url \clairnoteTypeUrl { \clairnoteTypeName music notation} published by Paul Morris using \with-url #"http://www.lilypond.org" {LilyPond.} Automatically converted to LilyPond format from an ABC source file from \with-url #"https://thesession.org" {the Session} website: \with-url #"https://thesession.org/tunes/1307#setting14621" {"https://thesession.org/tunes/1307#setting14621"}}}
	title = "Seven Step, The"
}
voicedefault =  {
\set Score.defaultBarType = ""

\time 4/4 \key g \major   \repeat volta 2 {   a'2    a'2  \bar "|"   a'8    b'8 
   c''8    a'8    fis'4    e'4  \bar "|"   c''2    c''2  \bar "|"   c''8    
d''8    e''8    c''8    b'4.    b'8  \bar "|"   c''8    d''8    e''8    c''8    
b'4    a'4  \bar "|"   a'8    b'8    c''8    a'8    fis'4    e'4  \bar "|"   
e'8    fis'8    a'8    b'8    c''8    e''8    e''8    c''8  \bar "|"   b'4    
a'4    a'2  }   \repeat volta 2 {   |
 c''8    d''8    e''8    c''8    b'4    a'4  \bar "|"   a'8    b'8    c''8    
a'8    fis'4    e'4  \bar "|"   e'8    fis'8    a'8    b'8    c''8    e''8    
e''8    c''8  \bar "|"   c''4    b'4    b'4.    b'8  \bar "|"   c''8    d''8    
e''8    c''8    b'4    a'4  \bar "|"   a'8    b'8    c''8    a'8    fis'4    
e'4  \bar "|"   e'8    fis'8    a'8    b'8    c''8    e''8    e''8    c''8  
\bar "|"   b'4    a'4    a'2  }   
}

\score{
    <<

	\context Staff="default"
	{
	    \voicedefault 
	}

    >>
	\layout {
	}
	\midi {}
}
