\version "2.19.49"
% clairnote-type = sn
\include "clairnote.ly"
\header {
	transcription = "ceolachan"
	crossRefNumber = "1"
	footnotes = ""
	meter = "Barndance"
	source = "https://thesession.org/tunes/1307#setting14626"
	arranger = "Setting 7"
	tagline = \markup { \vspace #1.8 \sans \abs-fontsize #7.5 \wordwrap {Sheet music in \with-url \clairnoteTypeUrl { \clairnoteTypeName music notation} published by Paul Morris using \with-url #"http://www.lilypond.org" {LilyPond.} Automatically converted to LilyPond format from an ABC source file from \with-url #"https://thesession.org" {the Session} website: \with-url #"https://thesession.org/tunes/1307#setting14626" {"https://thesession.org/tunes/1307#setting14626"}}}
	title = "Seven Step, The"
}
voicedefault =  {
\set Score.defaultBarType = ""

\time 4/4 \key g \major   \tuplet 3/2 {   d'8    e'8    fis'8  }   \bar "|"   
g'4      g'4 -.     g'4 -.     g'4 -.     \bar "|"   g'8. -.   a'16    b'8.    
g'16    \tuplet 3/2 {   e'8    fis'8    e'8  }   d'4    \bar "|"   b'4      b'4 
-.     b'4 -.     b'4 -.     \bar "|"   b'8. -.   c''16    d''8.    b'16    a'4 
   g'4    \bar "||"     b'8.    c''16    \tuplet 3/2 {   d''8    c''8    b'8  }  
 a'4    g'4    \bar "|"   g'8.    a'16    \tuplet 3/2 {   b'8    a'8    g'8  }   
e'4    d'4    \bar "|"   d'8.    e'16    g'8.    a'16    b'8.    d''16    
\tuplet 3/2 {   d''8    d''8    d''8  }   \bar "|"   b'4    a'4    a'2    
\bar "|"     b'8.    c''16    d''8.    b'16    g'4    g'4    \bar "|"   g'8.    
a'16    b'8.    g'16    e'4    e'4    \bar "|"   d'8.    e'16    g'8.    a'16   
 b'16    d''8.    d''8.    b'16    \bar "|"   a'4    g'4    g'4    \bar "|."   
}

\score{
    <<

	\context Staff="default"
	{
	    \voicedefault 
	}

    >>
	\layout {
	}
	\midi {}
}
