\version "2.19.49"
% clairnote-type = sn
\include "clairnote.ly"
\header {
	transcription = "ceolachan"
	crossRefNumber = "1"
	footnotes = ""
	meter = "Barndance"
	source = "https://thesession.org/tunes/1307#setting26734"
	arranger = "Setting 22"
	tagline = \markup { \vspace #1.8 \sans \abs-fontsize #7.5 \wordwrap {Sheet music in \with-url \clairnoteTypeUrl { \clairnoteTypeName music notation} published by Paul Morris using \with-url #"http://www.lilypond.org" {LilyPond.} Automatically converted to LilyPond format from an ABC source file from \with-url #"https://thesession.org" {the Session} website: \with-url #"https://thesession.org/tunes/1307#setting26734" {"https://thesession.org/tunes/1307#setting26734"}}}
	title = "Seven Step, The"
}
voicedefault =  {
\set Score.defaultBarType = ""

\time 4/4 \key d \major   \tuplet 3/2 {   a'8    b'8    cis''8  }   \bar "|"   
d''4      d''4 -.   d''4      d''4 -.   \bar "|"   cis''8.    d''16    e''8.    
fis''16    d''4      a'4 -.     \bar "|"   fis''4 -.     fis''4 -.   fis''4     
 fis''4 -.   \bar "|"   e''8.    fis''16    g''8.    fis''16    e''4      e''4 
-.   \bar "||"     fis''8.    g''16    a''8.    fis''16    d''4    d''4    
\bar "|"   e''8.    fis''16    g''8.    fis''16    e''4    e''4    \bar "|"   
e''8.    fis''16    e''8.    d''16    cis''8.    a'16    b'8.    cis''16    
\bar "|"   d''8.    e''16    fis''8.    g''16    a''4      a''8. -.   fis''16   
 \bar "|"     g''8.    a''16    b''8.    g''16    e''4    e''4    \bar "|"   
fis''8.    g''16    \tuplet 3/2 {   a''8    g''8    fis''8  }   d''4    d''4    
\bar "|"   e''8.    fis''16    e''8.    d''16    cis''8.    b''16    a''8.    
g''16    \bar "|"   fis''4    d''4    d''4      \bar "|."   
}

\score{
    <<

	\context Staff="default"
	{
	    \voicedefault 
	}

    >>
	\layout {
	}
	\midi {}
}
