\version "2.19.49"
% clairnote-type = sn
\include "clairnote.ly"
\header {
	transcription = "Fiddler3"
	crossRefNumber = "1"
	footnotes = ""
	meter = "Jig"
	source = "https://thesession.org/tunes/261#setting10591"
	arranger = "Setting 6"
	tagline = \markup { \vspace #1.8 \sans \abs-fontsize #7.5 \wordwrap {Sheet music in \with-url \clairnoteTypeUrl { \clairnoteTypeName music notation} published by Paul Morris using \with-url #"http://www.lilypond.org" {LilyPond.} Automatically converted to LilyPond format from an ABC source file from \with-url #"https://thesession.org" {the Session} website: \with-url #"https://thesession.org/tunes/261#setting10591" {"https://thesession.org/tunes/261#setting10591"}}}
	title = "Ships In Full Sail, The"
}
voicedefault =  {
\set Score.defaultBarType = ""

\time 6/8 \key a \major   \repeat volta 2 {   fis'8  \bar "|"   e'8    a'8    
a'8    cis''8    b'8    a'8  \bar "|"   e''8    a'8    a'8    cis''8    b'8    
a'8  \bar "|"   a''8    gis''8    a''8    e''8    cis''8    a'8  \bar "|"   b'8 
   d''8    cis''8    b'8    a'8    fis'8  \bar "|"     e'8    a'8    a'8    
cis''8    b'8    a'8  \bar "|"   e''8    a'8    a'8    cis''8    b'8    a'8  
\bar "|"   a''8    gis''8    a''8    e''8    cis''8    a'8  \bar "|"   b'8    
a'8    gis'8    a'4  }     \repeat volta 2 {   cis''8  \bar "|"   e''8    a''8  
  a''8    cis'''8    a''8    a''8  \bar "|"   b''8    a''8    b''8    cis'''8   
 a''8    a''8  \bar "|"   e''8    a''8    a''8    cis'''8    a''8    a''8  
\bar "|"   b''8    cis'''8    b''8    b''8    a''8    gis''8  \bar "|"     e''8 
   a''8    a''8    cis'''8    a''8    a''8  \bar "|"   b''8    a''8    b''8    
cis'''8    a''8    e''8  \bar "|"   fis''8    gis''8    a''8    e''8    cis''8  
  a'8  \bar "|"   b'8    a'8    gis'8    a'4  }   
}

\score{
    <<

	\context Staff="default"
	{
	    \voicedefault 
	}

    >>
	\layout {
	}
	\midi {}
}
