\version "2.19.49"
% clairnote-type = sn
\include "clairnote.ly"
\header {
	transcription = "dirk"
	crossRefNumber = "1"
	footnotes = ""
	meter = "Waltz"
	source = "https://thesession.org/tunes/449#setting449"
	arranger = "Setting 1"
	tagline = \markup { \vspace #1.8 \sans \abs-fontsize #7.5 \wordwrap {Sheet music in \with-url \clairnoteTypeUrl { \clairnoteTypeName music notation} published by Paul Morris using \with-url #"http://www.lilypond.org" {LilyPond.} Automatically converted to LilyPond format from an ABC source file from \with-url #"https://thesession.org" {the Session} website: \with-url #"https://thesession.org/tunes/449#setting449" {"https://thesession.org/tunes/449#setting449"}}}
	title = "Sí Beag Sí Mór"
}
voicedefault =  {
\set Score.defaultBarType = ""

\time 3/4 \key d \major   d''8    e''8    \repeat volta 2 {   fis''4.    e''8   
 d''4    \bar "|"   d''4    d''8    e''8    d''4    \bar "|"   b'2    a'4    
\bar "|"   fis'2    a'4    \bar "|"   b'8    a'8    b'8    cis''8    d''4    
\bar "|"   e''2    d''8    e''8  \bar "|"   fis''4    fis''4    e''4    
\bar "|"     d''2    fis''4    \bar "|"   b'2    e''4    \bar "|"   a'2    d''4 
   \bar "|"   fis'2    e'4    \bar "|"   d'2    e''4    \bar "|"   b'2    e''4  
  \bar "|"   a'2    d''8    cis''8    \bar "|"   d''2.    \bar "|"   d''2    
d''8    e''8    }     \repeat volta 2 {   fis''4    fis''8    e''8    d''4    
\bar "|"   e''8    d''8    e''8    fis''8    a''4    \bar "|"   b''2    a''4    
\bar "|"   fis''2    e''8    d''8    \bar "|"   e''2    a''4    \bar "|"   
fis''2    e''4    \bar "|"   d''2    b'4    \bar "|"   a'2    b'8    a'8    
\bar "|"     fis'2    e'4    \bar "|"   d'2    fis''4  \bar "|"   b'2    e''4   
 \bar "|"   a'2    a''4  \bar "|"   b''8    a''8    g''8    fis''8    e''8    
d''8    \bar "|"   e''2    d''8    cis''8    \bar "|"   d''2.    
} \alternative{{   d''2    d''8    e''8  } {   d''2.    \bar "||"   }}
}

\score{
    <<

	\context Staff="default"
	{
	    \voicedefault 
	}

    >>
	\layout {
	}
	\midi {}
}
