\version "2.19.49"
% clairnote-type = sn
\include "clairnote.ly"
\header {
	transcription = "Will Harmon"
	crossRefNumber = "1"
	footnotes = ""
	meter = "Reel"
	source = "https://thesession.org/tunes/352#setting352"
	arranger = "Setting 1"
	tagline = \markup { \vspace #1.8 \sans \abs-fontsize #7.5 \wordwrap {Sheet music in \with-url \clairnoteTypeUrl { \clairnoteTypeName music notation} published by Paul Morris using \with-url #"http://www.lilypond.org" {LilyPond.} Automatically converted to LilyPond format from an ABC source file from \with-url #"https://thesession.org" {the Session} website: \with-url #"https://thesession.org/tunes/352#setting352" {"https://thesession.org/tunes/352#setting352"}}}
	title = "Skidoo"
}
voicedefault =  {
\set Score.defaultBarType = ""

\time 4/4 \key e \minor   \bar "|"   e'8    b8    \tuplet 3/2 {   b8    b8    b8 
 }   g'4    a'8    b'8  \bar "|"   g'8    e'4. ^"~"    b'8    e'8    a'8    g'8 
 \bar "|"   fis'8    d''8    a'8    fis'8    d'4    b8    a8  \bar "|"   b8    
fis'8    e'8    d'8    e'8    b8    fis'8    b8  \bar "|"     \bar "|"   g'8    
e'4. ^"~"    b'8    e'8    a'8    b'8  \bar "|"   g'8    b'8    e''8    fis''8  
  g''8    fis''8    e''8    d''8  \bar "|"   d''8    a'8    d''8    e''8    
fis''4    fis''8    a''8  \bar "|"   fis''8    e''8    d''8    b'8    a'8    
d''8    b'8    a'8  \bar "|"     \bar "|"   g'8    e'4. ^"~"    b'8    e'8    
a'8    b'8  \bar "|"   g'8    b'8    a'8    b'8    g'8    b'8    a'8    g'8  
\bar "|"   fis'8    d''8    a'8    fis'8    d'4    b8    a8  \bar "|"   b8    
fis'8    e'8    d'8    e'8    b8    fis'8    b8  \bar "|"     \bar "|"   g'8    
e'4. ^"~"    b'8    e'8    a'8    b'8  \bar "|"   g'8    b'8    e''8    fis''8  
  g''8    fis''8    e''8    d''8  \bar "|"   d''8    a'8    d''8    e''8    
fis''4. ^"~"    a''8  \bar "|"   fis''8    e''8    d''8    b'8    a'8    d''8   
 e''8    fis''8  \bar "|"     \repeat volta 2 {   g''8    e''8    \tuplet 3/2 {  
 e''8    e''8    e''8  }   g''8    e''8    b'8    e''8  \bar "|"   g''8    e''8 
   b'8    e''8    c''8    e''8    d''8    c''8  \bar "|"   b'8    e'8    g'8    
a'8    b'8    e'8    g'8    a'8  \bar "|"   b'8    e'8    g'8    a'8    
\tuplet 3/2 {   b'8    cis''8    d''8  }   e''8    fis''8  \bar "|"     \bar "|" 
  e''4    e''8    d''8    e''8    b''8    b''8    a''8  \bar "|"   g''8    e''8 
   fis''8    e''8    e''8    a'8    a'8    b'8  \bar "|"   c''8    a'8    e'8   
 a'8    b'8    g'8    e'8    g'8  } \alternative{{   a'8    d'8    fis'8    d'8 
   b8    e'8    e''8    fis''8  } {   a'8    d'8    fis'8    d'8    b8    e'8   
 g'8    fis'8  \bar "|"   }}
}

\score{
    <<

	\context Staff="default"
	{
	    \voicedefault 
	}

    >>
	\layout {
	}
	\midi {}
}
