\version "2.19.49"
% clairnote-type = sn
\include "clairnote.ly"
\header {
	transcription = "Mark de Jong"
	crossRefNumber = "1"
	footnotes = ""
	meter = "Reel"
	source = "https://thesession.org/tunes/787#setting787"
	arranger = "Setting 1"
	tagline = \markup { \vspace #1.8 \sans \abs-fontsize #7.5 \wordwrap {Sheet music in \with-url \clairnoteTypeUrl { \clairnoteTypeName music notation} published by Paul Morris using \with-url #"http://www.lilypond.org" {LilyPond.} Automatically converted to LilyPond format from an ABC source file from \with-url #"https://thesession.org" {the Session} website: \with-url #"https://thesession.org/tunes/787#setting787" {"https://thesession.org/tunes/787#setting787"}}}
	title = "Sleepy Maggie"
}
voicedefault =  {
\set Score.defaultBarType = ""

\repeat volta 2 {
\time 4/4 \key b \minor   fis''4    b'8    b''8    fis''8    b'8    d''8    
e''8  \bar "|"   fis''4    b'8    a''8    e''8    a'8    cis''8    e''8  
\bar "|"   fis''4    b'8    b''8    fis''8    b'8    d''8    e''8  \bar "|"   
fis''8    gis''8    a''8    fis''8    e''8    a'8    cis''8    e''8  }     
fis''8    b'8    d''8    b'8    fis''8    b'8    d''8    e''8  \bar "|"   
fis''8    b'8    d''8    b'8    e''8    a'8    cis''8    e''8  \bar "|"   
fis''8    b'8    d''8    b'8    fis''8    b'8    d''8    e''8  \bar "|"   
fis''8    gis''8    a''8    fis''8    e''8    a'8    cis''8    e''8  \bar "|"   
  fis''8    b'8    d''8    b'8    fis''8    b'8    d''8    e''8  \bar "|"   
fis''8    b'8    d''8    b'8    e''8    a'8    cis''8    e''8  \bar "|"   
fis''8    b'8    b''8    b'8    a''8    b'8    gis''8    b'8  \bar "|"   fis''8 
   gis''8    a''8    fis''8    e''8    a'8    cis''8    e''8  \bar "|"   
}

\score{
    <<

	\context Staff="default"
	{
	    \voicedefault 
	}

    >>
	\layout {
	}
	\midi {}
}
