\version "2.19.49"
% clairnote-type = sn
\include "clairnote.ly"
\header {
	transcription = "ceolachan"
	crossRefNumber = "1"
	footnotes = ""
	meter = "Reel"
	source = "https://thesession.org/tunes/787#setting13922"
	arranger = "Setting 7"
	tagline = \markup { \vspace #1.8 \sans \abs-fontsize #7.5 \wordwrap {Sheet music in \with-url \clairnoteTypeUrl { \clairnoteTypeName music notation} published by Paul Morris using \with-url #"http://www.lilypond.org" {LilyPond.} Automatically converted to LilyPond format from an ABC source file from \with-url #"https://thesession.org" {the Session} website: \with-url #"https://thesession.org/tunes/787#setting13922" {"https://thesession.org/tunes/787#setting13922"}}}
	title = "Sleepy Maggie"
}
voicedefault =  {
\set Score.defaultBarType = ""

\time 4/4 \key b \minor   \repeat volta 2 {   fis''4    b'8    b''8    fis''8   
 e''8    cis''16    e''8.    \bar "|"   fis''4    a''4    cis''16    a'8.    
cis''16    e''8.    \bar "|"   fis''4    b'8    b''8    fis''8    e''8    
cis''16    e''8.    \bar "|"   fis''8.    g''16    a''8.    fis''16    e''16    
a'8.    cis''16    e''8.    }   \repeat volta 2 {   fis''8    b'8    b'4    
fis''8    b'8    cis''16    e''8.    \bar "|"   fis''8    b'8    b'4    cis''16 
   a'8.    cis''16    e''8.    \bar "|"   fis''8    b'8    b'4    fis''8    b'8 
   cis''16    e''8.    \bar "|"   fis''8.    g''16    a''8.    fis''16    e''16 
   a'8.    cis''16    e''8.    }   
}

\score{
    <<

	\context Staff="default"
	{
	    \voicedefault 
	}

    >>
	\layout {
	}
	\midi {}
}
