\version "2.19.49"
% clairnote-type = sn
\include "clairnote.ly"
\header {
	transcription = "MichaelBolton"
	crossRefNumber = "1"
	footnotes = ""
	meter = "Reel"
	source = "https://thesession.org/tunes/1101#setting1101"
	arranger = "Setting 1"
	tagline = \markup { \vspace #1.8 \sans \abs-fontsize #7.5 \wordwrap {Sheet music in \with-url \clairnoteTypeUrl { \clairnoteTypeName music notation} published by Paul Morris using \with-url #"http://www.lilypond.org" {LilyPond.} Automatically converted to LilyPond format from an ABC source file from \with-url #"https://thesession.org" {the Session} website: \with-url #"https://thesession.org/tunes/1101#setting1101" {"https://thesession.org/tunes/1101#setting1101"}}}
	title = "Sound Of Sleat, The"
}
voicedefault =  {
\set Score.defaultBarType = ""

\time 4/4 \key a \mixolydian   a'4    a'8    b'8    b'8    d''8    d''4  
\bar "|"   e''4    e''8    d''8    e''8    fis''8    fis''4  \bar "|"   a'4    
a'8    b'8    b'8    d''8    d''8    e''8  \bar "|"   fis''8    d''8    e''8    
d''8    b'4    a'4  \bar "|"     a'4    a'8    b'8    b'8    d''8    d''4  
\bar "|"   e''4    e''8    d''8    e''8    fis''8    fis''4  \bar "|"   a'4    
a'8    b'8    b'8    d''8    d''8    e''8  \bar "|"   fis''8    d''8    e''8    
d''8    b'4    a'4  \bar "||"     \bar "||"   fis''4    fis''8    e''8    
fis''8    a''8    a''4  \bar "|"   e''4    d''8    e''8    fis''8    d''8    
b'8    a'8  \bar "|"   fis''4    fis''8    e''8    fis''8    a''8    a''8    
e''8  \bar "|"   fis''8    d''8    e''8    d''8    b'4    a'4  \bar "|"     
fis''4    fis''8    e''8    fis''8    a''8    a''4  \bar "|"   e''4    d''8    
e''8    fis''8    d''8    b'8    a'8  \bar "|"   e''4    e''8    d''8    e''8   
 fis''8    fis''8    a''8  \bar "|"   fis''8    d''8    e''8    d''8    b'4    
a'4  \bar "||"     \bar "||"   a'4    a'8    g'8    b'4    b'8    a'8  \bar "|" 
  d''4    d''8    fis''8    e''8    d''8    e''8    fis''8  \bar "|"   a'4    
a'8    g'8    b'4    b'8    a'8  \bar "|"   fis''8    d''8    e''8    d''8    
b'4    a'4  \bar "|"     a'4    a'8    g'8    b'4    b'8    a'8  \bar "|"   
d''4    d''8    fis''8    e''8    d''8    e''8    fis''8  \bar "|"   a'4    a'8 
   g'8    b'4    b'8    a'8  \bar "|"   fis''8    d''8    e''8    d''8    b'4   
 a'4  \bar "||"     \bar "||"   a''4    fis''8    a''4    fis''8    a''4  
\bar "|"   e''4    d''8    e''8    fis''8    d''8    b'8    a'8  \bar "|"   
a''4    fis''8    a''4    fis''8    a''4  \bar "|"   fis''8    d''8    e''8    
d''8    b'4    a'4  \bar "|"     a''4    fis''8    a''4    fis''8    a''4  
\bar "|"   e''4    d''8    e''8    fis''8    d''8    b'8    a'8  \bar "|"   
d''4    d''8    fis''8    e''8    d''8    e''8    fis''8  \bar "|"   fis''8    
d''8    e''8    d''8    b'4    a'4  \bar "||"   
}

\score{
    <<

	\context Staff="default"
	{
	    \voicedefault 
	}

    >>
	\layout {
	}
	\midi {}
}
