\version "2.19.49"
% clairnote-type = sn
\include "clairnote.ly"
\header {
	transcription = "Njal"
	crossRefNumber = "1"
	footnotes = ""
	meter = "Reel"
	source = "https://thesession.org/tunes/1191#setting14475"
	arranger = "Setting 7"
	tagline = \markup { \vspace #1.8 \sans \abs-fontsize #7.5 \wordwrap {Sheet music in \with-url \clairnoteTypeUrl { \clairnoteTypeName music notation} published by Paul Morris using \with-url #"http://www.lilypond.org" {LilyPond.} Automatically converted to LilyPond format from an ABC source file from \with-url #"https://thesession.org" {the Session} website: \with-url #"https://thesession.org/tunes/1191#setting14475" {"https://thesession.org/tunes/1191#setting14475"}}}
	title = "Speed The Plough"
}
voicedefault =  {
\set Score.defaultBarType = ""

\time 4/4 \key g \major   \repeat volta 2 {   g'8    a'8    b'8    c''8    d''8 
   e''8    d''8    b'8  \bar "|"   d''8    e''8    d''8    b'8    d''8    e''8  
  d''8    b'8  \bar "|"   c''4    e''8    c''8    b'4    d''8    b'8  \bar "|"  
 c''4    a'4    a'4    b'8    a'8  \bar "|"   \bar "|"   g'8    a'8    b'8    
c''8    d''8    e''8    d''8    b'8  \bar "|"   d''8    e''8    d''8    b'8    
d''8    e''8    d''8    b'8  \bar "|"   c''4    e''8    c''8    b'4    d''8    
b'8  \bar "|"   a'4    a'4    g'2  }   \repeat volta 2 {   g''4    g''8    
fis''8    g''4    b'8    d''8  \bar "|"   g''4    fis''4    e''4    d''4  
\bar "|"   c''4    e''8    c''8    b'4    d''8    b'8  \bar "|"   c''4    a'4   
 a'4    d''8    fis''8  \bar "|"   \bar "|"   g''4    g''8    fis''8    g''4    
b'8    d''8  \bar "|"   g''4    fis''4    e''4    d''4  \bar "|"   c''4    e''8 
   c''8    b'4    d''8    b'8  \bar "|"   a'4    a'4    g'2  }   
}

\score{
    <<

	\context Staff="default"
	{
	    \voicedefault 
	}

    >>
	\layout {
	}
	\midi {}
}
