\version "2.19.49"
% clairnote-type = sn
\include "clairnote.ly"
\header {
	transcription = "JoJofidhlear"
	crossRefNumber = "1"
	footnotes = ""
	meter = "Reel"
	source = "https://thesession.org/tunes/200#setting29096"
	arranger = "Setting 7"
	tagline = \markup { \vspace #1.8 \sans \abs-fontsize #7.5 \wordwrap {Sheet music in \with-url \clairnoteTypeUrl { \clairnoteTypeName music notation} published by Paul Morris using \with-url #"http://www.lilypond.org" {LilyPond.} Automatically converted to LilyPond format from an ABC source file from \with-url #"https://thesession.org" {the Session} website: \with-url #"https://thesession.org/tunes/200#setting29096" {"https://thesession.org/tunes/200#setting29096"}}}
	title = "Splendid Isolation"
}
voicedefault =  {
\set Score.defaultBarType = ""

\time 4/4 \key g \dorian   f'4.    f'8  \bar "||"   e'16 (   f'16    g'8  -)   
a'8    f'8    g'8    d''8    c''8    a'8  \bar "|"   g'16    g'16    g'8    a'8 
   g'8    f'8    g'8    a'8    c''8  \bar "|"   d''8    a'8    c''8    a'8    
g'8    a'8    bes'8    c''8  \bar "|"   d''8    g''8    g''8    f''8    g''4  
 ~    g''8    a''8  \bar "|"     bes''8    g''8    a''8    g''8    f''8    d''8 
   d''16    d''16    d''8  \bar "|"   f''8    a''8    d''8    g''8    f''8    
d''8    c''8    a'8  \bar "|"   g'8    c''8    a'8    g'8    f'8    g'8    a'8  
  c''8  \bar "|"   d''8    a'8    c''8    a'8  <<   g'4.    g4.   >> f'8  
\bar "|"     e'16 (   f'16    g'8  -)   a'8    f'8    g'8    d''8    c''8    
a'8  \bar "|"   g'16    g'16    g'8    a'8    g'8    f'8    g'8    a'8    c''8  
\bar "|"   d''8    a'8    c''8    a'8    g'8    a'8    bes'8    c''8  \bar "|"  
 d''8    g''8    g''16    g''16    g''8    g''4    g''8    a''8  \bar "|"     
bes''8    g''8    a''8    g''8    f''8    d''8    d''16    d''16    d''8  
\bar "|"   f''8    a''8    d''8    g''8    f''8    d''8    c''8    a'8  
\bar "|"   g'8    c''8    a'8    g'8    f'8    g'8    a'8    c''8  \bar "|"   
d''8    a'8    c''8    a'8    g'8    a'8    bes'16 (   c''16    d''8  -) 
\bar "||"     g''4    a''8    g''8    f''8    d''8    d''16    d''16    d''8  
\bar "|"   g''8    f''8    d''8    c''8    a'8    c''8    d''8    c''8  
\bar "|"   a'8    g'8    g'16    g'16    g'8    a'8    c''8    d''8    c''8  
\bar "|"   a'8    g'8    g'16    g'16    g'8    f'4    f'8    e'8  \bar "|"     
f'8    g'8    a'8    f'8    g'8    d''8    c''8    a'8  \bar "|"   g'16    g'16 
   g'8    a'8    g'8    f'8    g'8    a'8    c''8  \bar "|"   d''8    g''8    
g''16    g''16    g''8    f''8    g''8    \tuplet 3/2 {   a''8    bes''8    g''8 
 } \bar "|"   f''8    d''8    c''8    a'8    g'4    bes'16 (   c''16    d''8  
-) \bar "|"     g''4    a''8    g''8    f''8    d''8    d''16    d''16    d''8  
\bar "|"   g''8    f''8    d''8    c''8    a'8    c''8    d''8    c''8  
\bar "|"   a'8    g'8    g'16    g'16    g'8    a'8    c''8    d''8    c''8  
\bar "|"   a'8    g'8    g'16    g'16    g'8    f'4    \tuplet 3/2 {   f'8    
e'8    f'8  } \bar "|"     \tuplet 3/2 {   f'8    e'8    f'8  }   a'8    f'8    
g'8    d''8    c''8    a'8  \bar "|"   g'16    g'16    g'8    a'8    g'8    f'8 
   g'8    a'8    c''8  \bar "|"   d''8    g''8    g''16    g''16    g''8    
f''8    g''8    a''8    g''8  \bar "|"   f''8    d''8    c''8    a'8  <<   g'4. 
   g4.   >> f'8  \bar "|."   
}

\score{
    <<

	\context Staff="default"
	{
	    \voicedefault 
	}

    >>
	\layout {
	}
	\midi {}
}
