\version "2.19.49"
% clairnote-type = sn
\include "clairnote.ly"
\header {
	transcription = "Kevin Rietmann"
	crossRefNumber = "1"
	footnotes = ""
	meter = "Reel"
	source = "https://thesession.org/tunes/197#setting26183"
	arranger = "Setting 9"
	tagline = \markup { \vspace #1.8 \sans \abs-fontsize #7.5 \wordwrap {Sheet music in \with-url \clairnoteTypeUrl { \clairnoteTypeName music notation} published by Paul Morris using \with-url #"http://www.lilypond.org" {LilyPond.} Automatically converted to LilyPond format from an ABC source file from \with-url #"https://thesession.org" {the Session} website: \with-url #"https://thesession.org/tunes/197#setting26183" {"https://thesession.org/tunes/197#setting26183"}}}
	title = "Star Of Munster, The"
}
voicedefault =  {
\set Score.defaultBarType = ""

\time 4/4 \key g \major   \bar "|"   b'8    a'8    g'8    b'8    a'8    g'8    
fis'8    d'8    \bar "|"   g'8    fis'8    g'8    d'8    f'8    d'8    c'8    
a8    \bar "|"   g4    g'8    fis'8    g'8    a'8    b'8    c''8    \bar "|"   
d''4    g''8    e''8    f''8    d''8    c''8    a'8    \bar "|"     b'8    a'8  
  g'8    b'8    a'8    g'8    fis'8    d'8    \bar "|"   g'8    fis'8    g'8    
d'8    f'8    d'8    c'8    a8    \bar "|"   g4    g'8    fis'8    g'8    a'8   
 b'8    c''8    \bar "|"   \tuplet 3/2 {   d''8    c''8    b'8  }   c''8    a'8  
  b'8    g'8    g'4    \bar "|"   <<   b'4    g'4   >> <<   b'4    g'4   >> <<  
 a'4    fis'4   >> <<   a'4    fis'4   >>   \bar "|"   g'8    b'8    a'8    g'8 
   f'8    d'8    c'8    a8    \bar "|"   g4    g'8    fis'8    g'8    a'8    
b'8    c''8    \bar "|"   d''4    g''8    e''8    f''8    d''8    c''8    a'8   
 \bar "|"     b'8    c''8    c''8    b'8    b'8    a'8    g'8    fis'8    
\bar "|"   g'8    b'8    a'8    g'8    f'8    d'8    c'8    a8    \bar "|"   g4 
   g'8    fis'8    g'8    a'8    b'8    c''8    \bar "|"   \tuplet 3/2 {   d''8  
  c''8    b'8  }   c''8    a'8    b'8    g'8    g'4    \bar "|"     
\repeat volta 2 {   d''8    g''8    g''8    fis''8    g''8    d''8    
\tuplet 3/2 {   d''8    d''8    d''8  }   \bar "|"   g''8    d''8    a''8    
d''8    g''8    d''8    d''8    e''8    \bar "|"   f''4    g''8    e''8    f''8 
   c''8    c''8    e''8    \bar "|"   f''8    g''8    a''8    g''8    f''8    
d''8    c''8    a'8    \bar "|"     fis''8    g''8    g''8    fis''8    g''8    
d''8    \tuplet 3/2 {   d''8    d''8    d''8  }   \bar "|"   g''8    d''8    
a''8    d''8    g''8    d''8    d''8    e''8    \bar "|"   f''8    e''8    f''8 
   a''8    g''8    f''8    g''8    a''8    \bar "|"   b''8    g''8    a''8    
g''8    f''8    d''8    c''8    a'8    }   
}

\score{
    <<

	\context Staff="default"
	{
	    \voicedefault 
	}

    >>
	\layout {
	}
	\midi {}
}
