\version "2.19.49"
% clairnote-type = sn
\include "clairnote.ly"
\header {
	transcription = "fidicen"
	crossRefNumber = "1"
	footnotes = ""
	meter = "Hornpipe"
	source = "https://thesession.org/tunes/1285#setting1285"
	arranger = "Setting 1"
	tagline = \markup { \vspace #1.8 \sans \abs-fontsize #7.5 \wordwrap {Sheet music in \with-url \clairnoteTypeUrl { \clairnoteTypeName music notation} published by Paul Morris using \with-url #"http://www.lilypond.org" {LilyPond.} Automatically converted to LilyPond format from an ABC source file from \with-url #"https://thesession.org" {the Session} website: \with-url #"https://thesession.org/tunes/1285#setting1285" {"https://thesession.org/tunes/1285#setting1285"}}}
	title = "Staten Island"
}
voicedefault =  {
\set Score.defaultBarType = ""

\time 4/4 \key d \major   \repeat volta 2 {   a'4  \bar "|"   fis'8    d'8    
fis'8    g'8    a'4    a'4  \bar "|"   d''8    fis''8    e''8    d''8    d''8   
 cis''8    b'8    a'8  \bar "|"   b'4    g'8    b'8    a'4    fis'8    a'8  
\bar "|"   g'4    e'4    e'4    a'8    g'8  \bar "|"     fis'8    d'8    fis'8  
  g'8    a'4    a'4  \bar "|"   d''8    fis''8    e''8    d''8    d''8    
cis''8    b'8    a'8  \bar "|"   d''4    d''4    e''8    fis''8    g''8    e''8 
 \bar "|"   fis''4    d''4    d''4  }     \repeat volta 2 {   fis''8    g''8  
\bar "|"   a''4    fis''8    a''8    g''4    e''8    g''8  \bar "|"   fis''4    
d''8    fis''8    e''8    cis''8    b'8    a'8  \bar "|"   c''4    c''4    e''8 
   fis''8    g''8    e''8  \bar "|"   c''4    c''4    e''8    fis''8    g''8    
e''8  \bar "|"     a''4    fis''8    a''8    g''4    e''8    g''8  \bar "|"   
fis''4    d''8    fis''8    e''8    cis''8    b'8    a'8  \bar "|"   d''4    
d''4    e''8    fis''8    g''8    e''8  \bar "|"   fis''4    d''4    d''4  }   
}

\score{
    <<

	\context Staff="default"
	{
	    \voicedefault 
	}

    >>
	\layout {
	}
	\midi {}
}
