\version "2.19.49"
% clairnote-type = sn
\include "clairnote.ly"
\header {
	transcription = "MichaelBolton"
	crossRefNumber = "1"
	footnotes = ""
	meter = "Jig"
	source = "https://thesession.org/tunes/1216#setting14511"
	arranger = "Setting 2"
	tagline = \markup { \vspace #1.8 \sans \abs-fontsize #7.5 \wordwrap {Sheet music in \with-url \clairnoteTypeUrl { \clairnoteTypeName music notation} published by Paul Morris using \with-url #"http://www.lilypond.org" {LilyPond.} Automatically converted to LilyPond format from an ABC source file from \with-url #"https://thesession.org" {the Session} website: \with-url #"https://thesession.org/tunes/1216#setting14511" {"https://thesession.org/tunes/1216#setting14511"}}}
	title = "Strike The Gay Harp"
}
voicedefault =  {
\set Score.defaultBarType = ""

\repeat volta 2 {
\time 6/8 \key d \major   d''8    e''8    fis''8    b'4.  \bar "|"   a'8    b'8 
   a'8    g'8    fis'8    e'8  \bar "|"   d'8    e'8    d'8    d'8    e'8    
fis'8  \bar "|"   a'8    fis'8    e'8    e'8    fis'8    a'8  }   
}

\score{
    <<

	\context Staff="default"
	{
	    \voicedefault 
	}

    >>
	\layout {
	}
	\midi {}
}
