\version "2.19.49"
% clairnote-type = sn
\include "clairnote.ly"
\header {
	transcription = "ceolachan"
	crossRefNumber = "1"
	footnotes = ""
	meter = "Hornpipe"
	source = "https://thesession.org/tunes/1036#setting14266"
	arranger = "Setting 3"
	tagline = \markup { \vspace #1.8 \sans \abs-fontsize #7.5 \wordwrap {Sheet music in \with-url \clairnoteTypeUrl { \clairnoteTypeName music notation} published by Paul Morris using \with-url #"http://www.lilypond.org" {LilyPond.} Automatically converted to LilyPond format from an ABC source file from \with-url #"https://thesession.org" {the Session} website: \with-url #"https://thesession.org/tunes/1036#setting14266" {"https://thesession.org/tunes/1036#setting14266"}}}
	title = "Swan, The"
}
voicedefault =  {
\set Score.defaultBarType = ""

\time 4/4 \key g \major   \tuplet 3/2 {   a'8    a'8    a'8  }   c''8    a'8    
e'8    a'8    c''8    e''8    \bar "|"   a''4    g''8    a''8    \tuplet 3/2 {   
fis''8    g''8    a''8  }   e''8    c''8    \bar "|"   \tuplet 3/2 {   d''8    
d''8    d''8  }   fis''8    d''8    c''4    e''8    c''8    \bar "|"   b'8    
e'8    g'8    b'8    e''8    d''8    c''8    b'8    \bar "|"     
}

\score{
    <<

	\context Staff="default"
	{
	    \voicedefault 
	}

    >>
	\layout {
	}
	\midi {}
}
