\version "2.19.49"
% clairnote-type = sn
\include "clairnote.ly"
\header {
	transcription = "gian marco"
	crossRefNumber = "1"
	footnotes = ""
	meter = "Reel"
	source = "https://thesession.org/tunes/1484#setting1484"
	arranger = "Setting 1"
	tagline = \markup { \vspace #1.8 \sans \abs-fontsize #7.5 \wordwrap {Sheet music in \with-url \clairnoteTypeUrl { \clairnoteTypeName music notation} published by Paul Morris using \with-url #"http://www.lilypond.org" {LilyPond.} Automatically converted to LilyPond format from an ABC source file from \with-url #"https://thesession.org" {the Session} website: \with-url #"https://thesession.org/tunes/1484#setting1484" {"https://thesession.org/tunes/1484#setting1484"}}}
	title = "Tail Toddle, The"
}
voicedefault =  {
\set Score.defaultBarType = ""

\time 4/4 \key d \major   \repeat volta 2 {   d''4    fis''8    d''8    g''4    
fis''8    e''8  \bar "|"   d''4    fis''8    d''8    e''4    cis''8    a'8  
\bar "|"   d''4    fis''8    d''8    g''4    fis''8    e''8  \bar "|"   fis''8  
  g''8    a''8    fis''8    e''4    cis''8    a'8  }     \repeat volta 2 {   
g''4    d''8    b'8    b'4    d''8    b'8  \bar "|"   g''4    d''8    b'8    
e''4    cis''8    a'8  \bar "|"   g''4    d''8    b'8    b'4    d''8    b'8  
\bar "|"   a'4    a''8    fis''8    e''4    cis''8    a'8  }   
}

\score{
    <<

	\context Staff="default"
	{
	    \voicedefault 
	}

    >>
	\layout {
	}
	\midi {}
}
