\version "2.19.49"
% clairnote-type = sn
\include "clairnote.ly"
\header {
	transcription = "Dave Linden"
	crossRefNumber = "1"
	footnotes = ""
	meter = "Reel"
	source = "https://thesession.org/tunes/248#setting12964"
	arranger = "Setting 10"
	tagline = \markup { \vspace #1.8 \sans \abs-fontsize #7.5 \wordwrap {Sheet music in \with-url \clairnoteTypeUrl { \clairnoteTypeName music notation} published by Paul Morris using \with-url #"http://www.lilypond.org" {LilyPond.} Automatically converted to LilyPond format from an ABC source file from \with-url #"https://thesession.org" {the Session} website: \with-url #"https://thesession.org/tunes/248#setting12964" {"https://thesession.org/tunes/248#setting12964"}}}
	title = "Tam Lin"
}
voicedefault =  {
\set Score.defaultBarType = ""

\time 4/4 \key a \minor   \repeat volta 2 {   e'8    a'8    \tuplet 3/2 {   a'8 
^"~"    g'8    a'8  }   c''8    a'8    a'8 ^"~"    e'8  \bar "|"   f'8    a'8   
 \tuplet 3/2 {   a'8 ^"~"    g'8    a'8  }   c''8    a'8    a'8 ^"~"    f'8  
\bar "|"   g'8    b'8    \tuplet 3/2 {   b'8 ^"~"    a'8    b'8  }   c''8    b'8 
   a'8    b'8  } \alternative{{   c''8    b'8    a'8    g'8    a'8    g'8    
e'8    d'8  } {   c''8    b'8    a'8    g'8    a'8    g'8    e'8    a'8  
\bar "||"   \bar "||"   a'4    a''8    gis''8    a''8 ^"~"    e''8    c''8    
a'8  \bar "|"   a'8 ^"~"    a''8    a''8 ^"~"    gis''8    a''8    e''8    c''8 
   a'8  \bar "|"   g''4    fis''8 (   g''8  -)   cis''8 (   d''8  -)   bes'8 (  
 b'!8  -) \bar "|"   fis'8 (   g'8  -)   bes'8 (   b'!8  -)   cis''8 (   d''8  
-)   fis''8 (   g''8  -) \bar "|"   \bar "|"   a''4 ^"~"      gis''8 -.   a''8 
^"~"    e''8    c''8    a'8  \bar "|"   a'8 ^"~"    a''8    a''8 ^"~"    gis''8 
   a''8    e''8    c''8    a'8  \bar "|"   f'8 ^"~"    e'8    f'8    g'8    a'8 
   c''8    d''8    e''8  \bar "|"   g''8 ^"~"    e''8    d''8    c''8    b'8    
g'8    a'8    g'8  \bar "||"   }}
}

\score{
    <<

	\context Staff="default"
	{
	    \voicedefault 
	}

    >>
	\layout {
	}
	\midi {}
}
