\version "2.19.49"
% clairnote-type = sn
\include "clairnote.ly"
\header {
	transcription = "Roads To Home"
	crossRefNumber = "1"
	footnotes = ""
	meter = "Reel"
	source = "https://thesession.org/tunes/114#setting25666"
	arranger = "Setting 3"
	tagline = \markup { \vspace #1.8 \sans \abs-fontsize #7.5 \wordwrap {Sheet music in \with-url \clairnoteTypeUrl { \clairnoteTypeName music notation} published by Paul Morris using \with-url #"http://www.lilypond.org" {LilyPond.} Automatically converted to LilyPond format from an ABC source file from \with-url #"https://thesession.org" {the Session} website: \with-url #"https://thesession.org/tunes/114#setting25666" {"https://thesession.org/tunes/114#setting25666"}}}
	title = "Teetotallers, The"
}
voicedefault =  {
\set Score.defaultBarType = ""

\time 4/4 \key g \major   \repeat volta 2 {   g'16 ^"G"   g'16    g'8    g'8    
fis'8    g'8    a'8    b'8    c''8  \bar "|"   d''16    d''16    d''8    e''8   
 b'8    d''8    b'8    a'8    c''8  \bar "|"   b'8 ^"Em"   e'8    e'16    e'16  
  d'8    e'8    fis'8    g'8    a'8    \bar "|"   b'8    g'8    a'8    fis'8    
g'8    fis'8    e'8    d'8  \bar "|"       g'16 ^"G"   g'16    g'8    g'8    
fis'8    g'8    a'8    b'8    c''8  \bar "|"   d''16    d''16    d''8    e''8   
 e''8    d''8    b'8    a'8    c''8  \bar "|"   b'8 ^"Em"   e'8    e'16    e'16 
   d'8    e'8    fis'8    g'8    a'8    \bar "|"   b'8 ^"D"   g'8    a'8    
fis'8      g'4 ^"G"   g'4  }     \repeat volta 2 {   b'8 ^"Em"   e''8    e''16  
  e''16    d''8    e''4    e''8    fis''8  \bar "|"   g''8    fis''8    a''8    
fis''8    g''8    fis''8    e''8    d''8  \bar "|"   a'8 ^"D"   d''8    d''16   
 d''16    cis''8    d''4    d''8    e''8  \bar "|"   fis''8    d''8    a''8    
fis''8    g''8    fis''8    e''8    d''8    \bar "|"       b'8 ^"Em"   e''8    
e''16    e''16    d''8    e''4    e''8    fis''8  \bar "|"   g''8    e''8    
a''8    fis''8    g''8    fis''8    e''8    d''8  \bar "|"   b'8    e'8    e'16 
   e'16    d'8    e'8    fis'8    g'8    a'8  \bar "|"   b'8 ^"D"   g'8    a'8  
  fis'8      g'4 ^"G"   g'4  }   
}

\score{
    <<

	\context Staff="default"
	{
	    \voicedefault 
	}

    >>
	\layout {
	}
	\midi {}
}
