\version "2.19.49"
% clairnote-type = sn
\include "clairnote.ly"
\header {
	transcription = "Phantom Button"
	crossRefNumber = "1"
	footnotes = ""
	meter = "Jig"
	source = "https://thesession.org/tunes/161#setting12786"
	arranger = "Setting 3"
	tagline = \markup { \vspace #1.8 \sans \abs-fontsize #7.5 \wordwrap {Sheet music in \with-url \clairnoteTypeUrl { \clairnoteTypeName music notation} published by Paul Morris using \with-url #"http://www.lilypond.org" {LilyPond.} Automatically converted to LilyPond format from an ABC source file from \with-url #"https://thesession.org" {the Session} website: \with-url #"https://thesession.org/tunes/161#setting12786" {"https://thesession.org/tunes/161#setting12786"}}}
	title = "Tell Her I Am"
}
voicedefault =  {
\set Score.defaultBarType = ""

\time 6/8 \key g \major   e''8    d''8    b'8    g'4. ^"~"  \bar "|"   d'8    
e'8    d'8    g'4. ^"~"  \bar "|"   d'8    e'8    d'8    c''4    d''8  \bar "|" 
  b'8    g'8    e'8    e'8    b'16    c''16    d''8  \bar "|"   \bar "|"   e''8 
   d''8    b'8    g'4. ^"~"  \bar "|"   d'8    e'8    d'8    g'4. ^"~"  
\bar "|"   a'8    g'8    fis'8    g'8    b'8    a'8  \bar "|"   g'8    fis'8    
e'8    d'8    b'16    c''16    d''8  \bar ":|."   g'8    fis'8    e'8    d'4    
a'8  \bar "||"   b'4. ^"~"    d''8    b'8    g'8  \bar "|"   b'4 ^"~"    e''8   
 d''8    b'8    g'8  \bar "|"   a'8    c''8    b'8    a'8    g'8    a'8  
\bar "|"   b'8    g'8    e'8    e'4    c''8  \bar "|"   b'4. ^"~"    d''8    
e''8    g''8  \bar "|"   \bar "|"   a''8    g''8    e''8    d''4    b'8  
\bar "|"   c''8    b'8    a'8    g'8    b'8    a'8  \bar "|"   g'8    fis'8    
e'8    d'4    a'8  \bar ":|."   g'8    fis'8    e'8    d'8    b'16    c''16    
d''8  \bar "||"   \bar "|"   e''8    fis''8    g''8    e''8    fis''8    g''8  
\bar "|"   d''8    b'8    g'8    g'8    b'16    c''16    d''8  \bar "|"   e''4  
  a''8    a''8    g''8    a''8  \bar "|"   b''8    g''8    e''8    e''4    d''8 
 \bar "|"   e''8    fis''8    g''8    e''8    fis''8    g''8  \bar "|"   d''8   
 b'8    g'8    g'8    e''16    fis''16    g''8  \bar "|"   \bar "|"   a''8    
g''8    fis''8    g''8    b''8    a''8  \bar "|"   g''8    fis''8    e''8    
d''8    b'16    c''16    d''8  \bar "|"   e''8    fis''8    g''8    e''8    
fis''8    g''8  \bar "|"   d''8    b'8    g'8    g'8    b'16    c''16    d''8  
\bar "|"   e''4    a''8    a''8    g''8    a''8  \bar "|"   \bar "|"   b''8    
g''8    e''8    e''4    b'8  \bar "|"   d''8    e''8    fis''8    g''8    b''8  
  a''8  \bar "|"   g''8    fis''8    e''8    d''4    b'8  \bar "|"   c''8    
b'8    a'8    g'8    b'8    a'8  \bar "|"   g'8    fis'8    e'8    d'8    b'16  
  c''16    d''8  \bar "||"   
}

\score{
    <<

	\context Staff="default"
	{
	    \voicedefault 
	}

    >>
	\layout {
	}
	\midi {}
}
