\version "2.19.49"
% clairnote-type = sn
\include "clairnote.ly"
\header {
	transcription = "slainte"
	crossRefNumber = "1"
	footnotes = ""
	meter = "Reel"
	source = "https://thesession.org/tunes/827#setting13977"
	arranger = "Setting 2"
	tagline = \markup { \vspace #1.8 \sans \abs-fontsize #7.5 \wordwrap {Sheet music in \with-url \clairnoteTypeUrl { \clairnoteTypeName music notation} published by Paul Morris using \with-url #"http://www.lilypond.org" {LilyPond.} Automatically converted to LilyPond format from an ABC source file from \with-url #"https://thesession.org" {the Session} website: \with-url #"https://thesession.org/tunes/827#setting13977" {"https://thesession.org/tunes/827#setting13977"}}}
	title = "Templehouse, The"
}
voicedefault =  {
\set Score.defaultBarType = ""

\time 4/4 \key e \minor   e'8    fis'8    g'8    a'8    b'8    fis'8    a'8    
fis'8  \bar "|"   d'4    fis'8    d'8    a'8    d'8    fis'8    d'8  \bar "|"   
e'8    fis'8    g'8    a'8    b'8    e'8    e'4 ^"~"  \bar "|"   d''8    b'8    
a'8    c''8    b'8    e'8    e'8    d'8  \bar ":|."   d''8    b'8    a'8    
c''8    b'8    e'8    e'4  \bar "||"   g''4    e''8    fis''8    g''8    fis''8 
   e''8    g''8  \bar "|"   fis''4    d''8    fis''8    a''8    fis''8    d''8  
  fis''8  \bar "|"   g''4    e''8    fis''8    g''8    fis''8    e''8    d''8  
\bar "|"   b'4    a'8    c''8    b'8    e'8    e'4 ^"~"  \bar "|"   g''4    
e''8    fis''8    g''8    fis''8    e''8    g''8  \bar "|"   fis''4    d''8    
fis''8    a''8    fis''8    d''8    fis''8  \bar "|"   e''8    d''8    e''8    
fis''8    g''8    fis''8    e''8    d''8  \bar "|"   b'4    a'8    c''8    b'8  
  e'8    e'8    d'8  \bar "||"   
}

\score{
    <<

	\context Staff="default"
	{
	    \voicedefault 
	}

    >>
	\layout {
	}
	\midi {}
}
