\version "2.19.49"
% clairnote-type = sn
\include "clairnote.ly"
\header {
	transcription = "rune stone"
	crossRefNumber = "1"
	footnotes = ""
	meter = "Reel"
	source = "https://thesession.org/tunes/1004#setting14219"
	arranger = "Setting 3"
	tagline = \markup { \vspace #1.8 \sans \abs-fontsize #7.5 \wordwrap {Sheet music in \with-url \clairnoteTypeUrl { \clairnoteTypeName music notation} published by Paul Morris using \with-url #"http://www.lilypond.org" {LilyPond.} Automatically converted to LilyPond format from an ABC source file from \with-url #"https://thesession.org" {the Session} website: \with-url #"https://thesession.org/tunes/1004#setting14219" {"https://thesession.org/tunes/1004#setting14219"}}}
	title = "Tempest, The"
}
voicedefault =  {
\set Score.defaultBarType = ""

\time 4/4 \key c \major   \repeat volta 2 {   d''4    e''8    d''8    c''8    
a'8    g'8    a'8  \bar "|"   a'8    d''8    d''8    c''8    a'8    g'8    e'8  
  g'8  \bar "|"   d''4    e''8    d''8    c''8    d''8    e''8    f''8  
\bar "|"   e''8    d''8    c''8    e''8    d''4    a''8    g''8  \bar "|"   
e''8    f''8    d''8    f''8    e''8    d''8    c''8    a'8  \bar "|"   c''8    
a'8    g'8    c''8    a'8    g'8    f'8    e'8  \bar "|"   d'8    e'8    f'8    
a'8    g'8    e'8    c''8    e'8  \bar "|"   e'8    d'8    c''8    g'8    e'8   
 d'8    d'4  }   
}

\score{
    <<

	\context Staff="default"
	{
	    \voicedefault 
	}

    >>
	\layout {
	}
	\midi {}
}
