\version "2.19.49"
% clairnote-type = sn
\include "clairnote.ly"
\header {
	transcription = "Alastair Wilson"
	crossRefNumber = "1"
	footnotes = ""
	meter = "Jig"
	source = "https://thesession.org/tunes/1109#setting1109"
	arranger = "Setting 1"
	tagline = \markup { \vspace #1.8 \sans \abs-fontsize #7.5 \wordwrap {Sheet music in \with-url \clairnoteTypeUrl { \clairnoteTypeName music notation} published by Paul Morris using \with-url #"http://www.lilypond.org" {LilyPond.} Automatically converted to LilyPond format from an ABC source file from \with-url #"https://thesession.org" {the Session} website: \with-url #"https://thesession.org/tunes/1109#setting1109" {"https://thesession.org/tunes/1109#setting1109"}}}
	title = "Thady You Gander"
}
voicedefault =  {
\set Score.defaultBarType = ""

\time 6/8 \key d \major   \repeat volta 2 {   e''8  \bar "|"   fis''4    d''8   
 e''4    d''8    fis''4    d''8    e''4    d''8  \bar "|"   b'4    e''8    e''8 
   d''8    e''8    b'4    e''8    e''8    d''8    e''8  \bar "|"     fis''4    
d''8    e''4    d''8    fis''4    d''8    e''4    d''8  \bar "|"   a'4    d''8  
  d''8    cis''8    d''8    a'4    d''8    d''4  }     \repeat volta 2 {   g''8 
 \bar "|"   fis''8    g''8    a''8    e''8    fis''8    g''8    fis''8    g''8  
  a''8    e''8    fis''8    g''8  \bar "|"   b'4    e''8    e''8    d''8    
e''8    b'4    e''8    e''4    g''8  \bar "|"     fis''8    g''8    a''8    
e''8    fis''8    g''8    fis''8    g''8    a''8    e''8    fis''8    g''8  
\bar "|"   a'4    d''8    d''8    cis''8    d''8    a'4    d''8    d''4  }   
}

\score{
    <<

	\context Staff="default"
	{
	    \voicedefault 
	}

    >>
	\layout {
	}
	\midi {}
}
