\version "2.19.49"
% clairnote-type = sn
\include "clairnote.ly"
\header {
	transcription = "ceolachan"
	crossRefNumber = "1"
	footnotes = ""
	meter = "Slide"
	source = "https://thesession.org/tunes/6#setting24613"
	arranger = "Setting 15"
	tagline = \markup { \vspace #1.8 \sans \abs-fontsize #7.5 \wordwrap {Sheet music in \with-url \clairnoteTypeUrl { \clairnoteTypeName music notation} published by Paul Morris using \with-url #"http://www.lilypond.org" {LilyPond.} Automatically converted to LilyPond format from an ABC source file from \with-url #"https://thesession.org" {the Session} website: \with-url #"https://thesession.org/tunes/6#setting24613" {"https://thesession.org/tunes/6#setting24613"}}}
	title = "This Is My Love, Do You Like Her?"
}
voicedefault =  {
\set Score.defaultBarType = ""

\time 6/8 \key e \minor \time 12/8   \repeat volta 2 {   g'4    fis'8    
\bar "|"   e'4    e'8    e'8    d'8    e'8    g'4.    g'8    a'8    b'8    
\bar "|"   a'4    a'8    a'8    g'8    a'8    d''4.    d''8    b'8    d''8    
\bar "|"     e''4    e''8    e''8    d''8    b'8    d''4    d''8    d''8    b'8 
   g'8    \bar "|"   a'4    a'8    a'8    fis'8    d'8    e'4.    }     
\repeat volta 2 {   b'8    c''8    d''8    \bar "|"   e''4    e''8    e''8    
d''8    b'8    d''4    d''8    d''8    b'8    d''8    \bar "|"   e''4    e''8   
 e''8    d''8    b'8    a'4.    a'8    b'8    d''8    \bar "|"     e''4    e''8 
   e''8    d''8    b'8    d''4    d''8    d''8    b'8    g'8    \bar "|"   a'4  
  a'8    a'8    fis'8    d'8    e'4.    }   
}

\score{
    <<

	\context Staff="default"
	{
	    \voicedefault 
	}

    >>
	\layout {
	}
	\midi {}
}
