\version "2.19.49"
% clairnote-type = sn
\include "clairnote.ly"
\header {
	transcription = "David Levine"
	crossRefNumber = "1"
	footnotes = ""
	meter = "Jig"
	source = "https://thesession.org/tunes/6#setting12117"
	arranger = "Setting 10"
	tagline = \markup { \vspace #1.8 \sans \abs-fontsize #7.5 \wordwrap {Sheet music in \with-url \clairnoteTypeUrl { \clairnoteTypeName music notation} published by Paul Morris using \with-url #"http://www.lilypond.org" {LilyPond.} Automatically converted to LilyPond format from an ABC source file from \with-url #"https://thesession.org" {the Session} website: \with-url #"https://thesession.org/tunes/6#setting12117" {"https://thesession.org/tunes/6#setting12117"}}}
	title = "This Is My Love, Do You Like Her?"
}
voicedefault =  {
\set Score.defaultBarType = ""

\time 6/8 \key g \major   \repeat volta 2 {   g'16    fis'16  \bar "|"   e'8    
fis'8    e'8    e'8    d'8    e'8  \bar "|"   g'4.   ~    g'4    b'8  \bar "|"  
 a'8    b'8    a'8    a'8    g'8    a'8  \bar "|"   d''4. ^"~"    e''4. ^"~"  
\bar "|"     d''8    b'8    a'8    g'8    a'8    b'8  \bar "|"   a'8    b'8    
a'8    d'8    e'8    fis'8  \bar "|"   g'8    fis'8    e'8    fis'8    e'8    
d'8  \bar "|"   e'4.   ~    e'4  }     \repeat volta 2 {   d''8  \bar "|"   
e''4    e''8    e''8    d''8    b'8  \bar "|"   d''4. ^"~"    d''8    b'8    
d''8  \bar "|"   e''4    e''8    e''8    d''8    b'8  \bar "|"   d''4. ^"~"    
g''4    e''8  \bar "|"     d''8    b'8    g'8    g'8    a'8    b'8  \bar "|"   
a'8    b'8    a'8    d'8    e'8    fis'8  \bar "|"   g'8    fis'8    e'8    
fis'8    e'8    d'8  \bar "|"   e'4.   ~    e'4  }   
}

\score{
    <<

	\context Staff="default"
	{
	    \voicedefault 
	}

    >>
	\layout {
	}
	\midi {}
}
