\version "2.19.49"
% clairnote-type = sn
\include "clairnote.ly"
\header {
	transcription = "Mix O'Lydian"
	crossRefNumber = "1"
	footnotes = ""
	meter = "Jig"
	source = "https://thesession.org/tunes/6#setting23497"
	arranger = "Setting 14"
	tagline = \markup { \vspace #1.8 \sans \abs-fontsize #7.5 \wordwrap {Sheet music in \with-url \clairnoteTypeUrl { \clairnoteTypeName music notation} published by Paul Morris using \with-url #"http://www.lilypond.org" {LilyPond.} Automatically converted to LilyPond format from an ABC source file from \with-url #"https://thesession.org" {the Session} website: \with-url #"https://thesession.org/tunes/6#setting23497" {"https://thesession.org/tunes/6#setting23497"}}}
	title = "This Is My Love, Do You Like Her?"
}
voicedefault =  {
\set Score.defaultBarType = ""

\time 6/8 \key e \minor   \repeat volta 2 {     e'8 ^"Em"   fis'8    e'8    e'8 
   d'8    b8    \bar "|"     g'4. ^"G"   g'4    a'8    \bar "|"     b'8 ^"Em"   
c''8    b'8    b'8    a'8    g'8    \bar "|"     d''8 ^"Bm"   b'8    a'8    b'4 
   e''8    \bar "|"       d''8 ^"G"   b'8    g'8    g'8    a'8    b'8    
\bar "|"     a'8 ^"D"   fis'8    d'8    d'8    e'8    fis'8    \bar "|"     g'8 
^"Em"   fis'8    e'8      fis'8 ^"D"   e'8    d'8    \bar "|"     g'8 ^"Em"   
e'8    d'8    e'4.    }     \repeat volta 2 {     e''8 ^"Em"   fis''8    e''8   
 e''8    d''8    b'8    \bar "|"     d''8 ^"D"   e''8    d''8    d''8    b'8    
d''8    \bar "|"     e''8 ^"Em"   fis''8    e''8    e''8    d''8    b'8    
\bar "|"     d''4. ^"Bm"   b'4    e''8    \bar "|"       d''8 ^"G"   b'8    g'8 
   g'8    a'8    b'8    \bar "|"     a'8 ^"D"   fis'8    d'8    d'8    e'8    
fis'8    \bar "|"     g'8 ^"Em"   fis'8    e'8      fis'8 ^"D"   e'8    d'8    
\bar "|"     g'8 ^"Em"   e'8    d'8    e'4.    }   
}

\score{
    <<

	\context Staff="default"
	{
	    \voicedefault 
	}

    >>
	\layout {
	}
	\midi {}
}
