\version "2.19.49"
% clairnote-type = sn
\include "clairnote.ly"
\header {
	transcription = "ceolachan"
	crossRefNumber = "1"
	footnotes = ""
	meter = "Jig"
	source = "https://thesession.org/tunes/6#setting12361"
	arranger = "Setting 13"
	tagline = \markup { \vspace #1.8 \sans \abs-fontsize #7.5 \wordwrap {Sheet music in \with-url \clairnoteTypeUrl { \clairnoteTypeName music notation} published by Paul Morris using \with-url #"http://www.lilypond.org" {LilyPond.} Automatically converted to LilyPond format from an ABC source file from \with-url #"https://thesession.org" {the Session} website: \with-url #"https://thesession.org/tunes/6#setting12361" {"https://thesession.org/tunes/6#setting12361"}}}
	title = "This Is My Love, Do You Like Her?"
}
voicedefault =  {
\set Score.defaultBarType = ""

\time 6/8 \key a \dorian   \repeat volta 2 {   a'4.    a'8    g'8    e'8    
\bar "|"   c''4.    d''4.    \bar "|"   e''4.    e''8    d''8    b'8    
\bar "|"   g''4.    e''4    g''8    \bar "|"     a''8    g''8    e''8    g''4   
 e''8    \bar "|"   d''8    b'8    g'8    g'8    a'8    b'8    \bar "|"   c''8  
  b'8    a'8    b'8    a'8    g'8    \bar "|"   a'4.    a'4.    }     
\repeat volta 2 {   a''4.    a''8    g''8    e''8    \bar "|"   g''4.    g''8   
 e''8    d''8    \bar "|"   e''4    a''8    a''8    g''8    a''8    \bar "|"   
g''8    e''8    d''8    e''4    g''8    \bar "|"     a''8    g''8    e''8    
g''4    e''8    \bar "|"   d''8    b'8    g'8    g'8    a'8    b'8    \bar "|"  
 c''8    b'8    a'8    b'8    a'8    g'8    \bar "|"   a'4.    a'4.    }   
}

\score{
    <<

	\context Staff="default"
	{
	    \voicedefault 
	}

    >>
	\layout {
	}
	\midi {}
}
