\version "2.19.49"
% clairnote-type = sn
\include "clairnote.ly"
\header {
	transcription = "Will Harmon"
	crossRefNumber = "1"
	footnotes = ""
	meter = "Jig"
	source = "https://thesession.org/tunes/656#setting656"
	arranger = "Setting 1"
	tagline = \markup { \vspace #1.8 \sans \abs-fontsize #7.5 \wordwrap {Sheet music in \with-url \clairnoteTypeUrl { \clairnoteTypeName music notation} published by Paul Morris using \with-url #"http://www.lilypond.org" {LilyPond.} Automatically converted to LilyPond format from an ABC source file from \with-url #"https://thesession.org" {the Session} website: \with-url #"https://thesession.org/tunes/656#setting656" {"https://thesession.org/tunes/656#setting656"}}}
	title = "Timmy Clifford's"
}
voicedefault =  {
\set Score.defaultBarType = ""

\time 6/8 \key g \major   \bar "|"   g8    b8    d'8    e'4    d'8  \bar "|"   
d'8    b8    d'8    g'4    g8  \bar "|"   g8    b8    d'8    c'4    b'8  
\bar "|"     a'8    g'8    fis'8    g'8    d'8    b8  \bar "|"   g8    b8    
d'8    e'8    g'16    e'16    d'8  \bar "|"   d'8    b8    d'8    g'8    a'8    
b'8  \bar "|"     d''4.    b'4. ^"~"  \bar "|"   a'8    g'8    fis'8    g'8    
d'8    b8  \bar ":|."   a'8    g'8    fis'8    g'8    b'8    d''8  \bar "||"    
 \bar "|"   e''8    fis''8    e''8    d''4    b'8  \bar "|"   b'8    a'8    g'8 
   g'8    b'8    d''8  \bar "|"   e''8    fis''8    e''8    d''4    b'8  
\bar "|"     b'8    a'8    g'8    a'8    b'8    d''8  \bar "|"   e''8    fis''8 
   e''8    d''4    b'8  \bar "|"   b'8    a'8    g'8    g'8    a'8    b'8  
\bar "|"     c''4. ^"~"    b'4. ^"~"  \bar "|"   a'8    g'8    fis'8    g'8    
b'8    d''8  \bar ":|."   a'8    g'8    fis'8    g'8    d'8    b8  \bar "||"   
}

\score{
    <<

	\context Staff="default"
	{
	    \voicedefault 
	}

    >>
	\layout {
	}
	\midi {}
}
