\version "2.19.49"
% clairnote-type = sn
\include "clairnote.ly"
\header {
	transcription = "PaleAle"
	crossRefNumber = "1"
	footnotes = ""
	meter = "Reel"
	source = "https://thesession.org/tunes/353#setting13154"
	arranger = "Setting 4"
	tagline = \markup { \vspace #1.8 \sans \abs-fontsize #7.5 \wordwrap {Sheet music in \with-url \clairnoteTypeUrl { \clairnoteTypeName music notation} published by Paul Morris using \with-url #"http://www.lilypond.org" {LilyPond.} Automatically converted to LilyPond format from an ABC source file from \with-url #"https://thesession.org" {the Session} website: \with-url #"https://thesession.org/tunes/353#setting13154" {"https://thesession.org/tunes/353#setting13154"}}}
	title = "Tinker's Daughter, The"
}
voicedefault =  {
\set Score.defaultBarType = ""

\time 4/4 \key d \major   \repeat volta 2 {   a'4    fis'8    a'8    d'8    a'8 
   fis'8    a'8  \bar "|"   d''8    e''8    fis''8    d''8    e''8    fis''8    
d''8    b'8  \bar "|"   }
}

\score{
    <<

	\context Staff="default"
	{
	    \voicedefault 
	}

    >>
	\layout {
	}
	\midi {}
}
