\version "2.19.49"
% clairnote-type = sn
\include "clairnote.ly"
\header {
	transcription = "daiv"
	crossRefNumber = "1"
	footnotes = ""
	meter = "Jig"
	source = "https://thesession.org/tunes/308#setting13072"
	arranger = "Setting 2"
	tagline = \markup { \vspace #1.8 \sans \abs-fontsize #7.5 \wordwrap {Sheet music in \with-url \clairnoteTypeUrl { \clairnoteTypeName music notation} published by Paul Morris using \with-url #"http://www.lilypond.org" {LilyPond.} Automatically converted to LilyPond format from an ABC source file from \with-url #"https://thesession.org" {the Session} website: \with-url #"https://thesession.org/tunes/308#setting13072" {"https://thesession.org/tunes/308#setting13072"}}}
	title = "Tobin's Favourite"
}
voicedefault =  {
\set Score.defaultBarType = ""

\time 6/8 \key d \major   fis'8  \bar "|"   d'8    fis'8    a'8    d''8    
cis''8    d''8  \bar "|"   e''8    cis''8    a'8    cis''8    d''8    e''8  
\bar "|"   fis''8    d''8    fis''8    g''8    fis''8    g''8  \bar "|"   e''8  
  cis''8    a'8    g'8    fis'8    e'8  \bar "|"   
}

\score{
    <<

	\context Staff="default"
	{
	    \voicedefault 
	}

    >>
	\layout {
	}
	\midi {}
}
