\version "2.19.49"
% clairnote-type = sn
\include "clairnote.ly"
\header {
	transcription = "swisspiper"
	crossRefNumber = "1"
	footnotes = ""
	meter = "Reel"
	source = "https://thesession.org/tunes/1100#setting21682"
	arranger = "Setting 7"
	tagline = \markup { \vspace #1.8 \sans \abs-fontsize #7.5 \wordwrap {Sheet music in \with-url \clairnoteTypeUrl { \clairnoteTypeName music notation} published by Paul Morris using \with-url #"http://www.lilypond.org" {LilyPond.} Automatically converted to LilyPond format from an ABC source file from \with-url #"https://thesession.org" {the Session} website: \with-url #"https://thesession.org/tunes/1100#setting21682" {"https://thesession.org/tunes/1100#setting21682"}}}
	title = "Tommy Peoples'"
}
voicedefault =  {
\set Score.defaultBarType = ""

\time 4/4 \key g \major     g'8 ^"G"   d'8    d'8    b'8    c''8    d'8    b'8  
  d'8  \bar "|"   a'8 ^"D"   d'8    d'8    g'8    fis'8    g'8    a'8    fis'8  
\bar "|"   g'8 ^"G"   d'8    d'8    b'8    c''8    d'8    b'8    d'8  \bar "|"  
 a'8 ^"D"   d''8    d''8    c''8    a'8    g'8    fis'8    a'8  \bar "|"       
g'8 ^"G"   d'8    d'8    b'8    c''8    d'8    b'8    d'8  \bar "|"   a'8 ^"D"  
 d'8    d'8    g'8    fis'8    g'8    a'8    fis'8  \bar "|"     g'8 ^"G"   d'8 
   d'8    b'8    c''8    d'8    b'8    d'8  \bar "|"   a'8 ^"D"   d''8    d''8  
  c''8    a'8    g'8    b'8    d''8  \bar "|"       g''4 ^"C9"   d''8    g''8   
 e''8    g''8    d''8    g''8  \bar "|"   g''8 ^"G"   a''8    b''8    g''8    
a''8    g''8    d''8    g''8  \bar "|"   g''4 ^"C9"   d''8    g''8    e''8    
g''8    d''8    b'8  \bar "|"   c''8 ^"D"   b'8    a'8    c''8      b'8 ^"G"   
g'8    g'4  \bar "|"       g''4 ^"C9"   d''8    g''8    e''8    g''8    d''8    
g''8  \bar "|"   g''8 ^"G"   a''8    b''8    g''8    a''8    g''8    d''8    
g''8  \bar "|"     g''4 ^"C9"   d''8    g''8    e''8    g''8    d''8    b'8  
\bar "|"   c''8 ^"D"   b'8    a'8    c''8      b'8 ^"C7"   g'8    g'4  \bar "|" 
  
}

\score{
    <<

	\context Staff="default"
	{
	    \voicedefault 
	}

    >>
	\layout {
	}
	\midi {}
}
