\version "2.19.49"
% clairnote-type = sn
\include "clairnote.ly"
\header {
	transcription = "The Merry Highlander"
	crossRefNumber = "1"
	footnotes = ""
	meter = "Waltz"
	source = "https://thesession.org/tunes/1085#setting14321"
	arranger = "Setting 2"
	tagline = \markup { \vspace #1.8 \sans \abs-fontsize #7.5 \wordwrap {Sheet music in \with-url \clairnoteTypeUrl { \clairnoteTypeName music notation} published by Paul Morris using \with-url #"http://www.lilypond.org" {LilyPond.} Automatically converted to LilyPond format from an ABC source file from \with-url #"https://thesession.org" {the Session} website: \with-url #"https://thesession.org/tunes/1085#setting14321" {"https://thesession.org/tunes/1085#setting14321"}}}
	title = "Tommy Bhetty's"
}
voicedefault =  {
\set Score.defaultBarType = ""

\time 3/4 \key g \major   \bar "|"   g'4    b'4    d''4    \bar "|"   g'4    
b'8    g'8    d''8    g'8    \bar "|"   g'4    b''4.    a''8    \bar "|"   g''4 
   fis''4    e''4    \bar "|"   \bar "|"   g'4    b'8    g'8    d''8    g'8    
\bar "|"   g'4    b'4    d''4    \bar "|"   d'8    fis'8    a'8    fis'8    a'8 
   b'8    \bar "|"   c''4    b'4    a'4    \bar "|"   \bar "|"   g'4    b'8    
g'8    d''8    g'8    \bar "|"   g'4    b'4    d''4    \bar "|"   g'4    b''4.  
  a''8    \bar "|"   g''4    fis''4    e''4    \bar "|"   \bar "|"   d''8    
g''4.    a'8    b'16    c''16    \bar "|"   d''4    c''4    a'4    \bar "|"   
g'4.    b'8    a'8    fis'8    \bar "|"   g'2    fis''8    g''8    \bar "|"   
\bar "|"   a''4.    fis''8    e''4    \bar "|"   d''2    a'8    b'8    \bar "|" 
  c''4    b''4.    a''8    \bar "|"   g''4    fis''4    e''4    \bar "|"   
\bar "|"   d''4.    e''8    d''4    \bar "|"   b'4    a'4    b'4    \bar "|"   
d'8    fis'8    a'8    fis'8    a'8    b'8    \bar "|"   c''8    d'8    b'8    
d'8    a'8    d'8    \bar "|"   \bar "|"   g'4    b'8    g'8    d''8    g'8    
\bar "|"   g'4    b'8    g'8    d''8    g'8    \bar "|"   g'4    b''4.    a''8  
  \bar "|"   g''4    fis''4    e''4    \bar "|"   \bar "|"   d''8    g''4.    
a'8    b'16    c''16    \bar "|"   d''4    c''4    a'4    \bar "|"   g'4.    
b'8    a'8    fis'8    \bar "|"   g'2.    \bar "|"   
}

\score{
    <<

	\context Staff="default"
	{
	    \voicedefault 
	}

    >>
	\layout {
	}
	\midi {}
}
