\version "2.19.49"
% clairnote-type = sn
\include "clairnote.ly"
\header {
	transcription = "JACKB"
	crossRefNumber = "1"
	footnotes = ""
	meter = "Reel"
	source = "https://thesession.org/tunes/596#setting22690"
	arranger = "Setting 3"
	tagline = \markup { \vspace #1.8 \sans \abs-fontsize #7.5 \wordwrap {Sheet music in \with-url \clairnoteTypeUrl { \clairnoteTypeName music notation} published by Paul Morris using \with-url #"http://www.lilypond.org" {LilyPond.} Automatically converted to LilyPond format from an ABC source file from \with-url #"https://thesession.org" {the Session} website: \with-url #"https://thesession.org/tunes/596#setting22690" {"https://thesession.org/tunes/596#setting22690"}}}
	title = "Touch Me If You Dare"
}
voicedefault =  {
\set Score.defaultBarType = ""

\repeat volta 2 {
\time 4/4 \key g \major   d''8    c''8    \bar "|"   b'8    g'8    g'4    a'8   
 g'8    e'8    g'8    \bar "|"   b'8    g'8    g'4    \tuplet 3/2 {   b'8    
c''8    d''8  }   g''8    d''8    \bar "|"   b'4.    g'8    a'8    g'8    e'8   
 d'8    \bar "|"   e'8    a'8    a'8    g'8    a'4    g'8    a'8    \bar "|"    
 b'8    g'8    g'4    a'8    g'8    e'8    g'8    \bar "|"   b'8    g'8    g'4  
  \tuplet 3/2 {   b'8    c''8    d''8  }   g''8    d''8    \bar "|"   b'4.    
g'8    a'8    g'8    e'8    d'8    \bar "|"   e'8    g'8    g'8    fis'8    g'4 
   }     \repeat volta 2 {   d''8    e''8    g''8    a''8    b''8    g''8    
a''8    g''8    \bar "|"   e''8    g''8    d''8    g''8    e''8    g''8    d''8 
   g''8    \bar "|"   d''8    e''8    g''8    a''8    b''8    g''8    a''8    
g''8    \bar "|"   e''8    a''8    a''8    g''8    a''4    g''8    e''8    
\bar "|"     d''8    e''8    g''8    a''8    b''8    g''8    a''8    g''8    
\bar "|"   e''8    g''8    d''8    g''8    e''8    g''8    d''8    g''8    
\bar "|"   b'4.    g'8    a'8    g'8    e'8    d'8    \bar "|"   e'8    g'8    
g'8    fis'8    g'4    }   
}

\score{
    <<

	\context Staff="default"
	{
	    \voicedefault 
	}

    >>
	\layout {
	}
	\midi {}
}
