\version "2.19.49"
% clairnote-type = sn
\include "clairnote.ly"
\header {
	transcription = "Will Harmon"
	crossRefNumber = "1"
	footnotes = ""
	meter = "Jig"
	source = "https://thesession.org/tunes/1301#setting14614"
	arranger = "Setting 3"
	tagline = \markup { \vspace #1.8 \sans \abs-fontsize #7.5 \wordwrap {Sheet music in \with-url \clairnoteTypeUrl { \clairnoteTypeName music notation} published by Paul Morris using \with-url #"http://www.lilypond.org" {LilyPond.} Automatically converted to LilyPond format from an ABC source file from \with-url #"https://thesession.org" {the Session} website: \with-url #"https://thesession.org/tunes/1301#setting14614" {"https://thesession.org/tunes/1301#setting14614"}}}
	title = "Trip To Athlone, The"
}
voicedefault =  {
\set Score.defaultBarType = ""

\time 6/8 \key d \major   \bar "|"   a'8    b'8    a'8    d'4    d''8  \bar "|" 
  d''8    cis''8    a'8    a'8    g'8    e'8  \bar "|"   a'8    b'8    a'8    
a'8    b'8    cis''8  \bar "|"   d''8    a'16    a'16    b'8    cis''8    d''8  
  e''8  \bar "|"   \bar "|"   a'8    b'8    a'8    d'8    e'8    d'8  \bar "|"  
 d''8    cis''8    a'8    a'8    g'8    e'8  \bar "|"   g'8    e'16    fis'16   
 g'8    a'8    d''8    e''8  \bar "|" \grace {    a''8  }   fis''8    d''8    
cis''8    d''4    cis''8  \bar "|"   \bar "|"   a'8    b'8    a'8    d'8    
d''16    d''16    d''8  \bar "|"   d''8    cis''8    a'8    a'8    g'8    e'8  
\bar "|"   a'8    b'8    a'8    a'8    b'16    b'16    cis''8  \bar "|"   d''8  
  a'8    b'8    cis''8    d''8    e''8  \bar "|"   \bar "|"   a'8    b'8    a'8 
   d'4    d''8  \bar "|"   d''8    cis''8    a'8    a'8    g'8    e'8  \bar "|" 
  g'4. ^"~"    a'8    d''8    e''8  \bar "|"   fis''16    e''16    d''8    
cis''8    d''4    e''8  \bar "||"   \bar "|" \grace {    a''8  }   fis''8    
e''8    d''8    e''8    d''8    cis''8  \bar "|"   a'4    d''8    cis''8    
d''8    e''8  \bar "|"   fis''8    e''8    d''8    e''8    d''8    cis''8  
\bar "|"   a'8    b'8    cis''8    d''8    e''8    fis''8  \bar "|"   \bar "|"  
 g''8    e''16    fis''16    g''8    a''8    g''8    e''8  \bar "|"   d''8    
cis''8    a'8    a'8    g'8    e'8  \bar "|"   g'8    fis'8    g'8    a'8    
d''8    e''8  \bar "|"   fis''8    d''8    cis''8    d''4    e''8  \bar "|"   
\bar "|"   fis''8    e''8    d''8    e''8    d''8    cis''8  \bar "|"   a'8    
d''8    d''8    cis''8    d''8    e''8  \bar "|" \grace {    a''8  }   fis''8   
 e''8    d''8    e''8    d''8    cis''8  \bar "|"   a'8    b'8    cis''8    
d''8    e''8    fis''8  \bar "|"   \bar "|"   g''4. ^"~"    a''8    g''8    
e''8  \bar "|"   d''8    cis''8    a'8    a'8    g'8    e'8  \bar "|"   g'8    
e'16    fis'16    g'8    a'8    d''8    e''8  \bar "|"   fis''8    d''8    
cis''8    d''4    cis''8  \bar "||"   
}

\score{
    <<

	\context Staff="default"
	{
	    \voicedefault 
	}

    >>
	\layout {
	}
	\midi {}
}
