\version "2.19.49"
% clairnote-type = sn
\include "clairnote.ly"
\header {
	transcription = "fidicen"
	crossRefNumber = "1"
	footnotes = ""
	meter = "Hornpipe"
	source = "https://thesession.org/tunes/1408#setting14779"
	arranger = "Setting 2"
	tagline = \markup { \vspace #1.8 \sans \abs-fontsize #7.5 \wordwrap {Sheet music in \with-url \clairnoteTypeUrl { \clairnoteTypeName music notation} published by Paul Morris using \with-url #"http://www.lilypond.org" {LilyPond.} Automatically converted to LilyPond format from an ABC source file from \with-url #"https://thesession.org" {the Session} website: \with-url #"https://thesession.org/tunes/1408#setting14779" {"https://thesession.org/tunes/1408#setting14779"}}}
	title = "Trumpet, The"
}
voicedefault =  {
\set Score.defaultBarType = ""

\time 4/4 \key g \major   \repeat volta 2 { \tuplet 3/2 {   d''8    d''8    d''8 
 }   d''4    \tuplet 3/2 {   d''8    d''8    d''8  }   d''4  \bar "|"   e''8    
fis''8    g''8    fis''8    e''8    d''8    c''8    b'8  \bar "|"   c''8    
d''8    e''8    d''8    c''8    b'8    a'8    g'8  \bar "|"   fis'8    g'8    
a'8    g'8    fis'8    d'8    e'8    fis'8  \bar "|"   \tuplet 3/2 {   g'8    
g'8    g'8  }   g'4    \tuplet 3/2 {   f'8    f'8    f'8  }   f'4  \bar "|" 
\tuplet 3/2 {   e'8    e'8    e'8  }   e'4    \tuplet 3/2 {   ees'8    ees'8    
ees'8  }   ees'4  \bar "|"   d'8    g'8    b'8    e''8    d''8    c''8    b'8   
 a'8  } \alternative{{   g'4    b'4    g'4    b'8    c''8    } {   g'4    b'4   
 g'2  \bar "||"   }}
}

\score{
    <<

	\context Staff="default"
	{
	    \voicedefault 
	}

    >>
	\layout {
	}
	\midi {}
}
