\version "2.19.49"
% clairnote-type = sn
\include "clairnote.ly"
\header {
	transcription = "CreadurMawnOrganig"
	crossRefNumber = "1"
	footnotes = ""
	meter = "Reel"
	source = "https://thesession.org/tunes/1333#setting14680"
	arranger = "Setting 2"
	tagline = \markup { \vspace #1.8 \sans \abs-fontsize #7.5 \wordwrap {Sheet music in \with-url \clairnoteTypeUrl { \clairnoteTypeName music notation} published by Paul Morris using \with-url #"http://www.lilypond.org" {LilyPond.} Automatically converted to LilyPond format from an ABC source file from \with-url #"https://thesession.org" {the Session} website: \with-url #"https://thesession.org/tunes/1333#setting14680" {"https://thesession.org/tunes/1333#setting14680"}}}
	title = "Twelve Pins, The"
}
voicedefault =  {
\set Score.defaultBarType = ""

\time 4/4 \key g \major   fis''4.    e''8    d''8    e''8    fis''8    g''8  
\bar "|"   a''4    fis''8    d''8    c''8    a'8    a'8    b'8  \bar "|"   c''4 
   c''8    b'8    c''8    b'8    a'8    b'8  \bar "|"   c''8    e''8    d''8    
b'8    c''8    a'8    a'4  \bar "|"   fis''4.    e''8    d''8    e''8    fis''8 
   g''8  \bar "|"   a''4    fis''8    d''8    c''8    a'8    a'8    b'8  
\bar "|"   c''4    c''8    b'8    c''8    b'8    a'8    b'8  \bar "|"   c''8    
e''8    d''8    c''8    b'8    g'8    g'4  \bar "|"   fis''4.    e''8    d''8   
 e''8    fis''8    g''8  \bar "|"   a''4    fis''8    d''8    c''8    a'8    
a'8    b'8  \bar "|"   c''4    c''8    b'8    c''8    d''8    e''8    g''8  
\bar "|"   a''4    g''8    a''8    fis''8    d''8    d''8    e''8  \bar "|"   
fis''4.    g''8    a''4.    g''8  \bar "|"   fis''4.    e''8    d''8    c''8    
a'8    b'8  \bar "|"   c''4    c''8    b'8    c''8    b'8    a'8    b'8  
\bar "|"   c''8    e''8    d''8    c''8    b'8    g'8    g'4  \bar "||"   
}

\score{
    <<

	\context Staff="default"
	{
	    \voicedefault 
	}

    >>
	\layout {
	}
	\midi {}
}
