\version "2.19.49"
% clairnote-type = sn
\include "clairnote.ly"
\header {
	transcription = "gian marco"
	crossRefNumber = "1"
	footnotes = ""
	meter = "Polka"
	source = "https://thesession.org/tunes/904#setting904"
	arranger = "Setting 1"
	tagline = \markup { \vspace #1.8 \sans \abs-fontsize #7.5 \wordwrap {Sheet music in \with-url \clairnoteTypeUrl { \clairnoteTypeName music notation} published by Paul Morris using \with-url #"http://www.lilypond.org" {LilyPond.} Automatically converted to LilyPond format from an ABC source file from \with-url #"https://thesession.org" {the Session} website: \with-url #"https://thesession.org/tunes/904#setting904" {"https://thesession.org/tunes/904#setting904"}}}
	title = "Upperchurch, The"
}
voicedefault =  {
\set Score.defaultBarType = ""

\time 2/4 \key g \major   b'4    b'4  \bar "|"   a'8    g'8    g'8    a'16    
g'16  \bar "|"   fis'8    g'8    a'8    b'8  \bar "|"   d''8    c''8    c''4  
\bar "|"     c''4    c''4  \bar "|"   b'8    a'8    a'4  \bar "|"   g'8    
fis'8    e'8    fis'8  \bar "|"   e'8    d'8    b8    d'8  \bar ":|."   a'8    
g'8    g'4  \bar "||"     d''8    b'8    b'8.    c''16  \bar "|"   d''8    b'8  
  b'8.    c''16  \bar "|"   d''8    b'8    e''8    b'8  \bar "|"   d''8    c''8 
   c''4  \bar "|"     c''8    a'8    a'8.    b'16  \bar "|"   c''8    a'8    
a'16    b'16    c''16    a'16  \bar "|"   d''8    c''8    b'8    a'8  \bar "|"  
 g'8    d'8    b8    d'8  \bar ":|."   g'4    g'8    a'8  \bar "||"   
}

\score{
    <<

	\context Staff="default"
	{
	    \voicedefault 
	}

    >>
	\layout {
	}
	\midi {}
}
