\version "2.19.49"
% clairnote-type = sn
\include "clairnote.ly"
\header {
	transcription = "pjmacd"
	crossRefNumber = "1"
	footnotes = ""
	meter = "Reel"
	source = "https://thesession.org/tunes/999#setting999"
	arranger = "Setting 1"
	tagline = \markup { \vspace #1.8 \sans \abs-fontsize #7.5 \wordwrap {Sheet music in \with-url \clairnoteTypeUrl { \clairnoteTypeName music notation} published by Paul Morris using \with-url #"http://www.lilypond.org" {LilyPond.} Automatically converted to LilyPond format from an ABC source file from \with-url #"https://thesession.org" {the Session} website: \with-url #"https://thesession.org/tunes/999#setting999" {"https://thesession.org/tunes/999#setting999"}}}
	title = "West Clare"
}
voicedefault =  {
\set Score.defaultBarType = ""

\time 4/4 \key g \major   \repeat volta 2 {   b'8    d''8  \bar "|" \grace {    
e''8    fis''8  }   e''4    d''8    b'8    a'8    b'8    a'8    g'8  \bar "|"   
e'8    a'8  \grace {    b'8  }   a'8    g'8  \grace {    a'8    b'8  }   a'4    
g''8    fis''8  \bar "|" \grace {    e''8    fis''8  }   e''4    d''8    b'8    
a'8    b'8    a'8    g'8  \bar "|"   e'8    g'8    g'8    fis'8    g'4  }     
\repeat volta 2 {   b'8    d''8  \bar "|" \grace {    e''8    fis''8  }   e''4  
  g''8    e''8    e''8    d''8    b'8    d''8  \bar "|"   e''8    a'8    
\tuplet 3/2 {   a'8    a'8    a'8  }   e''8    a'8    b'8    d''8  \bar "|" 
\grace {    e''8    fis''8  }   e''4    g''8    e''8    e''8    d''8    b'8    
a'8  \bar "|" \tuplet 3/2 {   b'8    cis''8    d''8  }   e''8    fis''8    g''4  
}   
}

\score{
    <<

	\context Staff="default"
	{
	    \voicedefault 
	}

    >>
	\layout {
	}
	\midi {}
}
