\version "2.19.49"
% clairnote-type = sn
\include "clairnote.ly"
\header {
	transcription = "Edgar Bolton"
	crossRefNumber = "1"
	footnotes = ""
	meter = "Reel"
	source = "https://thesession.org/tunes/999#setting14211"
	arranger = "Setting 5"
	tagline = \markup { \vspace #1.8 \sans \abs-fontsize #7.5 \wordwrap {Sheet music in \with-url \clairnoteTypeUrl { \clairnoteTypeName music notation} published by Paul Morris using \with-url #"http://www.lilypond.org" {LilyPond.} Automatically converted to LilyPond format from an ABC source file from \with-url #"https://thesession.org" {the Session} website: \with-url #"https://thesession.org/tunes/999#setting14211" {"https://thesession.org/tunes/999#setting14211"}}}
	title = "West Clare"
}
voicedefault =  {
\set Score.defaultBarType = ""

\time 4/4 \key a \major   \repeat volta 2 {   fis''4    e''8    cis''8    b'4. 
^"~"    a'8    \bar "|"   fis'8    b'8    \tuplet 3/2 {   b'8    b'8    b'8  }   
b'8    cis''8    d''8    e''8    \bar "|"   fis''4    e''8    d''8    b'4. 
^"~"    a'8    \bar "|"   e'8    a'8    \tuplet 3/2 {   a'8    a'8    a'8  }   
a'8    b'8    cis''8    e''8    }   \repeat volta 2 {   fis''4. ^"~"    fis''8  
  fis''8    e''8    cis''8    e''8    \bar "|"   fis''8    b'8    \tuplet 3/2 {  
 b'8    b'8    b'8  }   fis''8    e''8    cis''8    e''8    \bar "|"   fis''4. 
^"~"    fis''8    fis''8    e''8    cis''8    e''8    \bar "|"   \tuplet 3/2 {   
fis''8    fis''8    e''8  }   gis''8    e''8    a''8    r8   e''4    }   
}

\score{
    <<

	\context Staff="default"
	{
	    \voicedefault 
	}

    >>
	\layout {
	}
	\midi {}
}
