\version "2.19.49"
% clairnote-type = sn
\include "clairnote.ly"
\header {
	transcription = "rfdarsie"
	crossRefNumber = "1"
	footnotes = ""
	meter = "Jig"
	source = "https://thesession.org/tunes/427#setting13287"
	arranger = "Setting 3"
	tagline = \markup { \vspace #1.8 \sans \abs-fontsize #7.5 \wordwrap {Sheet music in \with-url \clairnoteTypeUrl { \clairnoteTypeName music notation} published by Paul Morris using \with-url #"http://www.lilypond.org" {LilyPond.} Automatically converted to LilyPond format from an ABC source file from \with-url #"https://thesession.org" {the Session} website: \with-url #"https://thesession.org/tunes/427#setting13287" {"https://thesession.org/tunes/427#setting13287"}}}
	title = "When Sick Is It Tea That You Want?"
}
voicedefault =  {
\set Score.defaultBarType = ""

\time 6/8 \key d \major   \repeat volta 2 {   a'8  \bar "|"   a'8    d''8    
d''8    d''8    cis''8    b'8  \bar "|"   a'8    d''8    b'8    a'8    fis'8    
g'8  \bar "|"   a'8    d''8    d''8    cis''8    d''8    e''8  \bar "|"   
fis''8    d''8    b'8    b'8    a'8    fis'8  \bar "|"   a'8    d''8    d''8    
d''8    cis''8    b'8  \bar "|"   a'8    d''8    b'8    a'8    fis'8    g'8  
\bar "|"   a'8    d''8    d''8    cis''8    d''8    e''8  \bar "|"   fis''8    
d''8    cis''8    d''4  }   \repeat volta 2 {   fis''16    g''16  \bar "|"   
a''8    d''8    d''8    d''4    c''8  \bar "|"   b'8    g'8    g'8    g'4    
g''16    a''16  \bar "|"   b''8    e''8    e''8    e''4    d''8  \bar "|"   
cis''8    a'8    a'8    a'4    b'8  \bar "|"   a'8    d''8    d''8    d''8    
cis''8    b'8  \bar "|"   a'8    d''8    b'8    a'8    fis'8    g'8  \bar "|"   
a'8    d''8    d''8    cis''8    d''8    e''8  \bar "|"   fis''8    d''8    
cis''8    d''4  }   
}

\score{
    <<

	\context Staff="default"
	{
	    \voicedefault 
	}

    >>
	\layout {
	}
	\midi {}
}
