\version "2.19.49"
% clairnote-type = sn
\include "clairnote.ly"
\header {
	transcription = "flamin fiddler"
	crossRefNumber = "1"
	footnotes = ""
	meter = "Reel"
	source = "https://thesession.org/tunes/304#setting13068"
	arranger = "Setting 2"
	tagline = \markup { \vspace #1.8 \sans \abs-fontsize #7.5 \wordwrap {Sheet music in \with-url \clairnoteTypeUrl { \clairnoteTypeName music notation} published by Paul Morris using \with-url #"http://www.lilypond.org" {LilyPond.} Automatically converted to LilyPond format from an ABC source file from \with-url #"https://thesession.org" {the Session} website: \with-url #"https://thesession.org/tunes/304#setting13068" {"https://thesession.org/tunes/304#setting13068"}}}
	title = "Whistler Of Rosslea, The"
}
voicedefault =  {
\set Score.defaultBarType = ""

\time 4/4 \key a \dorian   \bar "|"   e'8    fis'8    g'8    a'8    b'4    a'8  
  fis'8  \bar "|"   b'8    g'8    a'8    fis'8    g'8    e'4. ^"~"  \bar "|"   
d'8    e'8    fis'8    g'8    a'4    g'8    a'8  \bar "|"   b'8    c''8    a'8  
  b'8    g'8    a'8    fis'8    g'8  \bar "|"   \bar "|"   e'8    fis'8    g'8  
  e'8    fis'8    g'8    a'8    fis'8  \bar "|"   b'8    c''!8    d''8    b'8   
 e''8    d''8    b'8    a'8  \bar "|"   g'8    a'8    \tuplet 3/2 {   b'8    a'8 
   g'8  }   a'8    g'8    fis'8    a'8  \bar "|"   g'8    e'8    fis'8    d'8   
 e'4.    b8  \bar "|"   \bar "|"   e'8    fis'8    g'8    a'8    b'4    a'8    
fis'8  \bar "|"   b'8    g'8    a'8    fis'8    g'8    e'4. ^"~"  \bar "|"   
d'8    e'8    fis'8    g'8    a'8    fis'8    g'8    a'8  \bar "|"   b'8    
c''8    a'8    b'8    g'8    a'8    fis'8    g'8  \bar "|"   \bar "|"   e'8    
fis'8    g'8    e'8    fis'8    g'8    a'8    fis'8  \bar "|"   b'8    c''!8    
d''8    b'8    e''8    d''8    b'8    a'8  \bar "|"   g'8    a'8    
\tuplet 3/2 {   b'8    a'8    g'8  }   a'8    g'8    fis'8    a'8  \bar "|"   
g'8    e'8    fis'8    d'8    e'4.    d''8  \bar "|"   \repeat volta 2 {   e''4 
   b'8    e''8    g'8    e''8    b'8    e''8  \bar "|"   e''8    d''8    fis''8 
   d''8    e''8    d''8    b'8    c''!8  \bar "|"   d''4    a'8    d''8    
fis'8    d''8    a'8    d''8  \bar "|"   d''8    c''!8    b'8    a'8    g'8    
fis'8    d'8    fis'8  \bar "|"   \bar "|"   e'8    e''4. ^"~"    fis''8    
e''8    b'8    a'8  \bar "|"   g'8    a'8    b'8    c''!8    d''4.    e''8  
\bar "|"   e''8    d''8    b'8    a'8    g'8    a'8    \tuplet 3/2 {   b'8    
a'8    g'8  } } \alternative{{   a'8    fis'8    d'8    fis'8    e'4.    d''8  
} }    
}

\score{
    <<

	\context Staff="default"
	{
	    \voicedefault 
	}

    >>
	\layout {
	}
	\midi {}
}
