\version "2.19.49"
% clairnote-type = sn
\include "clairnote.ly"
\header {
	transcription = "Natalia"
	crossRefNumber = "1"
	footnotes = ""
	meter = "Reel"
	source = "https://thesession.org/tunes/602#setting28474"
	arranger = "Setting 7"
	tagline = \markup { \vspace #1.8 \sans \abs-fontsize #7.5 \wordwrap {Sheet music in \with-url \clairnoteTypeUrl { \clairnoteTypeName music notation} published by Paul Morris using \with-url #"http://www.lilypond.org" {LilyPond.} Automatically converted to LilyPond format from an ABC source file from \with-url #"https://thesession.org" {the Session} website: \with-url #"https://thesession.org/tunes/602#setting28474" {"https://thesession.org/tunes/602#setting28474"}}}
	title = "Whiskey Before Breakfast"
}
voicedefault =  {
\set Score.defaultBarType = ""

\time 4/4 \key d \major     d'8 ^"D"   e'8    fis'8    g'8    a'4    d'4    
\bar "|"   a'8    b'8    a'8    g'8    fis'8    d'8    e'8    fis'8    \bar "|" 
    g'4 ^"G"   b'8    g'8      fis'4 ^"D"   a'8    fis'8    \bar "|"     e'8 
^"A"   d'8    e'8    fis'8    e'4    e'4  \bar "|"       d'8 ^"D"   e'8    
fis'8    g'8    a'4    d'4    \bar "|"   a'8    b'8    a'8    g'8    fis'8    
d'8    e'8    fis'8    \bar "|"     g'4 ^"G"   b'8    g'8      fis'4 ^"D"   a'8 
   fis'8    \bar "|"     e'8 ^"A"   d'8    e'8    fis'8      d'4 ^"D"   r4   
\bar ":|."     e'8 ^"A"   d'8    e'8    fis'8      d'4 ^"D"   a'8    b'8    
\bar "||"       d''4 ^"D"   d''8    d''8    d''8    b'8    a'8    b'8    
\bar "|"   d''8    b'8    a'8    fis'8    e'8    d'8    a'8    d''8    \bar "|" 
    e''4 ^"Em"   e''8    e''8    e''4    e''8    fis''8    \bar "|"   g''8    
fis''8    e''8    d''8      cis''8 ^"A"   a'8    b'8    cis''8    \bar "|"      
 d''8 ^"D"   fis''8    e''8    d''8      cis''8 ^"A"   e''8    d''8    cis''8   
 \bar "|"     b'8 ^"G"   cis''8    d''8    b'8      a'8 ^"D"   fis'8    e'8    
d'8    \bar "|"     g'8 ^"G"   b'8    a'8    g'8      fis'8 ^"D"   a'8    g'8   
 fis'8    \bar "|"     e'8 ^"A"   d'8    e'8    fis'8      d'4 ^"D"   a'8    
b'8    \bar ":|."     e'8 ^"A"   d'8    e'8    fis'8      d'4 ^"D"   r4   
\bar "|."   
}

\score{
    <<

	\context Staff="default"
	{
	    \voicedefault 
	}

    >>
	\layout {
	}
	\midi {}
}
