\version "2.19.49"
% clairnote-type = sn
\include "clairnote.ly"
\header {
	transcription = "ceolachan"
	crossRefNumber = "1"
	footnotes = ""
	meter = "Hornpipe"
	source = "https://thesession.org/tunes/1158#setting30132"
	arranger = "Setting 3"
	tagline = \markup { \vspace #1.8 \sans \abs-fontsize #7.5 \wordwrap {Sheet music in \with-url \clairnoteTypeUrl { \clairnoteTypeName music notation} published by Paul Morris using \with-url #"http://www.lilypond.org" {LilyPond.} Automatically converted to LilyPond format from an ABC source file from \with-url #"https://thesession.org" {the Session} website: \with-url #"https://thesession.org/tunes/1158#setting30132" {"https://thesession.org/tunes/1158#setting30132"}}}
	title = "William Taylor's Table Top"
}
voicedefault =  {
\set Score.defaultBarType = ""

\time 4/4 \key a \minor   \repeat volta 2 {   \tuplet 3/2 {   e'8    fis'8    
gis'8  }   \bar "|"   a'4    a'4    a'8.    b'16    c''8.    a'16    \bar "|"   
b'8.    c''16    b'8.    a'16    gis'4    e'4    \bar "|"   e''4    e''4    
d''4   ~    d''8.    c''16    \bar "|"   b'8.    a'16    gis'8.    a'16    
\tuplet 3/2 {   b'8    c''8    d''8  }   c''8.    b'16    \bar "|"     a'4    
a'4   ~    a'8.    b'16    \tuplet 3/2 {   c''8    b'8    a'8  }   \bar "|"   
b'8.    c''16    \tuplet 3/2 {   b'8    a'8    gis'8  }   e'2    \bar "|"   
e''8.    d''16    c''8.    b'16    a'8.    c''16    \tuplet 3/2 {   b'8    a'8   
 gis'8  }   \bar "|"   a'4    a'4    a'4    }     \repeat volta 2 {   c''8.    
d''16    \bar "|"   e''8.    c''16    a'8.    c''16    e''4    e''4    \bar "|" 
  d''8.    b'16    gis'8.    b'16    d''4    d''4    \bar "|"   c''8.    b'16   
 a'8.    gis'16    a'4   ~    a'8.    c''16    \bar "|"   b'8.    a'16    
gis'8.    a'16    b'8.    c''16    d''8.    f''16    \bar "|"     e''4    a'8.  
  c''16    e''8.    c''16    \tuplet 3/2 {   e''8    d''8    c''8  }   \bar "|"  
 d''4    gis'8.    b'16    d''8.    b'16    \tuplet 3/2 {   d''8    c''8    b'8  
}   \bar "|"   c''8.    b'16    a'8.    gis'16    \tuplet 3/2 {   a'8    b'8    
c''8  }   b'8.    gis'16    \bar "|"   a'4    gis'4    a'4    }   
}

\score{
    <<

	\context Staff="default"
	{
	    \voicedefault 
	}

    >>
	\layout {
	}
	\midi {}
}
