\version "2.19.49"
% clairnote-type = sn
\include "clairnote.ly"
\header {
	transcription = "Will Harmon"
	crossRefNumber = "1"
	footnotes = ""
	meter = "Reel"
	source = "https://thesession.org/tunes/910#setting14096"
	arranger = "Setting 3"
	tagline = \markup { \vspace #1.8 \sans \abs-fontsize #7.5 \wordwrap {Sheet music in \with-url \clairnoteTypeUrl { \clairnoteTypeName music notation} published by Paul Morris using \with-url #"http://www.lilypond.org" {LilyPond.} Automatically converted to LilyPond format from an ABC source file from \with-url #"https://thesession.org" {the Session} website: \with-url #"https://thesession.org/tunes/910#setting14096" {"https://thesession.org/tunes/910#setting14096"}}}
	title = "Windbroke"
}
voicedefault =  {
\set Score.defaultBarType = ""

\time 4/4 \key e \minor   \bar "|"   b'8    e'8  \tuplet 3/2 {   e'8    e'8    
e'8  }   g'8    a'8    b'8    e'16    e'16  \bar "|"   e'8    g'8    a'8    
d''8    b'4    a'8    g'8  \bar "|"   
}

\score{
    <<

	\context Staff="default"
	{
	    \voicedefault 
	}

    >>
	\layout {
	}
	\midi {}
}
