\version "2.19.49"
% clairnote-type = sn
\include "clairnote.ly"
\header {
	transcription = "Manu Novo"
	crossRefNumber = "1"
	footnotes = ""
	meter = "Reel"
	source = "https://thesession.org/tunes/125#setting12728"
	arranger = "Setting 4"
	tagline = \markup { \vspace #1.8 \sans \abs-fontsize #7.5 \wordwrap {Sheet music in \with-url \clairnoteTypeUrl { \clairnoteTypeName music notation} published by Paul Morris using \with-url #"http://www.lilypond.org" {LilyPond.} Automatically converted to LilyPond format from an ABC source file from \with-url #"https://thesession.org" {the Session} website: \with-url #"https://thesession.org/tunes/125#setting12728" {"https://thesession.org/tunes/125#setting12728"}}}
	title = "Within A Mile Of Dublin"
}
voicedefault =  {
\set Score.defaultBarType = ""

\time 4/4 \key d \mixolydian   \bar "|"   fis'8    g'8  \repeat volta 2 {   a'8 
   d'8    d'8    e'8    fis'8    e'8    fis'8    g'8  \bar "|"   a'8    d'8    
d'8    b'8    c''4    b'8    c''8  \bar "|"   a'8    d'8    d'8    e'8    fis'8 
   e'8    fis'8    g'8  \bar "|"   a'8    b'8    c''8    a'8    g'4    fis'8    
g'8  }   \bar "||"   a'8    d''8    d''8    c''8    a'8    g'8    fis'8    g'8  
\bar "|"   a'8    d''8    d''8    e''8    fis''8    g''8    e''8    c''8  
\bar "|"   a'8    d''8    d''8    c''8    a'8    g'8    fis'8    g'8  \bar "|"  
 a'8    b'8    c''8    a'8    g'4    fis'8    g'8  \bar "|"   a'8    d''8    
d''8    c''8    a'8    g'8    fis'8    g'8  \bar "|"   a'8    d''8    d''8    
e''8    fis''8    e''8    fis''8    g''8  \bar "|"   a''8    fis''8    
\tuplet 3/2 {   g''8    fis''8    e''8  }   fis''8    d''8    e''8    cis''8  
\bar "|"   d''8    c''8    a'8    fis'8    g'4    fis'8    g'8  \bar "||"   
}

\score{
    <<

	\context Staff="default"
	{
	    \voicedefault 
	}

    >>
	\layout {
	}
	\midi {}
}
