\version "2.19.49"
% clairnote-type = sn
\include "clairnote.ly"
\header {
	transcription = "Markmoloney"
	crossRefNumber = "1"
	footnotes = ""
	meter = "Reel"
	source = "https://thesession.org/tunes/125#setting12729"
	arranger = "Setting 5"
	tagline = \markup { \vspace #1.8 \sans \abs-fontsize #7.5 \wordwrap {Sheet music in \with-url \clairnoteTypeUrl { \clairnoteTypeName music notation} published by Paul Morris using \with-url #"http://www.lilypond.org" {LilyPond.} Automatically converted to LilyPond format from an ABC source file from \with-url #"https://thesession.org" {the Session} website: \with-url #"https://thesession.org/tunes/125#setting12729" {"https://thesession.org/tunes/125#setting12729"}}}
	title = "Within A Mile Of Dublin"
}
voicedefault =  {
\set Score.defaultBarType = ""

\time 4/4 \key d \mixolydian   fis'8    g'8  \bar "|"   a'8    d'8    d'8    
e'8    fis'8    d'8    \tuplet 3/2 {   e'8    fis'8    g'8  } \bar "|"   a'8    
d'8    d'8    d''8    c''4    b'8    c''8  \bar "|"   a'8    d'8    d'8    e'8  
  c''8    d'8    e'8    g'8  \bar "|"   a'8    d''8    c''8    a'8    g'8    
c''8    e'8    g'8  \bar "|"   a'8    d'8    d'8    e'8    fis'8    d'8    
\tuplet 3/2 {   e'8    fis'8    g'8  } \bar "|"   a'8    d'8    d'8    d''8    
c''4    b'8    c''8  \bar "|"   a'8    d'8    d'8    e'8    c''8    d'8    e'8  
  g'8  \bar "|"   a'8    d''8    c''8    a'8    g'4    fis'8    g'8  \bar "|"   
\bar "|"   a'8    d''8    d''8    c''8    a'8    g'8    fis'8    g'8  \bar "|"  
 a'8    d''8    d''8    e''8    fis''8    d''8    e''8    c''8  \bar "|"   a'8  
  d''8    d''8    c''8    a'8    g'8    fis'8    g'8  \bar "|"   a'8    g'8    
c''8    a'8    g'8    c''8    e'8    g'8  \bar "|"   a'8    d''8    d''8    
c''8    a'8    g'8    fis'8    g'8  \bar "|"   a'8    d''8    d''8    e''8    
fis''8    d''8    \tuplet 3/2 {   e''8    fis''8    g''8  } \bar "|" 
\tuplet 3/2 {   a''8    g''8    fis''8  }   \tuplet 3/2 {   g''8    fis''8    
e''8  }   \tuplet 3/2 {   fis''8    e''8    d''8  }   e''8    c''8  \bar "|"   
d''8    c''8    a'8    fis'8    g'4    fis'8    g'8  \bar "|"   
}

\score{
    <<

	\context Staff="default"
	{
	    \voicedefault 
	}

    >>
	\layout {
	}
	\midi {}
}
